\relax 
\@writefile{toc}{\contentsline {chapter}{\numberline {4}\IeC {\textOmicron } \IeC {\texttau }\IeC {\textalpha }\IeC {\textxi }\IeC {\textiota }\IeC {\textnu }\IeC {\textomicron }\IeC {\textmu }\IeC {\texteta }\IeC {\texttau }\IeC {\ensuregreek {\acctonos \texteta }}\IeC {\textvarsigma } \textlatin  {SVM}}{41}}
\@writefile{lof}{\addvspace {10\p@ }}
\@writefile{lot}{\addvspace {10\p@ }}
\newlabel{chapter_classification_theoretical}{{4}{41}}
\@writefile{toc}{\contentsline {section}{\numberline {4.1}\IeC {\textEpsilon }\IeC {\textiota }\IeC {\textsigma }\IeC {\textalpha }\IeC {\textgamma }\IeC {\textomega }\IeC {\textgamma }\IeC {\ensuregreek {\acctonos \texteta }}}{41}}
\@writefile{toc}{\contentsline {section}{\numberline {4.2}\IeC {\textBeta }\IeC {\ensuregreek {\acctonos \textepsilon }}\IeC {\textlambda }\IeC {\texttau }\IeC {\textiota }\IeC {\textsigma }\IeC {\texttau }\IeC {\textomicron } \IeC {\textupsilon }\IeC {\textpi }\IeC {\textepsilon }\IeC {\textrho }\IeC {\textepsilon }\IeC {\textpi }\IeC {\ensuregreek {\acctonos \textiota }}\IeC {\textpi }\IeC {\textepsilon }\IeC {\textdelta }\IeC {\textomicron } \IeC {\textkappa }\IeC {\textalpha }\IeC {\textiota } \IeC {\textdelta }\IeC {\textiota }\IeC {\textalpha }\IeC {\textnu }\IeC {\ensuregreek {\acctonos \textupsilon }}\IeC {\textsigma }\IeC {\textmu }\IeC {\textalpha }\IeC {\texttau }\IeC {\textalpha } \IeC {\textupsilon }\IeC {\textpi }\IeC {\textomicron }\IeC {\textsigma }\IeC {\texttau }\IeC {\ensuregreek {\acctonos \texteta }}\IeC {\textrho }\IeC {\textiota }\IeC {\textxi }\IeC {\texteta }\IeC {\textvarsigma }}{41}}
\select@language{greek}
\@writefile{toc}{\select@language{greek}}
\@writefile{lof}{\select@language{greek}}
\@writefile{lot}{\select@language{greek}}
\select@language{greek}
\@writefile{toc}{\select@language{greek}}
\@writefile{lof}{\select@language{greek}}
\@writefile{lot}{\select@language{greek}}
\@writefile{lof}{\contentsline {figure}{\numberline {4.1}{\ignorespaces \IeC {\textEpsilon }\IeC {\textpi }\IeC {\ensuregreek {\acctonos \textiota }}\IeC {\textpi }\IeC {\textepsilon }\IeC {\textdelta }\IeC {\textomicron } \IeC {\textdelta }\IeC {\textiota }\IeC {\textalpha }\IeC {\textchi }\IeC {\textomega }\IeC {\textrho }\IeC {\textiota }\IeC {\textsigma }\IeC {\textmu }\IeC {\textomicron }\IeC {\ensuregreek {\acctonos \textupsilon }} \IeC {\textdelta }\IeC {\ensuregreek {\acctonos \textupsilon }}\IeC {\textomicron } \IeC {\textgamma }\IeC {\textrho }\IeC {\textalpha }\IeC {\textmu }\IeC {\textmu }\IeC {\textiota }\IeC {\textkappa }\IeC {\ensuregreek {\acctonos \textomega }}\IeC {\textvarsigma } \IeC {\textdelta }\IeC {\textiota }\IeC {\textalpha }\IeC {\textchi }\IeC {\textomega }\IeC {\textrho }\IeC {\ensuregreek {\acctonos \textiota }}\IeC {\textsigma }\IeC {\textiota }\IeC {\textmu }\IeC {\textomega }\IeC {\textnu } \IeC {\textkappa }\IeC {\textlambda }\IeC {\ensuregreek {\acctonos \textalpha }}\IeC {\textsigma }\IeC {\textepsilon }\IeC {\textomega }\IeC {\textnu }\relax }}{42}}
\newlabel{im:2classes_boundary}{{4.1}{42}}
\newlabel{eq:min_constraint}{{4.1}{42}}
\newlabel{eq:lagrangian}{{4.2}{42}}
\newlabel{eq:partial_L_w}{{4.3}{42}}
\newlabel{eq:partial_L_w0}{{4.4}{42}}
\citation{Duda2000}
\newlabel{eq:lambda}{{4.5}{43}}
\newlabel{eq:dot_product}{{4.9}{43}}
\@writefile{toc}{\contentsline {section}{\numberline {4.3}\textlatin  {Soft-margin}}{43}}
\select@language{greek}
\@writefile{toc}{\select@language{greek}}
\@writefile{lof}{\select@language{greek}}
\@writefile{lot}{\select@language{greek}}
\select@language{greek}
\@writefile{toc}{\select@language{greek}}
\@writefile{lof}{\select@language{greek}}
\@writefile{lot}{\select@language{greek}}
\@writefile{lof}{\contentsline {figure}{\numberline {4.2}{\ignorespaces \IeC {\textUpsilon }\IeC {\textpi }\IeC {\textomicron }\IeC {\textsigma }\IeC {\ensuregreek {\acctonos \textupsilon }}\IeC {\textnu }\IeC {\textomicron }\IeC {\textlambda }\IeC {\textomicron } \IeC {\textdelta }\IeC {\textepsilon }\IeC {\textiota }\IeC {\textgamma }\IeC {\textmu }\IeC {\ensuregreek {\acctonos \textalpha }}\IeC {\texttau }\IeC {\textomega }\IeC {\textnu } \IeC {\textpi }\IeC {\textomicron }\IeC {\textupsilon } \IeC {\textalpha }\IeC {\textnu }\IeC {\texttau }\IeC {\textiota }\IeC {\textsigma }\IeC {\texttau }\IeC {\textomicron }\IeC {\textiota }\IeC {\textchi }\IeC {\textomicron }\IeC {\ensuregreek {\acctonos \textupsilon }}\IeC {\textnu } \IeC {\textsigma }\IeC {\textepsilon } \IeC {\textdelta }\IeC {\textiota }\IeC {\textalpha }\IeC {\textphi }\IeC {\textomicron }\IeC {\textrho }\IeC {\textepsilon }\IeC {\texttau }\IeC {\textiota }\IeC {\textkappa }\IeC {\ensuregreek {\acctonos \textepsilon }}\IeC {\textvarsigma } \IeC {\textkappa }\IeC {\textlambda }\IeC {\ensuregreek {\acctonos \textalpha }}\IeC {\textsigma }\IeC {\textepsilon }\IeC {\textiota }\IeC {\textvarsigma } (\IeC {\textkappa }\IeC {\textalpha }\IeC {\textlambda }\IeC {\ensuregreek {\acctonos \texteta }} \IeC {\textkappa }\IeC {\textalpha }\IeC {\textiota } \IeC {\textkappa }\IeC {\textalpha }\IeC {\textkappa }\IeC {\ensuregreek {\acctonos \texteta }} \IeC {\textlambda }\IeC {\ensuregreek {\acctonos \texteta }}\IeC {\textpsi }\IeC {\texteta }) \IeC {\textpi }\IeC {\textomicron }\IeC {\textupsilon } \IeC {\textbeta }\IeC {\textrho }\IeC {\ensuregreek {\acctonos \textiota }}\IeC {\textsigma }\IeC {\textkappa }\IeC {\textomicron }\IeC {\textnu }\IeC {\texttau }\IeC {\textalpha }\IeC {\textiota } \IeC {\textsigma }\IeC {\textepsilon } \IeC {\textmu }\IeC {\textiota }\IeC {\textkappa }\IeC {\textrho }\IeC {\ensuregreek {\acctonos \texteta }} \IeC {\textalpha }\IeC {\textpi }\IeC {\ensuregreek {\acctonos \textomicron }}\IeC {\textsigma }\IeC {\texttau }\IeC {\textalpha }\IeC {\textsigma }\IeC {\texteta } \IeC {\textomega }\IeC {\textvarsigma } \IeC {\textpi }\IeC {\textrho }\IeC {\textomicron }\IeC {\textvarsigma } \IeC {\texttau }\IeC {\textomicron } \IeC {\textchi }\IeC {\textalpha }\IeC {\textrho }\IeC {\textalpha }\IeC {\textkappa }\IeC {\texttau }\IeC {\texteta }\IeC {\textrho }\IeC {\textiota }\IeC {\textsigma }\IeC {\texttau }\IeC {\textiota }\IeC {\textkappa }\IeC {\ensuregreek {\acctonos \textomicron }} \IeC {\texttau }\IeC {\texteta }\IeC {\textvarsigma } \IeC {\texttau }\IeC {\textepsilon }\IeC {\texttau }\IeC {\textalpha }\IeC {\textgamma }\IeC {\textmu }\IeC {\ensuregreek {\acctonos \textepsilon }}\IeC {\textnu }\IeC {\texteta }\IeC {\textvarsigma } \IeC {\texttau }\IeC {\textomicron }\IeC {\textupsilon } \IeC {\textkappa }\IeC {\textepsilon }\IeC {\textnu }\IeC {\texttau }\IeC {\textrho }\IeC {\textomicron }\IeC {\textepsilon }\IeC {\textiota }\IeC {\textdelta }\IeC {\textomicron }\IeC {\ensuregreek {\acctonos \textupsilon }}\IeC {\textvarsigma }.\relax }}{44}}
\newlabel{im:grasping_centroid}{{4.2}{44}}
\citation{[duda_hart]}
\@writefile{toc}{\contentsline {section}{\numberline {4.4}\IeC {\textMu }\IeC {\texteta }-\IeC {\textgamma }\IeC {\textrho }\IeC {\textalpha }\IeC {\textmu }\IeC {\textmu }\IeC {\textiota }\IeC {\textkappa }\IeC {\ensuregreek {\acctonos \textomega }}\IeC {\textvarsigma } \IeC {\textdelta }\IeC {\textiota }\IeC {\textalpha }\IeC {\textchi }\IeC {\textomega }\IeC {\textrho }\IeC {\ensuregreek {\acctonos \textiota }}\IeC {\textsigma }\IeC {\textiota }\IeC {\textmu }\IeC {\textepsilon }\IeC {\textvarsigma } \IeC {\textkappa }\IeC {\textlambda }\IeC {\ensuregreek {\acctonos \textalpha }}\IeC {\textsigma }\IeC {\textepsilon }\IeC {\textiota }\IeC {\textvarsigma }}{45}}
\@writefile{lof}{\contentsline {figure}{\numberline {4.3}{\ignorespaces \IeC {\textUpsilon }\IeC {\textpi }\IeC {\textomicron }\IeC {\textsigma }\IeC {\ensuregreek {\acctonos \textupsilon }}\IeC {\textnu }\IeC {\textomicron }\IeC {\textlambda }\IeC {\textomicron } \IeC {\textdelta }\IeC {\textepsilon }\IeC {\textiota }\IeC {\textgamma }\IeC {\textmu }\IeC {\ensuregreek {\acctonos \textalpha }}\IeC {\texttau }\IeC {\textomega }\IeC {\textnu } \IeC {\textpi }\IeC {\textomicron }\IeC {\textupsilon } \IeC {\textalpha }\IeC {\textnu }\IeC {\texttau }\IeC {\textiota }\IeC {\textsigma }\IeC {\texttau }\IeC {\textomicron }\IeC {\textiota }\IeC {\textchi }\IeC {\textomicron }\IeC {\ensuregreek {\acctonos \textupsilon }}\IeC {\textnu } \IeC {\textsigma }\IeC {\textepsilon } \IeC {\textdelta }\IeC {\textiota }\IeC {\textalpha }\IeC {\textphi }\IeC {\textomicron }\IeC {\textrho }\IeC {\textepsilon }\IeC {\texttau }\IeC {\textiota }\IeC {\textkappa }\IeC {\ensuregreek {\acctonos \textepsilon }}\IeC {\textvarsigma } \IeC {\textkappa }\IeC {\textlambda }\IeC {\ensuregreek {\acctonos \textalpha }}\IeC {\textsigma }\IeC {\textepsilon }\IeC {\textiota }\IeC {\textvarsigma } (\IeC {\textkappa }\IeC {\textalpha }\IeC {\textlambda }\IeC {\ensuregreek {\acctonos \texteta }} \IeC {\textkappa }\IeC {\textalpha }\IeC {\textiota } \IeC {\textkappa }\IeC {\textalpha }\IeC {\textkappa }\IeC {\ensuregreek {\acctonos \texteta }} \IeC {\textlambda }\IeC {\ensuregreek {\acctonos \texteta }}\IeC {\textpsi }\IeC {\texteta }) \IeC {\textpi }\IeC {\textomicron }\IeC {\textupsilon } \IeC {\textepsilon }\IeC {\ensuregreek {\acctonos \textiota }}\IeC {\textnu }\IeC {\textalpha }\IeC {\textiota } \IeC {\textmu }\IeC {\texteta }-\IeC {\textgamma }\IeC {\textrho }\IeC {\textalpha }\IeC {\textmu }\IeC {\textmu }\IeC {\textiota }\IeC {\textkappa }\IeC {\ensuregreek {\acctonos \textomega }}\IeC {\textvarsigma } \IeC {\textdelta }\IeC {\textiota }\IeC {\textalpha }\IeC {\textchi }\IeC {\textomega }\IeC {\textrho }\IeC {\ensuregreek {\acctonos \textiota }}\IeC {\textsigma }\IeC {\textiota }\IeC {\textmu }\IeC {\textepsilon }\IeC {\textvarsigma } \IeC {\textomega }\IeC {\textvarsigma } \IeC {\textpi }\IeC {\textrho }\IeC {\textomicron }\IeC {\textvarsigma } \IeC {\texttau }\IeC {\textomicron } \IeC {\textkappa }\IeC {\textepsilon }\IeC {\textnu }\IeC {\texttau }\IeC {\textrho }\IeC {\textomicron }\IeC {\textepsilon }\IeC {\textiota }\IeC {\textdelta }\IeC {\ensuregreek {\acctonos \textepsilon }}\IeC {\textvarsigma } $(u,v)$.\relax }}{45}}
\newlabel{im:many_objects_feature_space}{{4.3}{45}}
\select@language{greek}
\@writefile{toc}{\select@language{greek}}
\@writefile{lof}{\select@language{greek}}
\@writefile{lot}{\select@language{greek}}
\select@language{greek}
\@writefile{toc}{\select@language{greek}}
\@writefile{lof}{\select@language{greek}}
\@writefile{lot}{\select@language{greek}}
\@writefile{toc}{\contentsline {section}{\numberline {4.5}\IeC {\textSigma }\IeC {\ensuregreek {\acctonos \textupsilon }}\IeC {\textnu }\IeC {\textomicron }\IeC {\textpsi }\IeC {\texteta } \IeC {\textkappa }\IeC {\textepsilon }\IeC {\textphi }\IeC {\textalpha }\IeC {\textlambda }\IeC {\textalpha }\IeC {\ensuregreek {\acctonos \textiota }}\IeC {\textomicron }\IeC {\textupsilon }}{46}}
\@setckpt{chapter_classification_theoretical}{
\setcounter{page}{47}
\setcounter{equation}{12}
\setcounter{enumi}{5}
\setcounter{enumii}{0}
\setcounter{enumiii}{0}
\setcounter{enumiv}{0}
\setcounter{footnote}{0}
\setcounter{mpfootnote}{0}
\setcounter{parentequation}{0}
\setcounter{part}{0}
\setcounter{chapter}{4}
\setcounter{section}{5}
\setcounter{subsection}{0}
\setcounter{subsubsection}{0}
\setcounter{paragraph}{0}
\setcounter{subparagraph}{0}
\setcounter{figure}{3}
\setcounter{table}{0}
\setcounter{ContinuedFloat}{0}
\setcounter{subfigure}{0}
\setcounter{subtable}{0}
\setcounter{float@type}{8}
\setcounter{algorithm}{1}
\setcounter{ALC@unique}{9}
\setcounter{ALC@line}{9}
\setcounter{ALC@rem}{0}
\setcounter{ALC@depth}{0}
\setcounter{definition}{0}
\setcounter{proposition}{0}
\setcounter{theorem}{0}
\setcounter{corollary}{0}
\setcounter{lemma}{0}
\setcounter{example}{0}
\setcounter{remark}{0}
\setcounter{notation}{0}
\setcounter{law}{0}
}
