\relax 
\citation{[khamassi_irs]}
\@writefile{toc}{\contentsline {chapter}{\numberline {5}\IeC {\textEpsilon }\IeC {\textnu }\IeC {\textiota }\IeC {\textsigma }\IeC {\textchi }\IeC {\textupsilon }\IeC {\texttau }\IeC {\textiota }\IeC {\textkappa }\IeC {\ensuregreek {\acctonos \texteta }} \IeC {\textmu }\IeC {\ensuregreek {\acctonos \textalpha }}\IeC {\texttheta }\IeC {\texteta }\IeC {\textsigma }\IeC {\texteta } \IeC {\textrho }\IeC {\textomicron }\IeC {\textmu }\IeC {\textpi }\IeC {\ensuregreek {\acctonos \textomicron }}\IeC {\texttau } \IeC {\textsigma }\IeC {\textepsilon } \IeC {\textsigma }\IeC {\textepsilon }\IeC {\textnu }\IeC {\ensuregreek {\acctonos \textalpha }}\IeC {\textrho }\IeC {\textiota }\IeC {\textomicron } \IeC {\textalpha }\IeC {\textlambda }\IeC {\textlambda }\IeC {\texteta }\IeC {\textlambda }\IeC {\textepsilon }\IeC {\textpi }\IeC {\ensuregreek {\acctonos \textiota }}\IeC {\textdelta }\IeC {\textrho }\IeC {\textalpha }\IeC {\textsigma }\IeC {\texteta }\IeC {\textvarsigma } \IeC {\textmu }\IeC {\textepsilon } \IeC {\ensuregreek {\acctonos \textalpha }}\IeC {\textnu }\IeC {\texttheta }\IeC {\textrho }\IeC {\textomega }\IeC {\textpi }\IeC {\textomicron }}{47}}
\@writefile{lof}{\addvspace {10\p@ }}
\@writefile{lot}{\addvspace {10\p@ }}
\newlabel{chapter_rl_experiment}{{5}{47}}
\@writefile{toc}{\contentsline {section}{\numberline {5.1}\IeC {\textSigma }\IeC {\textepsilon }\IeC {\textnu }\IeC {\ensuregreek {\acctonos \textalpha }}\IeC {\textrho }\IeC {\textiota }\IeC {\textomicron } \IeC {\textalpha }\IeC {\textlambda }\IeC {\textlambda }\IeC {\texteta }\IeC {\textlambda }\IeC {\textepsilon }\IeC {\textpi }\IeC {\ensuregreek {\acctonos \textiota }}\IeC {\textdelta }\IeC {\textrho }\IeC {\textalpha }\IeC {\textsigma }\IeC {\texteta }\IeC {\textvarsigma } \IeC {\textalpha }\IeC {\textnu }\IeC {\texttheta }\IeC {\textrho }\IeC {\ensuregreek {\acctonos \textomega }}\IeC {\textpi }\IeC {\textomicron }\IeC {\textupsilon }-\IeC {\textrho }\IeC {\textomicron }\IeC {\textmu }\IeC {\textpi }\IeC {\ensuregreek {\acctonos \textomicron }}\IeC {\texttau }}{47}}
\select@language{greek}
\@writefile{toc}{\select@language{greek}}
\@writefile{lof}{\select@language{greek}}
\@writefile{lot}{\select@language{greek}}
\select@language{greek}
\@writefile{toc}{\select@language{greek}}
\@writefile{lof}{\select@language{greek}}
\@writefile{lot}{\select@language{greek}}
\@writefile{lof}{\contentsline {figure}{\numberline {5.1}{\ignorespaces \IeC {\textDelta }\IeC {\textiota }\IeC {\ensuregreek {\acctonos \textalpha }}\IeC {\texttau }\IeC {\textalpha }\IeC {\textxi }\IeC {\texteta } \IeC {\textsigma }\IeC {\textepsilon }\IeC {\textnu }\IeC {\textalpha }\IeC {\textrho }\IeC {\ensuregreek {\acctonos \textiota }}\IeC {\textomicron }\IeC {\textupsilon } \IeC {\textalpha }\IeC {\textlambda }\IeC {\textlambda }\IeC {\texteta }\IeC {\textlambda }\IeC {\textepsilon }\IeC {\textpi }\IeC {\ensuregreek {\acctonos \textiota }}\IeC {\textdelta }\IeC {\textrho }\IeC {\textalpha }\IeC {\textsigma }\IeC {\texteta }\IeC {\textvarsigma } \IeC {\textmu }\IeC {\textepsilon }\IeC {\texttau }\IeC {\textalpha }\IeC {\textxi }\IeC {\ensuregreek {\acctonos \textupsilon }} \IeC {\textalpha }\IeC {\textnu }\IeC {\texttheta }\IeC {\textrho }\IeC {\ensuregreek {\acctonos \textomega }}\IeC {\textpi }\IeC {\textomicron }\IeC {\textupsilon }-\IeC {\textrho }\IeC {\textomicron }\IeC {\textmu }\IeC {\textpi }\IeC {\ensuregreek {\acctonos \textomicron }}\IeC {\texttau } \IeC {\textsigma }\IeC {\textepsilon } \IeC {\textepsilon }\IeC {\textiota }\IeC {\textkappa }\IeC {\textomicron }\IeC {\textnu }\IeC {\textiota }\IeC {\textkappa }\IeC {\ensuregreek {\acctonos \textomicron }} \IeC {\textpi }\IeC {\textepsilon }\IeC {\textrho }\IeC {\textiota }\IeC {\textbeta }\IeC {\ensuregreek {\acctonos \textalpha }}\IeC {\textlambda }\IeC {\textlambda }\IeC {\textomicron }\IeC {\textnu }.\relax }}{48}}
\newlabel{im:experiment}{{5.1}{48}}
\newlabel{eq:eng}{{5.1}{48}}
\newlabel{eq:reeng_function}{{5.2}{48}}
\citation{[anzalone]}
\citation{[hanan_salam2]}
\citation{[ooko]}
\newlabel{eq:reward}{{5.3}{49}}
\@writefile{toc}{\contentsline {section}{\numberline {5.2}\IeC {\textMu }\IeC {\texteta }-\IeC {\textlambda }\IeC {\textepsilon }\IeC {\textkappa }\IeC {\texttau }\IeC {\textiota }\IeC {\textkappa }\IeC {\ensuregreek {\acctonos \textalpha }} \IeC {\textchi }\IeC {\textalpha }\IeC {\textrho }\IeC {\textalpha }\IeC {\textkappa }\IeC {\texttau }\IeC {\texteta }\IeC {\textrho }\IeC {\textiota }\IeC {\textsigma }\IeC {\texttau }\IeC {\textiota }\IeC {\textkappa }\IeC {\ensuregreek {\acctonos \textalpha }} \IeC {\textalpha }\IeC {\textnu }\IeC {\texttheta }\IeC {\textrho }\IeC {\ensuregreek {\acctonos \textomega }}\IeC {\textpi }\IeC {\textiota }\IeC {\textnu }\IeC {\texteta }\IeC {\textvarsigma } \IeC {\textsigma }\IeC {\textupsilon }\IeC {\textmu }\IeC {\textmu }\IeC {\textepsilon }\IeC {\texttau }\IeC {\textomicron }\IeC {\textchi }\IeC {\ensuregreek {\acctonos \texteta }}\IeC {\textvarsigma }}{49}}
\citation{[anzalone]}
\citation{[ooko]}
\select@language{greek}
\@writefile{toc}{\select@language{greek}}
\@writefile{lof}{\select@language{greek}}
\@writefile{lot}{\select@language{greek}}
\select@language{greek}
\@writefile{toc}{\select@language{greek}}
\@writefile{lof}{\select@language{greek}}
\@writefile{lot}{\select@language{greek}}
\@writefile{toc}{\contentsline {section}{\numberline {5.3}\IeC {\textRho }\IeC {\textepsilon }\IeC {\textalpha }\IeC {\textlambda }\IeC {\textiota }\IeC {\textsigma }\IeC {\texttau }\IeC {\textiota }\IeC {\textkappa }\IeC {\ensuregreek {\acctonos \texteta }} \IeC {\textpi }\IeC {\textrho }\IeC {\textomicron }\IeC {\textsigma }\IeC {\textomicron }\IeC {\textmu }\IeC {\textomicron }\IeC {\ensuregreek {\acctonos \textiota }}\IeC {\textomega }\IeC {\textsigma }\IeC {\texteta }}{50}}
\newlabel{sec:realistic_sim}{{5.3}{50}}
\@writefile{lof}{\contentsline {figure}{\numberline {5.2}{\ignorespaces \IeC {\textOmicron }\IeC {\textpi }\IeC {\texttau }\IeC {\textiota }\IeC {\textkappa }\IeC {\ensuregreek {\acctonos \texteta }} \IeC {\texttau }\IeC {\texteta }\IeC {\textvarsigma } \IeC {\textpi }\IeC {\textepsilon }\IeC {\textiota }\IeC {\textrho }\IeC {\textalpha }\IeC {\textmu }\IeC {\textalpha }\IeC {\texttau }\IeC {\textiota }\IeC {\textkappa }\IeC {\ensuregreek {\acctonos \texteta }}\IeC {\textvarsigma } \IeC {\textdelta }\IeC {\textiota }\IeC {\ensuregreek {\acctonos \textalpha }}\IeC {\texttau }\IeC {\textalpha }\IeC {\textxi }\IeC {\texteta }\IeC {\textvarsigma } \IeC {\textsigma }\IeC {\texttau }\IeC {\textomicron } \IeC {\textepsilon }\IeC {\textiota }\IeC {\textkappa }\IeC {\textomicron }\IeC {\textnu }\IeC {\textiota }\IeC {\textkappa }\IeC {\ensuregreek {\acctonos \textomicron }} \IeC {\textpi }\IeC {\textepsilon }\IeC {\textrho }\IeC {\textiota }\IeC {\ensuregreek {\acctonos \textalpha }}\IeC {\textbeta }\IeC {\ensuregreek {\acctonos \textalpha }}\IeC {\textlambda }\IeC {\textlambda }\IeC {\textomicron }\IeC {\textnu } \textlatin  {V-REP} \IeC {\textalpha }\IeC {\textpi }\IeC {\ensuregreek {\acctonos \textomicron }} \IeC {\texttau }\IeC {\texteta } \IeC {\textsigma }\IeC {\textkappa }\IeC {\textomicron }\IeC {\textpi }\IeC {\textiota }\IeC {\ensuregreek {\acctonos \textalpha }} \IeC {\texttau }\IeC {\textomicron }\IeC {\textupsilon } \IeC {\textalpha }\IeC {\textnu }\IeC {\texttheta }\IeC {\textrho }\IeC {\ensuregreek {\acctonos \textomega }}\IeC {\textpi }\IeC {\textomicron }\IeC {\textupsilon } (\IeC {\textalpha }\IeC {\textrho }\IeC {\textiota }\IeC {\textsigma }\IeC {\texttau }\IeC {\textepsilon }\IeC {\textrho }\IeC {\ensuregreek {\acctonos \textalpha }}) \IeC {\textkappa }\IeC {\textalpha }\IeC {\textiota } \IeC {\texttau }\IeC {\textomicron }\IeC {\textupsilon } \IeC {\textrho }\IeC {\textomicron }\IeC {\textmu }\IeC {\textpi }\IeC {\ensuregreek {\acctonos \textomicron }}\IeC {\texttau } (\IeC {\textdelta }\IeC {\textepsilon }\IeC {\textxi }\IeC {\ensuregreek {\acctonos \textiota }}\IeC {\textalpha }).\relax }}{50}}
\newlabel{im:vrep_views}{{5.2}{50}}
\newlabel{eq:pitch_yaw_angles}{{5.4}{50}}
\@writefile{lof}{\contentsline {figure}{\numberline {5.3}{\ignorespaces \IeC {\textAlpha }\IeC {\textrho }\IeC {\textiota }\IeC {\textsigma }\IeC {\texttau }\IeC {\textepsilon }\IeC {\textrho }\IeC {\ensuregreek {\acctonos \textalpha }}: \IeC {\textChi }\IeC {\textalpha }\IeC {\textmu }\IeC {\texteta }\IeC {\textlambda }\IeC {\ensuregreek {\acctonos \texteta }} \IeC {\textdelta }\IeC {\textiota }\IeC {\textalpha }\IeC {\textkappa }\IeC {\ensuregreek {\acctonos \textupsilon }}\IeC {\textmu }\IeC {\textalpha }\IeC {\textnu }\IeC {\textsigma }\IeC {\texteta } \IeC {\textkappa }\IeC {\textepsilon }\IeC {\textphi }\IeC {\textalpha }\IeC {\textlambda }\IeC {\textiota }\IeC {\textomicron }\IeC {\ensuregreek {\acctonos \textupsilon }}: \IeC {\texteta } \IeC {\textalpha }\IeC {\textnu }\IeC {\texttheta }\IeC {\textrho }\IeC {\ensuregreek {\acctonos \textomega }}\IeC {\textpi }\IeC {\textiota }\IeC {\textnu }\IeC {\texteta } \IeC {\textsigma }\IeC {\textupsilon }\IeC {\textmu }\IeC {\textmu }\IeC {\textepsilon }\IeC {\texttau }\IeC {\textomicron }\IeC {\textchi }\IeC {\ensuregreek {\acctonos \texteta }} \IeC {\textepsilon }\IeC {\ensuregreek {\acctonos \textiota }}\IeC {\textnu }\IeC {\textalpha }\IeC {\textiota } \IeC {\textupsilon }\IeC {\textpsi }\IeC {\texteta }\IeC {\textlambda }\IeC {\ensuregreek {\acctonos \texteta }}. \IeC {\textDelta }\IeC {\textepsilon }\IeC {\textxi }\IeC {\textiota }\IeC {\ensuregreek {\acctonos \textalpha }}: \IeC {\textUpsilon }\IeC {\textpsi }\IeC {\texteta }\IeC {\textlambda }\IeC {\ensuregreek {\acctonos \texteta }} \IeC {\textdelta }\IeC {\textiota }\IeC {\textalpha }\IeC {\textkappa }\IeC {\ensuregreek {\acctonos \textupsilon }}\IeC {\textmu }\IeC {\textalpha }\IeC {\textnu }\IeC {\textsigma }\IeC {\texteta } \IeC {\textkappa }\IeC {\textepsilon }\IeC {\textphi }\IeC {\textalpha }\IeC {\textlambda }\IeC {\textiota }\IeC {\textomicron }\IeC {\ensuregreek {\acctonos \textupsilon }}: \IeC {\texteta } \IeC {\textalpha }\IeC {\textnu }\IeC {\texttheta }\IeC {\textrho }\IeC {\ensuregreek {\acctonos \textomega }}\IeC {\textpi }\IeC {\textiota }\IeC {\textnu }\IeC {\texteta } \IeC {\textsigma }\IeC {\textupsilon }\IeC {\textmu }\IeC {\textepsilon }\IeC {\texttau }\IeC {\textomicron }\IeC {\textchi }\IeC {\ensuregreek {\acctonos \texteta }} \IeC {\textepsilon }\IeC {\ensuregreek {\acctonos \textiota }}\IeC {\textnu }\IeC {\textalpha }\IeC {\textiota } \IeC {\textchi }\IeC {\textalpha }\IeC {\textmu }\IeC {\texteta }\IeC {\textlambda }\IeC {\ensuregreek {\acctonos \texteta }}.\relax }}{51}}
\newlabel{im:head_var}{{5.3}{51}}
\@writefile{toc}{\contentsline {section}{\numberline {5.4}\IeC {\textEpsilon }\IeC {\textkappa }\IeC {\texttau }\IeC {\ensuregreek {\acctonos \textiota }}\IeC {\textmu }\IeC {\texteta }\IeC {\textsigma }\IeC {\texteta } \IeC {\textalpha }\IeC {\textnu }\IeC {\texttheta }\IeC {\textrho }\IeC {\ensuregreek {\acctonos \textomega }}\IeC {\textpi }\IeC {\textiota }\IeC {\textnu }\IeC {\texteta }\IeC {\textvarsigma } \IeC {\textsigma }\IeC {\textupsilon }\IeC {\textmu }\IeC {\textmu }\IeC {\textepsilon }\IeC {\texttau }\IeC {\textomicron }\IeC {\textchi }\IeC {\ensuregreek {\acctonos \texteta }}\IeC {\textvarsigma }}{51}}
\select@language{greek}
\@writefile{toc}{\select@language{greek}}
\@writefile{lof}{\select@language{greek}}
\@writefile{lot}{\select@language{greek}}
\select@language{greek}
\@writefile{toc}{\select@language{greek}}
\@writefile{lof}{\select@language{greek}}
\@writefile{lot}{\select@language{greek}}
\@writefile{toc}{\contentsline {subsection}{\numberline {5.4.1}\IeC {\textPhi }\IeC {\ensuregreek {\acctonos \textiota }}\IeC {\textlambda }\IeC {\texttau }\IeC {\textrho }\IeC {\textomicron } \textlatin  {Kalman}}{52}}
\newlabel{eq:kalman_model}{{5.6}{52}}
\@writefile{toc}{\contentsline {subsection}{\numberline {5.4.2}\IeC {\textDelta }\IeC {\textiota }\IeC {\textalpha }\IeC {\textdelta }\IeC {\textiota }\IeC {\textkappa }\IeC {\textalpha }\IeC {\textsigma }\IeC {\ensuregreek {\acctonos \textiota }}\IeC {\textalpha } \IeC {\textepsilon }\IeC {\textkappa }\IeC {\texttau }\IeC {\ensuregreek {\acctonos \textiota }}\IeC {\textmu }\IeC {\texteta }\IeC {\textsigma }\IeC {\texteta }\IeC {\textvarsigma } \IeC {\textsigma }\IeC {\textupsilon }\IeC {\textmu }\IeC {\textmu }\IeC {\textepsilon }\IeC {\texttau }\IeC {\textomicron }\IeC {\textchi }\IeC {\ensuregreek {\acctonos \texteta }}\IeC {\textvarsigma }}{53}}
\newlabel{eq:sigma_pitch_yaw}{{5.10}{53}}
\newlabel{eq:pitch_yaw_angles_noise}{{5.11}{53}}
\select@language{greek}
\@writefile{toc}{\select@language{greek}}
\@writefile{lof}{\select@language{greek}}
\@writefile{lot}{\select@language{greek}}
\select@language{greek}
\@writefile{toc}{\select@language{greek}}
\@writefile{lof}{\select@language{greek}}
\@writefile{lot}{\select@language{greek}}
\@writefile{lof}{\contentsline {figure}{\numberline {5.4}{\ignorespaces \IeC {\textSigma }\IeC {\ensuregreek {\acctonos \textupsilon }}\IeC {\textgamma }\IeC {\textkappa }\IeC {\textrho }\IeC {\textiota }\IeC {\textsigma }\IeC {\texteta } \IeC {\textpi }\IeC {\textrho }\IeC {\textalpha }\IeC {\textgamma }\IeC {\textmu }\IeC {\textalpha }\IeC {\texttau }\IeC {\textiota }\IeC {\textkappa }\IeC {\ensuregreek {\acctonos \texteta }}\IeC {\textvarsigma } (\IeC {\textpi }\IeC {\textrho }\IeC {\textomicron }\IeC {\textsigma }\IeC {\textomicron }\IeC {\textmu }\IeC {\textomicron }\IeC {\textiota }\IeC {\textomega }\IeC {\textmu }\IeC {\ensuregreek {\acctonos \textepsilon }}\IeC {\textnu }\IeC {\texteta }\IeC {\textvarsigma }) \IeC {\textkappa }\IeC {\textalpha }\IeC {\textiota } \IeC {\textepsilon }\IeC {\textkappa }\IeC {\texttau }\IeC {\textiota }\IeC {\textmu }\IeC {\ensuregreek {\acctonos \textomega }}\IeC {\textmu }\IeC {\textepsilon }\IeC {\textnu }\IeC {\texteta }\IeC {\textvarsigma } \IeC {\textsigma }\IeC {\textupsilon }\IeC {\textmu }\IeC {\textmu }\IeC {\textepsilon }\IeC {\texttau }\IeC {\textomicron }\IeC {\textchi }\IeC {\ensuregreek {\acctonos \texteta }}\IeC {\textvarsigma } \IeC {\textbeta }\IeC {\textalpha }\IeC {\textsigma }\IeC {\textiota }\IeC {\textsigma }\IeC {\textmu }\IeC {\ensuregreek {\acctonos \textepsilon }}\IeC {\textnu }\IeC {\texteta } \IeC {\textsigma }\IeC {\textepsilon } $n = 5$ \IeC {\textpi }\IeC {\textalpha }\IeC {\textrho }\IeC {\textalpha }\IeC {\texttau }\IeC {\texteta }\IeC {\textrho }\IeC {\ensuregreek {\acctonos \texteta }}\IeC {\textsigma }\IeC {\textepsilon }\IeC {\textiota }\IeC {\textvarsigma } \IeC {\textpi }\IeC {\ensuregreek {\acctonos \textomicron }}\IeC {\textzeta }\IeC {\textalpha }\IeC {\textvarsigma } \IeC {\textkappa }\IeC {\textepsilon }\IeC {\textphi }\IeC {\textalpha }\IeC {\textlambda }\IeC {\textiota }\IeC {\textomicron }\IeC {\ensuregreek {\acctonos \textupsilon }} \IeC {\textmu }\IeC {\textepsilon } \IeC {\texttheta }\IeC {\ensuregreek {\acctonos \textomicron }}\IeC {\textrho }\IeC {\textupsilon }\IeC {\textbeta }\IeC {\textomicron } \IeC {\textmu }\IeC {\ensuregreek {\acctonos \textepsilon }}\IeC {\texttau }\IeC {\textrho }\IeC {\texteta }\IeC {\textsigma }\IeC {\texteta }\IeC {\textvarsigma } \IeC {\texttau }\IeC {\textupsilon }\IeC {\textpi }\IeC {\textiota }\IeC {\textkappa }\IeC {\ensuregreek {\acctonos \texteta }}\IeC {\textvarsigma } \IeC {\textalpha }\IeC {\textpi }\IeC {\ensuregreek {\acctonos \textomicron }}\IeC {\textkappa }\IeC {\textlambda }\IeC {\textiota }\IeC {\textsigma }\IeC {\texteta }\IeC {\textvarsigma } $\sigma = 0.5$.\relax }}{54}}
\newlabel{im:estimated_real_eng2}{{5.4}{54}}
\@writefile{toc}{\contentsline {section}{\numberline {5.5}\IeC {\textAlpha }\IeC {\textpi }\IeC {\ensuregreek {\acctonos \textomicron }}\IeC {\texttau }\IeC {\textomicron }\IeC {\textmu }\IeC {\textepsilon }\IeC {\textvarsigma } \IeC {\textmu }\IeC {\textepsilon }\IeC {\texttau }\IeC {\textalpha }\IeC {\textbeta }\IeC {\textomicron }\IeC {\textlambda }\IeC {\ensuregreek {\acctonos \textepsilon }}\IeC {\textvarsigma } \IeC {\textkappa }\IeC {\textalpha }\IeC {\textiota } \IeC {\textdelta }\IeC {\textiota }\IeC {\textalpha }\IeC {\texttau }\IeC {\textalpha }\IeC {\textrho }\IeC {\textalpha }\IeC {\textchi }\IeC {\ensuregreek {\acctonos \textepsilon }}\IeC {\textvarsigma } \IeC {\textalpha }\IeC {\textnu }\IeC {\texttheta }\IeC {\textrho }\IeC {\ensuregreek {\acctonos \textomega }}\IeC {\textpi }\IeC {\textiota }\IeC {\textnu }\IeC {\texteta }\IeC {\textvarsigma } \IeC {\textsigma }\IeC {\textupsilon }\IeC {\textmu }\IeC {\textmu }\IeC {\textepsilon }\IeC {\texttau }\IeC {\textomicron }\IeC {\textchi }\IeC {\ensuregreek {\acctonos \texteta }}\IeC {\textvarsigma }}{55}}
\@writefile{lof}{\contentsline {figure}{\numberline {5.5}{\ignorespaces \IeC {\textAlpha }\IeC {\textrho }\IeC {\textiota }\IeC {\textsigma }\IeC {\texttau }\IeC {\textepsilon }\IeC {\textrho }\IeC {\ensuregreek {\acctonos \textalpha }}: \IeC {\textPi }\IeC {\textrho }\IeC {\textalpha }\IeC {\textgamma }\IeC {\textmu }\IeC {\textalpha }\IeC {\texttau }\IeC {\textiota }\IeC {\textkappa }\IeC {\ensuregreek {\acctonos \texteta }} (\IeC {\textpi }\IeC {\textrho }\IeC {\textomicron }\IeC {\textsigma }\IeC {\textomicron }\IeC {\textmu }\IeC {\textomicron }\IeC {\textiota }\IeC {\textomega }\IeC {\textmu }\IeC {\ensuregreek {\acctonos \textepsilon }}\IeC {\textnu }\IeC {\texteta }) \IeC {\textalpha }\IeC {\textnu }\IeC {\texttheta }\IeC {\textrho }\IeC {\ensuregreek {\acctonos \textomega }}\IeC {\textpi }\IeC {\textiota }\IeC {\textnu }\IeC {\texteta } \IeC {\textsigma }\IeC {\textupsilon }\IeC {\textmu }\IeC {\textmu }\IeC {\textepsilon }\IeC {\texttau }\IeC {\textomicron }\IeC {\textchi }\IeC {\ensuregreek {\acctonos \texteta }} (\IeC {\textmu }\IeC {\ensuregreek {\acctonos \textepsilon }}\IeC {\textsigma }\IeC {\texteta } \IeC {\texttau }\IeC {\textiota }\IeC {\textmu }\IeC {\ensuregreek {\acctonos \texteta }} \IeC {\textkappa }\IeC {\textalpha }\IeC {\textiota } \IeC {\texttau }\IeC {\textupsilon }\IeC {\textpi }\IeC {\textiota }\IeC {\textkappa }\IeC {\ensuregreek {\acctonos \texteta }} \IeC {\textalpha }\IeC {\textpi }\IeC {\ensuregreek {\acctonos \textomicron }}\IeC {\textkappa }\IeC {\textlambda }\IeC {\textiota }\IeC {\textsigma }\IeC {\texteta } 20 \IeC {\textepsilon }\IeC {\textpi }\IeC {\textalpha }\IeC {\textnu }\IeC {\textalpha }\IeC {\textlambda }\IeC {\ensuregreek {\acctonos \texteta }}\IeC {\textpsi }\IeC {\textepsilon }\IeC {\textomega }\IeC {\textnu }) \IeC {\ensuregreek {\acctonos \textomicron }}\IeC {\texttau }\IeC {\textalpha }\IeC {\textnu } \IeC {\texteta } \IeC {\textbeta }\IeC {\ensuregreek {\acctonos \textepsilon }}\IeC {\textlambda }\IeC {\texttau }\IeC {\textiota }\IeC {\textsigma }\IeC {\texttau }\IeC {\texteta } \IeC {\textpi }\IeC {\textalpha }\IeC {\textrho }\IeC {\ensuregreek {\acctonos \textalpha }}\IeC {\textmu }\IeC {\textepsilon }\IeC {\texttau }\IeC {\textrho }\IeC {\textomicron }\IeC {\textvarsigma } \IeC {\textupsilon }\IeC {\textphi }\IeC {\ensuregreek {\acctonos \textiota }}\IeC {\textsigma }\IeC {\texttau }\IeC {\textalpha }\IeC {\texttau }\IeC {\textalpha }\IeC {\textiota } \IeC {\textmu }\IeC {\textepsilon }\IeC {\texttau }\IeC {\textalpha }\IeC {\textbeta }\IeC {\textomicron }\IeC {\textlambda }\IeC {\ensuregreek {\acctonos \textepsilon }}\IeC {\textvarsigma } \IeC {\textkappa }\IeC {\ensuregreek {\acctonos \textalpha }}\IeC {\texttheta }\IeC {\textepsilon } 100 \IeC {\textchi }\IeC {\textrho }\IeC {\textomicron }\IeC {\textnu }\IeC {\textiota }\IeC {\textkappa }\IeC {\ensuregreek {\acctonos \textepsilon }}\IeC {\textvarsigma } \IeC {\textpi }\IeC {\textepsilon }\IeC {\textrho }\IeC {\textiota }\IeC {\ensuregreek {\acctonos \textomicron }}\IeC {\textdelta }\IeC {\textomicron }\IeC {\textupsilon }\IeC {\textvarsigma }, \IeC {\ensuregreek {\acctonos \textomicron }}\IeC {\textpi }\IeC {\textomega }\IeC {\textvarsigma } \IeC {\textphi }\IeC {\textalpha }\IeC {\ensuregreek {\acctonos \textiota }}\IeC {\textnu }\IeC {\textepsilon }\IeC {\texttau }\IeC {\textalpha }\IeC {\textiota } \IeC {\textsigma }\IeC {\texttau }\IeC {\textomicron } \IeC {\textdelta }\IeC {\textepsilon }\IeC {\textxi }\IeC {\textiota }\IeC {\ensuregreek {\acctonos \textalpha }} \IeC {\textsigma }\IeC {\textchi }\IeC {\ensuregreek {\acctonos \texteta }}\IeC {\textmu }\IeC {\textalpha }. \IeC {\textDelta }\IeC {\textepsilon }\IeC {\textxi }\IeC {\textiota }\IeC {\ensuregreek {\acctonos \textalpha }}: \IeC {\textEta } \IeC {\textsigma }\IeC {\textupsilon }\IeC {\textnu }\IeC {\textepsilon }\IeC {\textchi }\IeC {\ensuregreek {\acctonos \texteta }}\IeC {\textvarsigma } \IeC {\textpi }\IeC {\textalpha }\IeC {\textrho }\IeC {\ensuregreek {\acctonos \textalpha }}\IeC {\textmu }\IeC {\textepsilon }\IeC {\texttau }\IeC {\textrho }\IeC {\textomicron }\IeC {\textvarsigma } \IeC {\texttau }\IeC {\texteta }\IeC {\textvarsigma } \IeC {\textdelta }\IeC {\textrho }\IeC {\ensuregreek {\acctonos \textalpha }}\IeC {\textsigma }\IeC {\texteta }\IeC {\textvarsigma } \IeC {\textpi }\IeC {\textomicron }\IeC {\textupsilon } \IeC {\textepsilon }\IeC {\textkappa }\IeC {\texttau }\IeC {\textepsilon }\IeC {\textlambda }\IeC {\textepsilon }\IeC {\ensuregreek {\acctonos \textiota }} \IeC {\texttau }\IeC {\textomicron } \IeC {\textrho }\IeC {\textomicron }\IeC {\textmu }\IeC {\textpi }\IeC {\ensuregreek {\acctonos \textomicron }}\IeC {\texttau } (\IeC {\textmu }\IeC {\ensuregreek {\acctonos \textepsilon }}\IeC {\textsigma }\IeC {\texteta } \IeC {\texttau }\IeC {\textiota }\IeC {\textmu }\IeC {\ensuregreek {\acctonos \texteta }} \IeC {\textkappa }\IeC {\textalpha }\IeC {\textiota } \IeC {\texttau }\IeC {\textupsilon }\IeC {\textpi }\IeC {\textiota }\IeC {\textkappa }\IeC {\ensuregreek {\acctonos \texteta }} \IeC {\textalpha }\IeC {\textpi }\IeC {\ensuregreek {\acctonos \textomicron }}\IeC {\textkappa }\IeC {\textlambda }\IeC {\textiota }\IeC {\textsigma }\IeC {\texteta } 20 \IeC {\textepsilon }\IeC {\textpi }\IeC {\textalpha }\IeC {\textnu }\IeC {\textalpha }\IeC {\textlambda }\IeC {\ensuregreek {\acctonos \texteta }}\IeC {\textpsi }\IeC {\textepsilon }\IeC {\textomega }\IeC {\textnu }).\relax }}{55}}
\newlabel{im:eng_param_20exp_1to4to0}{{5.5}{55}}
\select@language{greek}
\@writefile{toc}{\select@language{greek}}
\@writefile{lof}{\select@language{greek}}
\@writefile{lot}{\select@language{greek}}
\select@language{greek}
\@writefile{toc}{\select@language{greek}}
\@writefile{lof}{\select@language{greek}}
\@writefile{lot}{\select@language{greek}}
\@writefile{lof}{\contentsline {figure}{\numberline {5.6}{\ignorespaces \IeC {\textAlpha }\IeC {\textnu }\IeC {\texttheta }\IeC {\textrho }\IeC {\ensuregreek {\acctonos \textomega }}\IeC {\textpi }\IeC {\textiota }\IeC {\textnu }\IeC {\texteta } \IeC {\textsigma }\IeC {\textupsilon }\IeC {\textmu }\IeC {\textmu }\IeC {\textepsilon }\IeC {\texttau }\IeC {\textomicron }\IeC {\textchi }\IeC {\ensuregreek {\acctonos \texteta }} (\IeC {\textalpha }\IeC {\textrho }\IeC {\textiota }\IeC {\textsigma }\IeC {\texttau }\IeC {\textepsilon }\IeC {\textrho }\IeC {\ensuregreek {\acctonos \textalpha }}) \IeC {\textkappa }\IeC {\textalpha }\IeC {\textiota } \IeC {\textpi }\IeC {\textalpha }\IeC {\textrho }\IeC {\ensuregreek {\acctonos \textalpha }}\IeC {\textmu }\IeC {\textepsilon }\IeC {\texttau }\IeC {\textrho }\IeC {\textomicron }\IeC {\textvarsigma } \IeC {\textdelta }\IeC {\textrho }\IeC {\ensuregreek {\acctonos \textalpha }}\IeC {\textsigma }\IeC {\texteta }\IeC {\textvarsigma } (\IeC {\textdelta }\IeC {\textepsilon }\IeC {\textxi }\IeC {\textiota }\IeC {\ensuregreek {\acctonos \textalpha }}) \IeC {\textkappa }\IeC {\textalpha }\IeC {\texttau }\IeC {\ensuregreek {\acctonos \textalpha }} \IeC {\texttau }\IeC {\texteta }\IeC {\textvarsigma } \IeC {\textdelta }\IeC {\textiota }\IeC {\ensuregreek {\acctonos \textalpha }}\IeC {\textrho }\IeC {\textkappa }\IeC {\textepsilon }\IeC {\textiota }\IeC {\textalpha } \IeC {\textdelta }\IeC {\textiota }\IeC {\textalpha }\IeC {\texttau }\IeC {\textalpha }\IeC {\textrho }\IeC {\textalpha }\IeC {\textchi }\IeC {\ensuregreek {\acctonos \textomega }}\IeC {\textnu } \IeC {\texttau }\IeC {\texteta }\IeC {\textvarsigma } \IeC {\textsigma }\IeC {\textupsilon }\IeC {\textmu }\IeC {\textmu }\IeC {\textepsilon }\IeC {\texttau }\IeC {\textomicron }\IeC {\textchi }\IeC {\ensuregreek {\acctonos \texteta }}\IeC {\textvarsigma } \IeC {\textmu }\IeC {\textepsilon } \IeC {\textdelta }\IeC {\textiota }\IeC {\ensuregreek {\acctonos \textalpha }}\IeC {\textrho }\IeC {\textkappa }\IeC {\textepsilon }\IeC {\textiota }\IeC {\textalpha } 1 (\IeC {\textmu }\IeC {\textalpha }\IeC {\ensuregreek {\acctonos \textupsilon }}\IeC {\textrho }\IeC {\texteta } \IeC {\textgamma }\IeC {\textrho }\IeC {\textalpha }\IeC {\textmu }\IeC {\textmu }\IeC {\ensuregreek {\acctonos \texteta }}), 2 (\IeC {\textmu }\IeC {\textalpha }\IeC {\ensuregreek {\acctonos \textupsilon }}\IeC {\textrho }\IeC {\texteta } \IeC {\textdelta }\IeC {\textiota }\IeC {\textalpha }\IeC {\textkappa }\IeC {\textepsilon }\IeC {\textkappa }\IeC {\textomicron }\IeC {\textmu }\IeC {\textmu }\IeC {\ensuregreek {\acctonos \textepsilon }}\IeC {\textnu }\IeC {\texteta } \IeC {\textgamma }\IeC {\textrho }\IeC {\textalpha }\IeC {\textmu }\IeC {\textmu }\IeC {\ensuregreek {\acctonos \texteta }}), 5 (\IeC {\textgamma }\IeC {\textkappa }\IeC {\textrho }\IeC {\textiota } \IeC {\textgamma }\IeC {\textrho }\IeC {\textalpha }\IeC {\textmu }\IeC {\textmu }\IeC {\ensuregreek {\acctonos \texteta }}) \IeC {\textkappa }\IeC {\textalpha }\IeC {\textiota } 10 (\IeC {\textgamma }\IeC {\textkappa }\IeC {\textrho }\IeC {\textiota } \IeC {\textdelta }\IeC {\textiota }\IeC {\textalpha }\IeC {\textkappa }\IeC {\textepsilon }\IeC {\textkappa }\IeC {\textomicron }\IeC {\textmu }\IeC {\textmu }\IeC {\ensuregreek {\acctonos \textepsilon }}\IeC {\textnu }\IeC {\texteta } \IeC {\textgamma }\IeC {\textrho }\IeC {\textalpha }\IeC {\textmu }\IeC {\textmu }\IeC {\ensuregreek {\acctonos \texteta }}) \IeC {\textchi }\IeC {\textrho }\IeC {\textomicron }\IeC {\textnu }\IeC {\textiota }\IeC {\textkappa }\IeC {\ensuregreek {\acctonos \textepsilon }}\IeC {\textvarsigma } \IeC {\textpi }\IeC {\textepsilon }\IeC {\textrho }\IeC {\textiota }\IeC {\ensuregreek {\acctonos \textomicron }}\IeC {\textdelta }\IeC {\textomicron }\IeC {\textupsilon }\IeC {\textvarsigma } \IeC {\textalpha }\IeC {\textnu }\IeC {\texttau }\IeC {\ensuregreek {\acctonos \textiota }}\IeC {\textsigma }\IeC {\texttau }\IeC {\textomicron }\IeC {\textiota }\IeC {\textchi }\IeC {\textalpha }.\relax }}{56}}
\newlabel{im:param_eng_pert1_2_5_10}{{5.6}{56}}
\@writefile{toc}{\contentsline {section}{\numberline {5.6}\IeC {\textEpsilon }\IeC {\textpi }\IeC {\ensuregreek {\acctonos \textiota }}\IeC {\textdelta }\IeC {\textrho }\IeC {\textalpha }\IeC {\textsigma }\IeC {\texteta } \IeC {\texttheta }\IeC {\textomicron }\IeC {\textrho }\IeC {\ensuregreek {\acctonos \textupsilon }}\IeC {\textbeta }\IeC {\textomicron }\IeC {\textupsilon } \IeC {\textmu }\IeC {\ensuregreek {\acctonos \textepsilon }}\IeC {\texttau }\IeC {\textrho }\IeC {\texteta }\IeC {\textsigma }\IeC {\texteta }\IeC {\textvarsigma }}{56}}
\@writefile{lof}{\contentsline {figure}{\numberline {5.7}{\ignorespaces \IeC {\textEta } \IeC {\textepsilon }\IeC {\textpi }\IeC {\ensuregreek {\acctonos \textiota }}\IeC {\textdelta }\IeC {\textomicron }\IeC {\textsigma }\IeC {\texteta } \IeC {\texttau }\IeC {\textomicron }\IeC {\textupsilon } \IeC {\textalpha }\IeC {\textlambda }\IeC {\textgamma }\IeC {\textomicron }\IeC {\textrho }\IeC {\ensuregreek {\acctonos \textiota }}\IeC {\texttheta }\IeC {\textmu }\IeC {\textomicron }\IeC {\textupsilon } \IeC {\textgamma }\IeC {\textiota }\IeC {\textalpha } \IeC {\textalpha }\IeC {\textupsilon }\IeC {\textxi }\IeC {\textalpha }\IeC {\textnu }\IeC {\ensuregreek {\acctonos \textomicron }}\IeC {\textmu }\IeC {\textepsilon }\IeC {\textnu }\IeC {\texteta } \IeC {\textdelta }\IeC {\textiota }\IeC {\ensuregreek {\acctonos \textalpha }}\IeC {\textrho }\IeC {\textkappa }\IeC {\textepsilon }\IeC {\textiota }\IeC {\textalpha } \IeC {\textdelta }\IeC {\textiota }\IeC {\textalpha }\IeC {\texttau }\IeC {\textalpha }\IeC {\textrho }\IeC {\textalpha }\IeC {\textchi }\IeC {\ensuregreek {\acctonos \texteta }}\IeC {\textvarsigma }. \IeC {\textPi }\IeC {\ensuregreek {\acctonos \textalpha }}\IeC {\textnu }\IeC {\textomega }: \IeC {\textAlpha }\IeC {\textpi }\IeC {\ensuregreek {\acctonos \textomicron }}\IeC {\textkappa }\IeC {\textlambda }\IeC {\textiota }\IeC {\textsigma }\IeC {\texteta } \IeC {\textsigma }\IeC {\textupsilon }\IeC {\textmu }\IeC {\textmu }\IeC {\textepsilon }\IeC {\texttau }\IeC {\textomicron }\IeC {\textchi }\IeC {\ensuregreek {\acctonos \texteta }}\IeC {\textvarsigma } \IeC {\textalpha }\IeC {\textpi }\IeC {\ensuregreek {\acctonos \textomicron }} \IeC {\texttau }\IeC {\texteta } \IeC {\textmu }\IeC {\ensuregreek {\acctonos \textepsilon }}\IeC {\textgamma }\IeC {\textiota }\IeC {\textsigma }\IeC {\texttau }\IeC {\texteta } \IeC {\texttau }\IeC {\textiota }\IeC {\textmu }\IeC {\ensuregreek {\acctonos \texteta }} \IeC {\texttau }\IeC {\texteta }\IeC {\textvarsigma } (10). \IeC {\textKappa }\IeC {\ensuregreek {\acctonos \textalpha }}\IeC {\texttau }\IeC {\textomega }: \IeC {\textAlpha }\IeC {\textpi }\IeC {\ensuregreek {\acctonos \textomicron }}\IeC {\textkappa }\IeC {\textlambda }\IeC {\textiota }\IeC {\textsigma }\IeC {\texteta } \IeC {\texttau }\IeC {\texteta }\IeC {\textvarsigma } \IeC {\textpi }\IeC {\textalpha }\IeC {\textrho }\IeC {\textalpha }\IeC {\textmu }\IeC {\ensuregreek {\acctonos \textepsilon }}\IeC {\texttau }\IeC {\textrho }\IeC {\textomicron }\IeC {\textupsilon } \IeC {\textdelta }\IeC {\textrho }\IeC {\ensuregreek {\acctonos \textalpha }}\IeC {\textsigma }\IeC {\texteta }\IeC {\textvarsigma } \IeC {\textalpha }\IeC {\textpi }\IeC {\ensuregreek {\acctonos \textomicron }} \IeC {\texttau }\IeC {\texteta } \IeC {\textbeta }\IeC {\ensuregreek {\acctonos \textepsilon }}\IeC {\textlambda }\IeC {\texttau }\IeC {\textiota }\IeC {\textsigma }\IeC {\texttau }\IeC {\texteta } \IeC {\texttau }\IeC {\textiota }\IeC {\textmu }\IeC {\ensuregreek {\acctonos \texteta }} \IeC {\texttau }\IeC {\texteta }\IeC {\textvarsigma } (1). \IeC {\textOmicron } \IeC {\texttheta }\IeC {\ensuregreek {\acctonos \textomicron }}\IeC {\textrho }\IeC {\textupsilon }\IeC {\textbeta }\IeC {\textomicron }\IeC {\textvarsigma } \IeC {\textmu }\IeC {\ensuregreek {\acctonos \textepsilon }}\IeC {\texttau }\IeC {\textrho }\IeC {\texteta }\IeC {\textsigma }\IeC {\texteta }\IeC {\textvarsigma } \IeC {\ensuregreek {\acctonos \textepsilon }}\IeC {\textchi }\IeC {\textepsilon }\IeC {\textiota } $\sigma _w=1$.\relax }}{57}}
\newlabel{im:eng_param_mad}{{5.7}{57}}
\@writefile{lot}{\contentsline {table}{\numberline {5.1}{\ignorespaces \IeC {\textPi }\IeC {\textlambda }\IeC {\ensuregreek {\acctonos \texteta }}\IeC {\texttheta }\IeC {\textomicron }\IeC {\textvarsigma } \IeC {\textchi }\IeC {\textrho }\IeC {\textomicron }\IeC {\textnu }\IeC {\textiota }\IeC {\textkappa }\IeC {\ensuregreek {\acctonos \textomega }}\IeC {\textnu } \IeC {\textpi }\IeC {\textepsilon }\IeC {\textrho }\IeC {\textiota }\IeC {\ensuregreek {\acctonos \textomicron }}\IeC {\textdelta }\IeC {\textomega }\IeC {\textnu } \IeC {\textpi }\IeC {\textomicron }\IeC {\textupsilon } \IeC {\textalpha }\IeC {\textpi }\IeC {\textalpha }\IeC {\textiota }\IeC {\texttau }\IeC {\textomicron }\IeC {\ensuregreek {\acctonos \textupsilon }}\IeC {\textnu }\IeC {\texttau }\IeC {\textalpha }\IeC {\textiota } \IeC {\textgamma }\IeC {\textiota }\IeC {\textalpha } \IeC {\textnu }\IeC {\textalpha } \IeC {\textsigma }\IeC {\textupsilon }\IeC {\textgamma }\IeC {\textkappa }\IeC {\textlambda }\IeC {\ensuregreek {\acctonos \textiota }}\IeC {\textnu }\IeC {\textepsilon }\IeC {\textiota } \IeC {\texteta } \IeC {\textsigma }\IeC {\textupsilon }\IeC {\textmu }\IeC {\textmu }\IeC {\textepsilon }\IeC {\texttau }\IeC {\textomicron }\IeC {\textchi }\IeC {\ensuregreek {\acctonos \texteta }} \IeC {\textsigma }\IeC {\texttau }\IeC {\textomicron } 90\% \IeC {\texttau }\IeC {\texteta }\IeC {\textvarsigma } \IeC {\textmu }\IeC {\ensuregreek {\acctonos \textepsilon }}\IeC {\textgamma }\IeC {\textiota }\IeC {\textsigma }\IeC {\texttau }\IeC {\texteta }\IeC {\textvarsigma } \IeC {\texttau }\IeC {\textiota }\IeC {\textmu }\IeC {\ensuregreek {\acctonos \texteta }}\IeC {\textvarsigma } \IeC {\texttau }\IeC {\textomicron }\IeC {\textupsilon } \IeC {\textmu }\IeC {\textepsilon }\IeC {\texttau }\IeC {\ensuregreek {\acctonos \textalpha }} \IeC {\textalpha }\IeC {\textpi }\IeC {\ensuregreek {\acctonos \textomicron }} \IeC {\textmu }\IeC {\ensuregreek {\acctonos \textiota }}\IeC {\textalpha } \IeC {\textdelta }\IeC {\textiota }\IeC {\textalpha }\IeC {\texttau }\IeC {\textalpha }\IeC {\textrho }\IeC {\textalpha }\IeC {\textchi }\IeC {\ensuregreek {\acctonos \texteta }}.\relax }}{57}}
\newlabel{tab:trials90}{{5.1}{57}}
\select@language{greek}
\@writefile{toc}{\select@language{greek}}
\@writefile{lof}{\select@language{greek}}
\@writefile{lot}{\select@language{greek}}
\select@language{greek}
\@writefile{toc}{\select@language{greek}}
\@writefile{lof}{\select@language{greek}}
\@writefile{lot}{\select@language{greek}}
\@writefile{lof}{\contentsline {figure}{\numberline {5.8}{\ignorespaces \IeC {\textEpsilon }\IeC {\textpi }\IeC {\ensuregreek {\acctonos \textiota }}\IeC {\textdelta }\IeC {\textomicron }\IeC {\textsigma }\IeC {\texteta } \IeC {\textalpha }\IeC {\textlambda }\IeC {\textgamma }\IeC {\textomicron }\IeC {\textrho }\IeC {\ensuregreek {\acctonos \textiota }}\IeC {\texttheta }\IeC {\textmu }\IeC {\textomicron }\IeC {\textupsilon } \IeC {\textgamma }\IeC {\textiota }\IeC {\textalpha } \IeC {\texttheta }\IeC {\ensuregreek {\acctonos \textomicron }}\IeC {\textrho }\IeC {\textupsilon }\IeC {\textbeta }\IeC {\textomicron } \IeC {\textmu }\IeC {\textepsilon } \IeC {\textalpha }\IeC {\textupsilon }\IeC {\textxi }\IeC {\textalpha }\IeC {\textnu }\IeC {\ensuregreek {\acctonos \textomicron }}\IeC {\textmu }\IeC {\textepsilon }\IeC {\textnu }\IeC {\textomicron } $\sigma _w$. \IeC {\textPi }\IeC {\ensuregreek {\acctonos \textalpha }}\IeC {\textnu }\IeC {\textomega }: \IeC {\textAlpha }\IeC {\textpi }\IeC {\ensuregreek {\acctonos \textomicron }}\IeC {\textkappa }\IeC {\textlambda }\IeC {\textiota }\IeC {\textsigma }\IeC {\texteta } \IeC {\textepsilon }\IeC {\textkappa }\IeC {\texttau }\IeC {\textiota }\IeC {\textmu }\IeC {\ensuregreek {\acctonos \textomega }}\IeC {\textmu }\IeC {\textepsilon }\IeC {\textnu }\IeC {\texteta }\IeC {\textvarsigma } \IeC {\textsigma }\IeC {\textupsilon }\IeC {\textmu }\IeC {\textmu }\IeC {\textepsilon }\IeC {\texttau }\IeC {\textomicron }\IeC {\textchi }\IeC {\ensuregreek {\acctonos \texteta }}\IeC {\textvarsigma } \IeC {\textalpha }\IeC {\textpi }\IeC {\ensuregreek {\acctonos \textomicron }} \IeC {\texttau }\IeC {\textomicron } \IeC {\textpi }\IeC {\textrho }\IeC {\textalpha }\IeC {\textgamma }\IeC {\textmu }\IeC {\textalpha }\IeC {\texttau }\IeC {\textiota }\IeC {\textkappa }\IeC {\ensuregreek {\acctonos \textomicron }}. \IeC {\textKappa }\IeC {\ensuregreek {\acctonos \textalpha }}\IeC {\texttau }\IeC {\textomega }: \IeC {\textAlpha }\IeC {\textpi }\IeC {\ensuregreek {\acctonos \textomicron }}\IeC {\textkappa }\IeC {\textlambda }\IeC {\textiota }\IeC {\textsigma }\IeC {\texteta } \IeC {\textsigma }\IeC {\textupsilon }\IeC {\textnu }\IeC {\textepsilon }\IeC {\textchi }\IeC {\textomicron }\IeC {\ensuregreek {\acctonos \textupsilon }}\IeC {\textvarsigma } \IeC {\textpi }\IeC {\textalpha }\IeC {\textrho }\IeC {\textalpha }\IeC {\textmu }\IeC {\ensuregreek {\acctonos \textepsilon }}\IeC {\texttau }\IeC {\textrho }\IeC {\textomicron }\IeC {\textupsilon } \IeC {\textalpha }\IeC {\textpi }\IeC {\ensuregreek {\acctonos \textomicron }} \IeC {\texttau }\IeC {\texteta }\IeC {\textnu } \IeC {\textiota }\IeC {\textdelta }\IeC {\textalpha }\IeC {\textnu }\IeC {\textiota }\IeC {\textkappa }\IeC {\ensuregreek {\acctonos \texteta }} \IeC {\texttau }\IeC {\textiota }\IeC {\textmu }\IeC {\ensuregreek {\acctonos \texteta }} \IeC {\texttau }\IeC {\texteta }\IeC {\textvarsigma }.\relax }}{58}}
\newlabel{im:noise_eng_param_mad}{{5.8}{58}}
\@writefile{toc}{\contentsline {section}{\numberline {5.7}\IeC {\textSigma }\IeC {\ensuregreek {\acctonos \textupsilon }}\IeC {\textnu }\IeC {\textomicron }\IeC {\textpsi }\IeC {\texteta } \IeC {\textkappa }\IeC {\textepsilon }\IeC {\textphi }\IeC {\textalpha }\IeC {\textlambda }\IeC {\textalpha }\IeC {\ensuregreek {\acctonos \textiota }}\IeC {\textomicron }\IeC {\textupsilon }}{58}}
\@setckpt{chapter_rl_experiment}{
\setcounter{page}{59}
\setcounter{equation}{13}
\setcounter{enumi}{5}
\setcounter{enumii}{0}
\setcounter{enumiii}{0}
\setcounter{enumiv}{0}
\setcounter{footnote}{0}
\setcounter{mpfootnote}{0}
\setcounter{parentequation}{0}
\setcounter{part}{0}
\setcounter{chapter}{5}
\setcounter{section}{7}
\setcounter{subsection}{0}
\setcounter{subsubsection}{0}
\setcounter{paragraph}{0}
\setcounter{subparagraph}{0}
\setcounter{figure}{8}
\setcounter{table}{1}
\setcounter{ContinuedFloat}{0}
\setcounter{subfigure}{0}
\setcounter{subtable}{0}
\setcounter{float@type}{8}
\setcounter{algorithm}{1}
\setcounter{ALC@unique}{9}
\setcounter{ALC@line}{9}
\setcounter{ALC@rem}{0}
\setcounter{ALC@depth}{0}
\setcounter{definition}{0}
\setcounter{proposition}{0}
\setcounter{theorem}{0}
\setcounter{corollary}{0}
\setcounter{lemma}{0}
\setcounter{example}{0}
\setcounter{remark}{0}
\setcounter{notation}{0}
\setcounter{law}{0}
}
