\relax 
\@writefile{toc}{\contentsline {chapter}{\numberline {3}\IeC {\textAlpha }\IeC {\textnu }\IeC {\ensuregreek {\acctonos \textiota }}\IeC {\textchi }\IeC {\textnu }\IeC {\textepsilon }\IeC {\textupsilon }\IeC {\textsigma }\IeC {\texteta } \IeC {\textalpha }\IeC {\textnu }\IeC {\texttau }\IeC {\textiota }\IeC {\textkappa }\IeC {\textepsilon }\IeC {\textiota }\IeC {\textmu }\IeC {\ensuregreek {\acctonos \textepsilon }}\IeC {\textnu }\IeC {\textomicron }\IeC {\textupsilon } \IeC {\textsigma }\IeC {\textepsilon } \IeC {\textepsilon }\IeC {\textiota }\IeC {\textkappa }\IeC {\ensuregreek {\acctonos \textomicron }}\IeC {\textnu }\IeC {\textalpha } \IeC {\textchi }\IeC {\textrho }\IeC {\ensuregreek {\acctonos \textomega }}\IeC {\textmu }\IeC {\textalpha }\IeC {\texttau }\IeC {\textomicron }\IeC {\textvarsigma }}{33}}
\@writefile{lof}{\addvspace {10\p@ }}
\@writefile{lot}{\addvspace {10\p@ }}
\newlabel{chapter_detection_theoretical}{{3}{33}}
\@writefile{toc}{\contentsline {section}{\numberline {3.1}\IeC {\textChi }\IeC {\textrho }\IeC {\textomega }\IeC {\textmu }\IeC {\textalpha }\IeC {\texttau }\IeC {\textiota }\IeC {\textkappa }\IeC {\textomicron }\IeC {\ensuregreek {\acctonos \textiota }} \IeC {\textChi }\IeC {\ensuregreek {\acctonos \textomega }}\IeC {\textrho }\IeC {\textomicron }\IeC {\textiota }}{33}}
\select@language{greek}
\@writefile{toc}{\select@language{greek}}
\@writefile{lof}{\select@language{greek}}
\@writefile{lot}{\select@language{greek}}
\select@language{greek}
\@writefile{toc}{\select@language{greek}}
\@writefile{lof}{\select@language{greek}}
\@writefile{lot}{\select@language{greek}}
\@writefile{toc}{\contentsline {subsection}{\numberline {3.1.1}\textlatin  {RGB}}{34}}
\@writefile{toc}{\contentsline {subsection}{\numberline {3.1.2}\textlatin  {HSV}}{34}}
\@writefile{lof}{\contentsline {figure}{\numberline {3.1}{\ignorespaces \IeC {\textChi }\IeC {\textrho }\IeC {\textomega }\IeC {\textmu }\IeC {\textalpha }\IeC {\texttau }\IeC {\textiota }\IeC {\textkappa }\IeC {\textomicron }\IeC {\ensuregreek {\acctonos \textiota }} \IeC {\textchi }\IeC {\ensuregreek {\acctonos \textomega }}\IeC {\textrho }\IeC {\textomicron }\IeC {\textiota } \textlatin  {RGB} \IeC {\textkappa }\IeC {\textalpha }\IeC {\textiota } \textlatin  {HSV}\relax }}{34}}
\newlabel{im:rgb_hsv_color_spaces}{{3.1}{34}}
\@writefile{toc}{\contentsline {section}{\numberline {3.2}\IeC {\textChi }\IeC {\textrho }\IeC {\textomega }\IeC {\textmu }\IeC {\textalpha }\IeC {\texttau }\IeC {\textiota }\IeC {\textkappa }\IeC {\ensuregreek {\acctonos \texteta }} \IeC {\textkappa }\IeC {\textalpha }\IeC {\texttau }\IeC {\textomega }\IeC {\textphi }\IeC {\textlambda }\IeC {\ensuregreek {\acctonos \textiota }}\IeC {\textomega }\IeC {\textsigma }\IeC {\texteta } \IeC {\textepsilon }\IeC {\textiota }\IeC {\textkappa }\IeC {\ensuregreek {\acctonos \textomicron }}\IeC {\textnu }\IeC {\textalpha }\IeC {\textvarsigma }}{35}}
\select@language{greek}
\@writefile{toc}{\select@language{greek}}
\@writefile{lof}{\select@language{greek}}
\@writefile{lot}{\select@language{greek}}
\select@language{greek}
\@writefile{toc}{\select@language{greek}}
\@writefile{lof}{\select@language{greek}}
\@writefile{lot}{\select@language{greek}}
\@writefile{lof}{\contentsline {figure}{\numberline {3.2}{\ignorespaces \IeC {\textKappa }\IeC {\textalpha }\IeC {\texttau }\IeC {\textomega }\IeC {\textphi }\IeC {\textlambda }\IeC {\ensuregreek {\acctonos \textiota }}\IeC {\textomega }\IeC {\textsigma }\IeC {\texteta } \IeC {\textsigma }\IeC {\texttau }\IeC {\textomicron } \IeC {\textchi }\IeC {\ensuregreek {\acctonos \textomega }}\IeC {\textrho }\IeC {\textomicron } \textlatin  {HSV}.\relax }}{36}}
\newlabel{im:trackbars}{{3.2}{36}}
\@writefile{toc}{\contentsline {section}{\numberline {3.3}\IeC {\textKappa }\IeC {\textalpha }\IeC {\texttau }\IeC {\textomega }\IeC {\textphi }\IeC {\textlambda }\IeC {\ensuregreek {\acctonos \textiota }}\IeC {\textomega }\IeC {\textsigma }\IeC {\texteta } \IeC {\textepsilon }\IeC {\textiota }\IeC {\textkappa }\IeC {\ensuregreek {\acctonos \textomicron }}\IeC {\textnu }\IeC {\textalpha }\IeC {\textvarsigma } \IeC {\textpi }\IeC {\textiota }\IeC {\texttheta }\IeC {\textalpha }\IeC {\textnu }\IeC {\textomicron }\IeC {\texttau }\IeC {\ensuregreek {\acctonos \texteta }}\IeC {\texttau }\IeC {\textomega }\IeC {\textnu }}{36}}
\@writefile{lof}{\contentsline {figure}{\numberline {3.3}{\ignorespaces \IeC {\textPi }\IeC {\textepsilon }\IeC {\textrho }\IeC {\textiota }\IeC {\textpi }\IeC {\texttau }\IeC {\ensuregreek {\acctonos \textomega }}\IeC {\textsigma }\IeC {\textepsilon }\IeC {\textiota }\IeC {\textvarsigma } \IeC {\textkappa }\IeC {\textalpha }\IeC {\textlambda }\IeC {\ensuregreek {\acctonos \texteta }}\IeC {\textvarsigma } \IeC {\textkappa }\IeC {\textalpha }\IeC {\textiota } \IeC {\textkappa }\IeC {\textalpha }\IeC {\textkappa }\IeC {\ensuregreek {\acctonos \texteta }}\IeC {\textvarsigma } \IeC {\textchi }\IeC {\textrho }\IeC {\textomega }\IeC {\textmu }\IeC {\textalpha }\IeC {\texttau }\IeC {\textiota }\IeC {\textkappa }\IeC {\ensuregreek {\acctonos \texteta }}\IeC {\textvarsigma } \IeC {\textkappa }\IeC {\textalpha }\IeC {\texttau }\IeC {\textomega }\IeC {\textphi }\IeC {\textlambda }\IeC {\ensuregreek {\acctonos \textiota }}\IeC {\textomega }\IeC {\textsigma }\IeC {\texteta }\IeC {\textvarsigma }.\relax }}{37}}
\newlabel{im:good_bad_threshold}{{3.3}{37}}
\@writefile{toc}{\contentsline {section}{\numberline {3.4}\IeC {\textMu }\IeC {\textomicron }\IeC {\textrho }\IeC {\textphi }\IeC {\textomicron }\IeC {\textlambda }\IeC {\textomicron }\IeC {\textgamma }\IeC {\textiota }\IeC {\textkappa }\IeC {\ensuregreek {\acctonos \textalpha }} \IeC {\textPhi }\IeC {\ensuregreek {\acctonos \textiota }}\IeC {\textlambda }\IeC {\texttau }\IeC {\textrho }\IeC {\textalpha } \IeC {\textkappa }\IeC {\textalpha }\IeC {\textiota } \IeC {\textOmicron }\IeC {\textrho }\IeC {\textiota }\IeC {\textomicron }\IeC {\texttheta }\IeC {\ensuregreek {\acctonos \textepsilon }}\IeC {\texttau }\IeC {\texteta }\IeC {\textsigma }\IeC {\texteta } \IeC {\textAlpha }\IeC {\textnu }\IeC {\texttau }\IeC {\textiota }\IeC {\textkappa }\IeC {\textepsilon }\IeC {\textiota }\IeC {\textmu }\IeC {\ensuregreek {\acctonos \textepsilon }}\IeC {\textnu }\IeC {\textomicron }\IeC {\textupsilon }}{37}}
\select@language{greek}
\@writefile{toc}{\select@language{greek}}
\@writefile{lof}{\select@language{greek}}
\@writefile{lot}{\select@language{greek}}
\select@language{greek}
\@writefile{toc}{\select@language{greek}}
\@writefile{lof}{\select@language{greek}}
\@writefile{lot}{\select@language{greek}}
\@writefile{lof}{\contentsline {figure}{\numberline {3.4}{\ignorespaces \IeC {\textSigma }\IeC {\texttau }\IeC {\ensuregreek {\acctonos \textalpha }}\IeC {\textdelta }\IeC {\textiota }\IeC {\textalpha } \IeC {\textomicron }\IeC {\textpi }\IeC {\texttau }\IeC {\textiota }\IeC {\textkappa }\IeC {\ensuregreek {\acctonos \texteta }}\IeC {\textvarsigma } \IeC {\textalpha }\IeC {\textnu }\IeC {\ensuregreek {\acctonos \textiota }}\IeC {\textchi }\IeC {\textnu }\IeC {\textepsilon }\IeC {\textupsilon }\IeC {\textsigma }\IeC {\texteta }\IeC {\textvarsigma } \IeC {\textalpha }\IeC {\textnu }\IeC {\texttau }\IeC {\textiota }\IeC {\textkappa }\IeC {\textepsilon }\IeC {\textiota }\IeC {\textmu }\IeC {\ensuregreek {\acctonos \textepsilon }}\IeC {\textnu }\IeC {\textomicron }\IeC {\textupsilon }.\relax }}{38}}
\newlabel{im:detection_pipeline}{{3.4}{38}}
\select@language{english}
\@writefile{toc}{\select@language{english}}
\@writefile{lof}{\select@language{english}}
\@writefile{lot}{\select@language{english}}
\select@language{greek}
\@writefile{toc}{\select@language{greek}}
\@writefile{lof}{\select@language{greek}}
\@writefile{lot}{\select@language{greek}}
\@writefile{toc}{\contentsline {section}{\numberline {3.5}\IeC {\textBeta }\IeC {\textalpha }\IeC {\texttheta }\IeC {\textmu }\IeC {\ensuregreek {\acctonos \textomicron }}\IeC {\textvarsigma } \IeC {\textalpha }\IeC {\textxi }\IeC {\textiota }\IeC {\textomicron }\IeC {\textpi }\IeC {\textiota }\IeC {\textsigma }\IeC {\texttau }\IeC {\ensuregreek {\acctonos \textiota }}\IeC {\textalpha }\IeC {\textvarsigma } \IeC {\textalpha }\IeC {\textnu }\IeC {\ensuregreek {\acctonos \textiota }}\IeC {\textchi }\IeC {\textnu }\IeC {\textepsilon }\IeC {\textupsilon }\IeC {\textsigma }\IeC {\texteta }\IeC {\textvarsigma }}{38}}
\@writefile{loa}{\contentsline {algorithm}{\numberline {1}{\ignorespaces \ \ \ Color-based object detection\relax }}{39}}
\newlabel{alg:color_based_object_detection}{{1}{39}}
\newlabel{eq:score}{{3.10}{39}}
\@writefile{toc}{\contentsline {section}{\numberline {3.6}\IeC {\textSigma }\IeC {\ensuregreek {\acctonos \textupsilon }}\IeC {\textnu }\IeC {\textomicron }\IeC {\textpsi }\IeC {\texteta } \IeC {\textkappa }\IeC {\textepsilon }\IeC {\textphi }\IeC {\textalpha }\IeC {\textlambda }\IeC {\textalpha }\IeC {\ensuregreek {\acctonos \textiota }}\IeC {\textomicron }\IeC {\textupsilon }}{39}}
\@setckpt{chapter_detection_theoretical}{
\setcounter{page}{40}
\setcounter{equation}{10}
\setcounter{enumi}{5}
\setcounter{enumii}{0}
\setcounter{enumiii}{0}
\setcounter{enumiv}{0}
\setcounter{footnote}{0}
\setcounter{mpfootnote}{0}
\setcounter{parentequation}{0}
\setcounter{part}{0}
\setcounter{chapter}{3}
\setcounter{section}{6}
\setcounter{subsection}{0}
\setcounter{subsubsection}{0}
\setcounter{paragraph}{0}
\setcounter{subparagraph}{0}
\setcounter{figure}{4}
\setcounter{table}{0}
\setcounter{ContinuedFloat}{0}
\setcounter{subfigure}{0}
\setcounter{subtable}{0}
\setcounter{float@type}{8}
\setcounter{algorithm}{1}
\setcounter{ALC@unique}{9}
\setcounter{ALC@line}{9}
\setcounter{ALC@rem}{0}
\setcounter{ALC@depth}{0}
\setcounter{definition}{0}
\setcounter{proposition}{0}
\setcounter{theorem}{0}
\setcounter{corollary}{0}
\setcounter{lemma}{0}
\setcounter{example}{0}
\setcounter{remark}{0}
\setcounter{notation}{0}
\setcounter{law}{0}
}
