\relax 
\@writefile{toc}{\contentsline {chapter}{\numberline {6}\IeC {\textDelta }\IeC {\textiota }\IeC {\textalpha }\IeC {\textdelta }\IeC {\textrho }\IeC {\textalpha }\IeC {\textsigma }\IeC {\texttau }\IeC {\textiota }\IeC {\textkappa }\IeC {\ensuregreek {\acctonos \texteta }} \IeC {\textrho }\IeC {\textomicron }\IeC {\textmu }\IeC {\textpi }\IeC {\textomicron }\IeC {\texttau }\IeC {\textiota }\IeC {\textkappa }\IeC {\ensuregreek {\acctonos \texteta }} \IeC {\textlambda }\IeC {\ensuregreek {\acctonos \texteta }}\IeC {\textpsi }\IeC {\texteta } \IeC {\textalpha }\IeC {\textnu }\IeC {\texttau }\IeC {\textiota }\IeC {\textkappa }\IeC {\textepsilon }\IeC {\textiota }\IeC {\textmu }\IeC {\ensuregreek {\acctonos \textepsilon }}\IeC {\textnu }\IeC {\textomicron }\IeC {\textupsilon }}{59}}
\@writefile{lof}{\addvspace {10\p@ }}
\@writefile{lot}{\addvspace {10\p@ }}
\newlabel{chapter_handover_experiment}{{6}{59}}
\@writefile{toc}{\contentsline {section}{\numberline {6.1}\IeC {\textAlpha }\IeC {\textnu }\IeC {\texttheta }\IeC {\textrho }\IeC {\textomega }\IeC {\textpi }\IeC {\ensuregreek {\acctonos \textomicron }}\IeC {\textmu }\IeC {\textomicron }\IeC {\textrho }\IeC {\textphi }\IeC {\textomicron } \IeC {\textrho }\IeC {\textomicron }\IeC {\textmu }\IeC {\textpi }\IeC {\ensuregreek {\acctonos \textomicron }}\IeC {\texttau } \IeC {\textNu }\IeC {\textAlpha }\IeC {\textOmicron }}{59}}
\select@language{greek}
\@writefile{toc}{\select@language{greek}}
\@writefile{lof}{\select@language{greek}}
\@writefile{lot}{\select@language{greek}}
\select@language{greek}
\@writefile{toc}{\select@language{greek}}
\@writefile{lof}{\select@language{greek}}
\@writefile{lot}{\select@language{greek}}
\@writefile{lof}{\contentsline {figure}{\numberline {6.1}{\ignorespaces \IeC {\textSigma }\IeC {\textchi }\IeC {\texteta }\IeC {\textmu }\IeC {\textalpha }\IeC {\texttau }\IeC {\textiota }\IeC {\textkappa }\IeC {\ensuregreek {\acctonos \textomicron }} \IeC {\texttau }\IeC {\textomicron }\IeC {\textupsilon } \IeC {\textalpha }\IeC {\textnu }\IeC {\texttheta }\IeC {\textrho }\IeC {\textomega }\IeC {\textpi }\IeC {\ensuregreek {\acctonos \textomicron }}\IeC {\textmu }\IeC {\textomicron }\IeC {\textrho }\IeC {\textphi }\IeC {\textomicron }\IeC {\textupsilon } \IeC {\textrho }\IeC {\textomicron }\IeC {\textmu }\IeC {\textpi }\IeC {\ensuregreek {\acctonos \textomicron }}\IeC {\texttau } \IeC {\textNu }\IeC {\textAlpha }\IeC {\textOmicron }.\relax }}{60}}
\newlabel{im:nao_hardware}{{6.1}{60}}
\@writefile{toc}{\contentsline {section}{\numberline {6.2}\IeC {\textPi }\IeC {\textrho }\IeC {\textomicron }\IeC {\textsigma }\IeC {\ensuregreek {\acctonos \textepsilon }}\IeC {\textgamma }\IeC {\textgamma }\IeC {\textiota }\IeC {\textsigma }\IeC {\texteta } \IeC {\texttau }\IeC {\textomicron }\IeC {\textupsilon } \IeC {\textpi }\IeC {\textrho }\IeC {\textomicron }\IeC {\textbeta }\IeC {\textlambda }\IeC {\ensuregreek {\acctonos \texteta }}\IeC {\textmu }\IeC {\textalpha }\IeC {\texttau }\IeC {\textomicron }\IeC {\textvarsigma }}{60}}
\newlabel{sec:problem_approach}{{6.2}{60}}
\@writefile{lof}{\contentsline {figure}{\numberline {6.2}{\ignorespaces \IeC {\ensuregreek {\acctonos \textEpsilon }}\IeC {\textnu }\IeC {\textalpha } \IeC {\textalpha }\IeC {\textnu }\IeC {\texttau }\IeC {\textiota }\IeC {\textkappa }\IeC {\textepsilon }\IeC {\ensuregreek {\acctonos \textiota }}\IeC {\textmu }\IeC {\textepsilon }\IeC {\textnu }\IeC {\textomicron } \IeC {\textsigma }\IeC {\textepsilon } \IeC {\textdelta }\IeC {\textiota }\IeC {\ensuregreek {\acctonos \textalpha }}\IeC {\texttau }\IeC {\textalpha }\IeC {\textxi }\IeC {\texteta } \IeC {\textkappa }\IeC {\textalpha }\IeC {\textlambda }\IeC {\ensuregreek {\acctonos \texteta }}\IeC {\textvarsigma } (\IeC {\textalpha }\IeC {\textrho }\IeC {\textiota }\IeC {\textsigma }\IeC {\texttau }\IeC {\textepsilon }\IeC {\textrho }\IeC {\ensuregreek {\acctonos \textalpha }}), \IeC {\textmu }\IeC {\ensuregreek {\acctonos \textepsilon }}\IeC {\texttau }\IeC {\textrho }\IeC {\textiota }\IeC {\textalpha }\IeC {\textvarsigma } (\IeC {\textkappa }\IeC {\ensuregreek {\acctonos \textepsilon }}\IeC {\textnu }\IeC {\texttau }\IeC {\textrho }\IeC {\textomicron }) \IeC {\textkappa }\IeC {\textalpha }\IeC {\textiota } \IeC {\textkappa }\IeC {\textalpha }\IeC {\textkappa }\IeC {\ensuregreek {\acctonos \texteta }}\IeC {\textvarsigma } (\IeC {\textdelta }\IeC {\textepsilon }\IeC {\textxi }\IeC {\textiota }\IeC {\ensuregreek {\acctonos \textalpha }}) \IeC {\textlambda }\IeC {\ensuregreek {\acctonos \texteta }}\IeC {\textpsi }\IeC {\texteta }\IeC {\textvarsigma }.\relax }}{61}}
\newlabel{im:nao_grasping_position}{{6.2}{61}}
\@writefile{toc}{\contentsline {section}{\numberline {6.3}\IeC {\textEpsilon }\IeC {\textpi }\IeC {\textiota }\IeC {\textlambda }\IeC {\textomicron }\IeC {\textgamma }\IeC {\ensuregreek {\acctonos \texteta }} \IeC {\textchi }\IeC {\textalpha }\IeC {\textrho }\IeC {\textalpha }\IeC {\textkappa }\IeC {\texttau }\IeC {\texteta }\IeC {\textrho }\IeC {\textiota }\IeC {\textsigma }\IeC {\texttau }\IeC {\textiota }\IeC {\textkappa }\IeC {\ensuregreek {\acctonos \textomega }}\IeC {\textnu }}{61}}
\citation{[maragos]}
\select@language{greek}
\@writefile{toc}{\select@language{greek}}
\@writefile{lof}{\select@language{greek}}
\@writefile{lot}{\select@language{greek}}
\select@language{greek}
\@writefile{toc}{\select@language{greek}}
\@writefile{lof}{\select@language{greek}}
\@writefile{lot}{\select@language{greek}}
\@writefile{toc}{\contentsline {subsection}{\numberline {6.3.1}\IeC {\textMu }\IeC {\textomicron }\IeC {\textnu }\IeC {\texttau }\IeC {\ensuregreek {\acctonos \textepsilon }}\IeC {\textlambda }\IeC {\textomicron } \IeC {\textkappa }\IeC {\ensuregreek {\acctonos \textalpha }}\IeC {\textmu }\IeC {\textepsilon }\IeC {\textrho }\IeC {\textalpha }\IeC {\textvarsigma } \IeC {\textomicron }\IeC {\textpi }\IeC {\ensuregreek {\acctonos \texteta }}\IeC {\textvarsigma }}{62}}
\@writefile{lof}{\contentsline {figure}{\numberline {6.3}{\ignorespaces \IeC {\textMu }\IeC {\textomicron }\IeC {\textnu }\IeC {\texttau }\IeC {\ensuregreek {\acctonos \textepsilon }}\IeC {\textlambda }\IeC {\textomicron } \IeC {\textkappa }\IeC {\ensuregreek {\acctonos \textalpha }}\IeC {\textmu }\IeC {\textepsilon }\IeC {\textrho }\IeC {\textalpha }\IeC {\textvarsigma } \IeC {\textomicron }\IeC {\textpi }\IeC {\ensuregreek {\acctonos \texteta }}\IeC {\textvarsigma }.\relax }}{62}}
\newlabel{im:pinhole_camera_projection}{{6.3}{62}}
\newlabel{eq:pinhole_equations}{{6.2}{62}}
\newlabel{eq:3d_to_camera}{{6.3}{63}}
\@writefile{toc}{\contentsline {subsection}{\numberline {6.3.2}\IeC {\textChi }\IeC {\textalpha }\IeC {\textrho }\IeC {\textalpha }\IeC {\textkappa }\IeC {\texttau }\IeC {\texteta }\IeC {\textrho }\IeC {\textiota }\IeC {\textsigma }\IeC {\texttau }\IeC {\textiota }\IeC {\textkappa }\IeC {\ensuregreek {\acctonos \textalpha }}}{63}}
\@writefile{toc}{\contentsline {subsubsection}{\IeC {\textKappa }\IeC {\textepsilon }\IeC {\textnu }\IeC {\texttau }\IeC {\textrho }\IeC {\textomicron }\IeC {\textepsilon }\IeC {\textiota }\IeC {\textdelta }\IeC {\ensuregreek {\acctonos \textepsilon }}\IeC {\textvarsigma }}{63}}
\@writefile{lof}{\contentsline {figure}{\numberline {6.4}{\ignorespaces \IeC {\textOmicron }\IeC {\textrho }\IeC {\texttheta }\IeC {\ensuregreek {\acctonos \texteta }} \IeC {\textkappa }\IeC {\textalpha }\IeC {\textiota } \IeC {\textlambda }\IeC {\textalpha }\IeC {\textnu }\IeC {\texttheta }\IeC {\textalpha }\IeC {\textsigma }\IeC {\textmu }\IeC {\ensuregreek {\acctonos \textepsilon }}\IeC {\textnu }\IeC {\texteta } \IeC {\texttheta }\IeC {\ensuregreek {\acctonos \textepsilon }}\IeC {\textsigma }\IeC {\texteta } \IeC {\textalpha }\IeC {\textnu }\IeC {\texttau }\IeC {\textiota }\IeC {\textkappa }\IeC {\textepsilon }\IeC {\textiota }\IeC {\textmu }\IeC {\ensuregreek {\acctonos \textepsilon }}\IeC {\textnu }\IeC {\textomicron }\IeC {\textupsilon } \IeC {\textgamma }\IeC {\textiota }\IeC {\textalpha } \IeC {\textlambda }\IeC {\textalpha }\IeC {\textbeta }\IeC {\ensuregreek {\acctonos \texteta }}.\relax }}{63}}
\newlabel{im:nao_grasping_camera_centroid}{{6.4}{63}}
\citation{[maragos]}
\select@language{greek}
\@writefile{toc}{\select@language{greek}}
\@writefile{lof}{\select@language{greek}}
\@writefile{lot}{\select@language{greek}}
\select@language{greek}
\@writefile{toc}{\select@language{greek}}
\@writefile{lof}{\select@language{greek}}
\@writefile{lot}{\select@language{greek}}
\@writefile{toc}{\contentsline {subsubsection}{\IeC {\textMu }\IeC {\ensuregreek {\acctonos \texteta }}\IeC {\textkappa }\IeC {\textomicron }\IeC {\textvarsigma } \IeC {\textkappa }\IeC {\textalpha }\IeC {\textiota } \IeC {\textpi }\IeC {\textlambda }\IeC {\ensuregreek {\acctonos \textalpha }}\IeC {\texttau }\IeC {\textomicron }\IeC {\textvarsigma }}{64}}
\@writefile{toc}{\contentsline {subsubsection}{\IeC {\textPi }\IeC {\textrho }\IeC {\textomicron }\IeC {\textsigma }\IeC {\textalpha }\IeC {\textnu }\IeC {\textalpha }\IeC {\texttau }\IeC {\textomicron }\IeC {\textlambda }\IeC {\textiota }\IeC {\textsigma }\IeC {\textmu }\IeC {\ensuregreek {\acctonos \textomicron }}\IeC {\textvarsigma }}{64}}
\@writefile{toc}{\contentsline {section}{\numberline {6.4}\IeC {\textPi }\IeC {\textepsilon }\IeC {\textiota }\IeC {\textrho }\IeC {\ensuregreek {\acctonos \textalpha }}\IeC {\textmu }\IeC {\textalpha }\IeC {\texttau }\IeC {\textalpha }}{64}}
\@writefile{lof}{\contentsline {figure}{\numberline {6.5}{\ignorespaces \IeC {\textTau }\IeC {\textomicron } \IeC {\textalpha }\IeC {\textnu }\IeC {\texttau }\IeC {\textiota }\IeC {\textkappa }\IeC {\textepsilon }\IeC {\ensuregreek {\acctonos \textiota }}\IeC {\textmu }\IeC {\textepsilon }\IeC {\textnu }\IeC {\textomicron } \IeC {\textsigma }\IeC {\textepsilon } \IeC {\textdelta }\IeC {\textiota }\IeC {\ensuregreek {\acctonos \textalpha }}\IeC {\textphi }\IeC {\textomicron }\IeC {\textrho }\IeC {\textomicron }\IeC {\textupsilon }\IeC {\textvarsigma } \IeC {\textpi }\IeC {\textrho }\IeC {\textomicron }\IeC {\textsigma }\IeC {\textalpha }\IeC {\textnu }\IeC {\textalpha }\IeC {\texttau }\IeC {\textomicron }\IeC {\textlambda }\IeC {\textiota }\IeC {\textsigma }\IeC {\textmu }\IeC {\textomicron }\IeC {\ensuregreek {\acctonos \textupsilon }}\IeC {\textvarsigma }.\relax }}{65}}
\newlabel{im:nao_orientation_grasping}{{6.5}{65}}
\@writefile{toc}{\contentsline {subsection}{\numberline {6.4.1}\IeC {\textPi }\IeC {\textepsilon }\IeC {\ensuregreek {\acctonos \textiota }}\IeC {\textrho }\IeC {\textalpha }\IeC {\textmu }\IeC {\textalpha } 1\textsuperscript  {\IeC {\textomicron }}: \IeC {\textSigma }\IeC {\texttau }\IeC {\textalpha }\IeC {\texttau }\IeC {\textiota }\IeC {\textkappa }\IeC {\ensuregreek {\acctonos \texteta }} \IeC {\textrho }\IeC {\textomicron }\IeC {\textmu }\IeC {\textpi }\IeC {\textomicron }\IeC {\texttau }\IeC {\textiota }\IeC {\textkappa }\IeC {\ensuregreek {\acctonos \texteta }} \IeC {\textlambda }\IeC {\ensuregreek {\acctonos \texteta }}\IeC {\textpsi }\IeC {\texteta }}{65}}
\select@language{greek}
\@writefile{toc}{\select@language{greek}}
\@writefile{lof}{\select@language{greek}}
\@writefile{lot}{\select@language{greek}}
\select@language{greek}
\@writefile{toc}{\select@language{greek}}
\@writefile{lof}{\select@language{greek}}
\@writefile{lot}{\select@language{greek}}
\select@language{english}
\@writefile{toc}{\select@language{english}}
\@writefile{lof}{\select@language{english}}
\@writefile{lot}{\select@language{english}}
\@writefile{loa}{\contentsline {algorithm}{\numberline {2}{\ignorespaces \ \ \ Static handover\relax }}{66}}
\newlabel{alg:handover}{{2}{66}}
\select@language{greek}
\@writefile{toc}{\select@language{greek}}
\@writefile{lof}{\select@language{greek}}
\@writefile{lot}{\select@language{greek}}
\@writefile{toc}{\contentsline {subsection}{\numberline {6.4.2}\IeC {\textPi }\IeC {\textepsilon }\IeC {\ensuregreek {\acctonos \textiota }}\IeC {\textrho }\IeC {\textalpha }\IeC {\textmu }\IeC {\textalpha } 2\textsuperscript  {\IeC {\textomicron }}: \IeC {\textDelta }\IeC {\textiota }\IeC {\textalpha }\IeC {\textdelta }\IeC {\textrho }\IeC {\textalpha }\IeC {\textsigma }\IeC {\texttau }\IeC {\textiota }\IeC {\textkappa }\IeC {\ensuregreek {\acctonos \texteta }} \IeC {\textrho }\IeC {\textomicron }\IeC {\textmu }\IeC {\textpi }\IeC {\textomicron }\IeC {\texttau }\IeC {\textiota }\IeC {\textkappa }\IeC {\ensuregreek {\acctonos \texteta }} \IeC {\textlambda }\IeC {\ensuregreek {\acctonos \texteta }}\IeC {\textpsi }\IeC {\texteta }}{66}}
\citation{[handbook]}
\@writefile{lof}{\contentsline {figure}{\numberline {6.6}{\ignorespaces \IeC {\textDelta }\IeC {\textiota }\IeC {\ensuregreek {\acctonos \textalpha }}\IeC {\textgamma }\IeC {\textrho }\IeC {\textalpha }\IeC {\textmu }\IeC {\textmu }\IeC {\textalpha } \IeC {\textrho }\IeC {\textomicron }\IeC {\ensuregreek {\acctonos \texteta }}\IeC {\textvarsigma } \IeC {\textdelta }\IeC {\textiota }\IeC {\textalpha }\IeC {\textdelta }\IeC {\textrho }\IeC {\textalpha }\IeC {\textsigma }\IeC {\texttau }\IeC {\textiota }\IeC {\textkappa }\IeC {\ensuregreek {\acctonos \texteta }}\IeC {\textvarsigma } \IeC {\textrho }\IeC {\textomicron }\IeC {\textmu }\IeC {\textpi }\IeC {\textomicron }\IeC {\texttau }\IeC {\textiota }\IeC {\textkappa }\IeC {\ensuregreek {\acctonos \texteta }}\IeC {\textvarsigma } \IeC {\textlambda }\IeC {\ensuregreek {\acctonos \texteta }}\IeC {\textpsi }\IeC {\texteta }\IeC {\textvarsigma }.\relax }}{67}}
\newlabel{im:interactive_handover_diagram}{{6.6}{67}}
\@writefile{toc}{\contentsline {subsubsection}{\IeC {\ensuregreek {\acctonos \textEpsilon }}\IeC {\textlambda }\IeC {\textepsilon }\IeC {\textgamma }\IeC {\textchi }\IeC {\textomicron }\IeC {\textvarsigma } \IeC {\textomicron }\IeC {\textpi }\IeC {\texttau }\IeC {\textiota }\IeC {\textkappa }\IeC {\ensuregreek {\acctonos \texteta }}\IeC {\textvarsigma } \IeC {\textomicron }\IeC {\textdelta }\IeC {\ensuregreek {\acctonos \texteta }}\IeC {\textgamma }\IeC {\texteta }\IeC {\textsigma }\IeC {\texteta }\IeC {\textvarsigma }}{67}}
\newlabel{eq:visual_error}{{6.8}{67}}
\citation{[handbook]}
\select@language{greek}
\@writefile{toc}{\select@language{greek}}
\@writefile{lof}{\select@language{greek}}
\@writefile{lot}{\select@language{greek}}
\select@language{greek}
\@writefile{toc}{\select@language{greek}}
\@writefile{lof}{\select@language{greek}}
\@writefile{lot}{\select@language{greek}}
\newlabel{eq:interaction_matrix}{{6.9}{68}}
\newlabel{eq:ibvs_control_law}{{6.11}{68}}
\@writefile{toc}{\contentsline {subsubsection}{\IeC {\textMu }\IeC {\ensuregreek {\acctonos \texteta }}\IeC {\texttau }\IeC {\textrho }\IeC {\textalpha } \IeC {\textalpha }\IeC {\textlambda }\IeC {\textlambda }\IeC {\texteta }\IeC {\textlambda }\IeC {\textepsilon }\IeC {\textpi }\IeC {\ensuregreek {\acctonos \textiota }}\IeC {\textdelta }\IeC {\textrho }\IeC {\textalpha }\IeC {\textsigma }\IeC {\texteta }\IeC {\textvarsigma }}{68}}
\newlabel{eq:interaction_matrix_analytical}{{6.12}{68}}
\newlabel{eq:3d_to_2d}{{6.13}{69}}
\select@language{greek}
\@writefile{toc}{\select@language{greek}}
\@writefile{lof}{\select@language{greek}}
\@writefile{lot}{\select@language{greek}}
\select@language{greek}
\@writefile{toc}{\select@language{greek}}
\@writefile{lof}{\select@language{greek}}
\@writefile{lot}{\select@language{greek}}
\newlabel{eq:interaction_matrix_estimate}{{6.17}{70}}
\@writefile{toc}{\contentsline {subsubsection}{\IeC {\textNu }\IeC {\ensuregreek {\acctonos \textomicron }}\IeC {\textmu }\IeC {\textomicron }\IeC {\textvarsigma } \IeC {\textepsilon }\IeC {\textlambda }\IeC {\ensuregreek {\acctonos \textepsilon }}\IeC {\textgamma }\IeC {\textchi }\IeC {\textomicron }\IeC {\textupsilon }}{70}}
\newlabel{eq:ibvs_control_law_analytical}{{6.18}{70}}
\@writefile{lof}{\contentsline {figure}{\numberline {6.7}{\ignorespaces \IeC {\textPi }\IeC {\textlambda }\IeC {\textalpha }\IeC {\ensuregreek {\acctonos \textiota }}\IeC {\textsigma }\IeC {\textiota }\IeC {\textomicron } \IeC {\textalpha }\IeC {\textnu }\IeC {\textalpha }\IeC {\textphi }\IeC {\textomicron }\IeC {\textrho }\IeC {\ensuregreek {\acctonos \textalpha }}\IeC {\textvarsigma } \IeC {\textkappa }\IeC {\textalpha }\IeC {\textiota } \IeC {\textbeta }\IeC {\textalpha }\IeC {\texttheta }\IeC {\textmu }\IeC {\textomicron }\IeC {\ensuregreek {\acctonos \textiota }} \IeC {\textepsilon }\IeC {\textlambda }\IeC {\textepsilon }\IeC {\textupsilon }\IeC {\texttheta }\IeC {\textepsilon }\IeC {\textrho }\IeC {\ensuregreek {\acctonos \textiota }}\IeC {\textalpha }\IeC {\textvarsigma } \IeC {\texttau }\IeC {\texteta }\IeC {\textvarsigma } \IeC {\textkappa }\IeC {\textepsilon }\IeC {\textphi }\IeC {\textalpha }\IeC {\textlambda }\IeC {\ensuregreek {\acctonos \texteta }}\IeC {\textvarsigma } \IeC {\texttau }\IeC {\textomicron }\IeC {\textupsilon } \IeC {\textNu }\IeC {\textAlpha }\IeC {\textOmicron }.\relax }}{70}}
\newlabel{im:nao_head_dof}{{6.7}{70}}
\@writefile{toc}{\contentsline {subsubsection}{\IeC {\textMu }\IeC {\textepsilon }\IeC {\texttau }\IeC {\textalpha }\IeC {\textsigma }\IeC {\textchi }\IeC {\texteta }\IeC {\textmu }\IeC {\textalpha }\IeC {\texttau }\IeC {\textiota }\IeC {\textsigma }\IeC {\textmu }\IeC {\ensuregreek {\acctonos \textomicron }}\IeC {\textvarsigma } \IeC {\texttau }\IeC {\textepsilon }\IeC {\textlambda }\IeC {\textiota }\IeC {\textkappa }\IeC {\textomicron }\IeC {\ensuregreek {\acctonos \textupsilon }} \IeC {\textsigma }\IeC {\texttau }\IeC {\textomicron }\IeC {\textiota }\IeC {\textchi }\IeC {\textepsilon }\IeC {\ensuregreek {\acctonos \textiota }}\IeC {\textomicron }\IeC {\textupsilon } \IeC {\textdelta }\IeC {\textrho }\IeC {\ensuregreek {\acctonos \textalpha }}\IeC {\textsigma }\IeC {\texteta }\IeC {\textvarsigma }}{70}}
\@writefile{lof}{\contentsline {figure}{\numberline {6.8}{\ignorespaces \IeC {\textPi }\IeC {\textlambda }\IeC {\textalpha }\IeC {\ensuregreek {\acctonos \textiota }}\IeC {\textsigma }\IeC {\textiota }\IeC {\textalpha } \IeC {\textkappa }\IeC {\textalpha }\IeC {\textiota } \IeC {\textmu }\IeC {\textepsilon }\IeC {\texttau }\IeC {\textalpha }\IeC {\textsigma }\IeC {\textchi }\IeC {\texteta }\IeC {\textmu }\IeC {\textalpha }\IeC {\texttau }\IeC {\textiota }\IeC {\textsigma }\IeC {\textmu }\IeC {\textomicron }\IeC {\ensuregreek {\acctonos \textiota }} \IeC {\texttau }\IeC {\textomega }\IeC {\textnu } \IeC {\textkappa }\IeC {\textiota }\IeC {\textnu }\IeC {\texteta }\IeC {\textmu }\IeC {\textalpha }\IeC {\texttau }\IeC {\textiota }\IeC {\textkappa }\IeC {\ensuregreek {\acctonos \textomega }}\IeC {\textnu } \IeC {\textalpha }\IeC {\textlambda }\IeC {\textupsilon }\IeC {\textsigma }\IeC {\ensuregreek {\acctonos \textiota }}\IeC {\textdelta }\IeC {\textomega }\IeC {\textnu } \IeC {\texttau }\IeC {\textomicron }\IeC {\textupsilon } \IeC {\textrho }\IeC {\textomicron }\IeC {\textmu }\IeC {\textpi }\IeC {\ensuregreek {\acctonos \textomicron }}\IeC {\texttau }.\relax }}{71}}
\newlabel{im:end_effector_movement2}{{6.8}{71}}
\select@language{greek}
\@writefile{toc}{\select@language{greek}}
\@writefile{lof}{\select@language{greek}}
\@writefile{lot}{\select@language{greek}}
\select@language{greek}
\@writefile{toc}{\select@language{greek}}
\@writefile{lof}{\select@language{greek}}
\@writefile{lot}{\select@language{greek}}
\newlabel{eq:eq1}{{6.21}{72}}
\newlabel{eq:eq2}{{6.22}{72}}
\newlabel{eq:final_transformation}{{6.24}{72}}
\@writefile{toc}{\contentsline {section}{\numberline {6.5}\IeC {\textAlpha }\IeC {\textpi }\IeC {\textomicron }\IeC {\texttau }\IeC {\textepsilon }\IeC {\textlambda }\IeC {\ensuregreek {\acctonos \textepsilon }}\IeC {\textsigma }\IeC {\textmu }\IeC {\textalpha }\IeC {\texttau }\IeC {\textalpha } \IeC {\textpi }\IeC {\textepsilon }\IeC {\textiota }\IeC {\textrho }\IeC {\textalpha }\IeC {\textmu }\IeC {\ensuregreek {\acctonos \textalpha }}\IeC {\texttau }\IeC {\textomega }\IeC {\textnu }}{72}}
\citation{[towards]}
\@writefile{toc}{\contentsline {subsection}{\numberline {6.5.1}\IeC {\textSigma }\IeC {\textupsilon }\IeC {\textlambda }\IeC {\textlambda }\IeC {\textomicron }\IeC {\textgamma }\IeC {\ensuregreek {\acctonos \texteta }} \IeC {\textdelta }\IeC {\textepsilon }\IeC {\textdelta }\IeC {\textomicron }\IeC {\textmu }\IeC {\ensuregreek {\acctonos \textepsilon }}\IeC {\textnu }\IeC {\textomega }\IeC {\textnu }}{73}}
\@writefile{toc}{\contentsline {subsection}{\numberline {6.5.2}\IeC {\textAlpha }\IeC {\textxi }\IeC {\textiota }\IeC {\textomicron }\IeC {\textlambda }\IeC {\ensuregreek {\acctonos \textomicron }}\IeC {\textgamma }\IeC {\texteta }\IeC {\textsigma }\IeC {\texteta } \IeC {\textchi }\IeC {\textrho }\IeC {\textomega }\IeC {\textmu }\IeC {\textalpha }\IeC {\texttau }\IeC {\textiota }\IeC {\textkappa }\IeC {\ensuregreek {\acctonos \texteta }}\IeC {\textvarsigma } \IeC {\textalpha }\IeC {\textnu }\IeC {\ensuregreek {\acctonos \textiota }}\IeC {\textchi }\IeC {\textnu }\IeC {\textepsilon }\IeC {\textupsilon }\IeC {\textsigma }\IeC {\texteta }\IeC {\textvarsigma }}{73}}
\select@language{greek}
\@writefile{toc}{\select@language{greek}}
\@writefile{lof}{\select@language{greek}}
\@writefile{lot}{\select@language{greek}}
\select@language{greek}
\@writefile{toc}{\select@language{greek}}
\@writefile{lof}{\select@language{greek}}
\@writefile{lot}{\select@language{greek}}
\@writefile{lof}{\contentsline {figure}{\numberline {6.9}{\ignorespaces \IeC {\textOmicron }\IeC {\textrho }\IeC {\textiota }\IeC {\textomicron }\IeC {\texttheta }\IeC {\ensuregreek {\acctonos \textepsilon }}\IeC {\texttau }\IeC {\texteta }\IeC {\textsigma }\IeC {\texteta } \IeC {\textalpha }\IeC {\textnu }\IeC {\texttau }\IeC {\textiota }\IeC {\textkappa }\IeC {\textepsilon }\IeC {\textiota }\IeC {\textmu }\IeC {\ensuregreek {\acctonos \textepsilon }}\IeC {\textnu }\IeC {\textomicron }\IeC {\textupsilon } \IeC {\textalpha }\IeC {\textpi }\IeC {\ensuregreek {\acctonos \textomicron }} \IeC {\textalpha }\IeC {\textlambda }\IeC {\textgamma }\IeC {\ensuregreek {\acctonos \textomicron }}\IeC {\textrho }\IeC {\textiota }\IeC {\texttheta }\IeC {\textmu }\IeC {\textomicron } \IeC {\textchi }\IeC {\textrho }\IeC {\textomega }\IeC {\textmu }\IeC {\textalpha }\IeC {\texttau }\IeC {\textiota }\IeC {\textkappa }\IeC {\ensuregreek {\acctonos \texteta }}\IeC {\textvarsigma } \IeC {\textalpha }\IeC {\textnu }\IeC {\ensuregreek {\acctonos \textiota }}\IeC {\textchi }\IeC {\textnu }\IeC {\textepsilon }\IeC {\textupsilon }\IeC {\textsigma }\IeC {\texteta }\IeC {\textvarsigma }.\relax }}{74}}
\newlabel{im:score}{{6.9}{74}}
\@writefile{toc}{\contentsline {subsection}{\numberline {6.5.3}\IeC {\textAlpha }\IeC {\textxi }\IeC {\textiota }\IeC {\textomicron }\IeC {\textlambda }\IeC {\ensuregreek {\acctonos \textomicron }}\IeC {\textgamma }\IeC {\texteta }\IeC {\textsigma }\IeC {\texteta } \IeC {\textrho }\IeC {\textomicron }\IeC {\textmu }\IeC {\textpi }\IeC {\textomicron }\IeC {\texttau }\IeC {\textiota }\IeC {\textkappa }\IeC {\ensuregreek {\acctonos \texteta }}\IeC {\textvarsigma } \IeC {\textlambda }\IeC {\ensuregreek {\acctonos \texteta }}\IeC {\textpsi }\IeC {\texteta }\IeC {\textvarsigma }}{74}}
\newlabel{tab:num_of_samples}{{\caption@xref {tab:num_of_samples}{ on input line 785}}{74}}
\@writefile{lof}{\contentsline {figure}{\numberline {6.10}{\ignorespaces \IeC {\textBeta }\IeC {\textalpha }\IeC {\texttheta }\IeC {\textmu }\IeC {\textomicron }\IeC {\textlambda }\IeC {\ensuregreek {\acctonos \textomicron }}\IeC {\textgamma }\IeC {\texteta }\IeC {\textsigma }\IeC {\texteta } \IeC {\textalpha }\IeC {\textlambda }\IeC {\textgamma }\IeC {\textomicron }\IeC {\textrho }\IeC {\ensuregreek {\acctonos \textiota }}\IeC {\texttheta }\IeC {\textmu }\IeC {\textomicron }\IeC {\textupsilon } \IeC {\textalpha }\IeC {\textnu }\IeC {\ensuregreek {\acctonos \textiota }}\IeC {\textchi }\IeC {\textnu }\IeC {\textepsilon }\IeC {\textupsilon }\IeC {\textsigma }\IeC {\texteta }\IeC {\textvarsigma } \IeC {\textkappa }\IeC {\ensuregreek {\acctonos \textalpha }}\IeC {\texttau }\IeC {\textomega } \IeC {\textalpha }\IeC {\textpi }\IeC {\ensuregreek {\acctonos \textomicron }} \IeC {\textdelta }\IeC {\textiota }\IeC {\textalpha }\IeC {\textphi }\IeC {\textomicron }\IeC {\textrho }\IeC {\textepsilon }\IeC {\texttau }\IeC {\textiota }\IeC {\textkappa }\IeC {\ensuregreek {\acctonos \textepsilon }}\IeC {\textvarsigma } \IeC {\textsigma }\IeC {\textupsilon }\IeC {\textnu }\IeC {\texttheta }\IeC {\ensuregreek {\acctonos \texteta }}\IeC {\textkappa }\IeC {\textepsilon }\IeC {\textvarsigma } \IeC {\textphi }\IeC {\textomega }\IeC {\texttau }\IeC {\textiota }\IeC {\textsigma }\IeC {\textmu }\IeC {\textomicron }\IeC {\ensuregreek {\acctonos \textupsilon }} \IeC {\textsigma }\IeC {\texttau }\IeC {\texteta } \IeC {\textdelta }\IeC {\textiota }\IeC {\ensuregreek {\acctonos \textalpha }}\IeC {\textrho }\IeC {\textkappa }\IeC {\textepsilon }\IeC {\textiota }\IeC {\textalpha } \IeC {\textepsilon }\IeC {\textkappa }\IeC {\texttau }\IeC {\ensuregreek {\acctonos \textepsilon }}\IeC {\textlambda }\IeC {\textepsilon }\IeC {\textsigma }\IeC {\texteta }\IeC {\textvarsigma } \IeC {\texttau }\IeC {\textomicron }\IeC {\textupsilon } \IeC {\textpi }\IeC {\textepsilon }\IeC {\textiota }\IeC {\textrho }\IeC {\ensuregreek {\acctonos \textalpha }}\IeC {\textmu }\IeC {\textalpha }\IeC {\texttau }\IeC {\textomicron }\IeC {\textvarsigma }.\relax }}{75}}
\newlabel{im:score_hist}{{6.10}{75}}
\newlabel{tab:svm_params}{{\caption@xref {tab:svm_params}{ on input line 800}}{75}}
\select@language{greek}
\@writefile{toc}{\select@language{greek}}
\@writefile{lof}{\select@language{greek}}
\@writefile{lot}{\select@language{greek}}
\select@language{greek}
\@writefile{toc}{\select@language{greek}}
\@writefile{lof}{\select@language{greek}}
\@writefile{lot}{\select@language{greek}}
\@writefile{lof}{\contentsline {figure}{\numberline {6.11}{\ignorespaces \IeC {\textAlpha }\IeC {\textrho }\IeC {\textiota }\IeC {\textsigma }\IeC {\texttau }\IeC {\textepsilon }\IeC {\textrho }\IeC {\ensuregreek {\acctonos \textalpha }}: \IeC {\textEpsilon }\IeC {\textpi }\IeC {\ensuregreek {\acctonos \textiota }}\IeC {\textdelta }\IeC {\textomicron }\IeC {\textsigma }\IeC {\texteta } \textlatin  {SVM} \IeC {\textmu }\IeC {\textepsilon } \IeC {\textpi }\IeC {\textupsilon }\IeC {\textrho }\IeC {\ensuregreek {\acctonos \texteta }}\IeC {\textnu }\IeC {\textalpha } \IeC {\textalpha }\IeC {\textkappa }\IeC {\texttau }\IeC {\textiota }\IeC {\textnu }\IeC {\textiota }\IeC {\textkappa }\IeC {\ensuregreek {\acctonos \texteta }}\IeC {\textvarsigma } \IeC {\textbeta }\IeC {\ensuregreek {\acctonos \textalpha }}\IeC {\textsigma }\IeC {\texteta }\IeC {\textvarsigma } \IeC {\textgamma }\IeC {\textiota }\IeC {\textalpha } \IeC {\textdelta }\IeC {\textiota }\IeC {\textalpha }\IeC {\textphi }\IeC {\textomicron }\IeC {\textrho }\IeC {\textepsilon }\IeC {\texttau }\IeC {\textiota }\IeC {\textkappa }\IeC {\ensuregreek {\acctonos \textepsilon }}\IeC {\textvarsigma } \IeC {\texttau }\IeC {\textiota }\IeC {\textmu }\IeC {\ensuregreek {\acctonos \textepsilon }}\IeC {\textvarsigma } \IeC {\texttau }\IeC {\textomega }\IeC {\textnu } \IeC {\textpi }\IeC {\textalpha }\IeC {\textrho }\IeC {\textalpha }\IeC {\textmu }\IeC {\ensuregreek {\acctonos \textepsilon }}\IeC {\texttau }\IeC {\textrho }\IeC {\textomega }\IeC {\textnu } $C$ \IeC {\textkappa }\IeC {\textalpha }\IeC {\textiota } $\gamma $. \IeC {\textDelta }\IeC {\textepsilon }\IeC {\textxi }\IeC {\textiota }\IeC {\ensuregreek {\acctonos \textalpha }}: \IeC {\textMu }\IeC {\ensuregreek {\acctonos \texteta }}\IeC {\texttau }\IeC {\textrho }\IeC {\textalpha } \IeC {\textsigma }\IeC {\ensuregreek {\acctonos \textupsilon }}\IeC {\textgamma }\IeC {\textchi }\IeC {\textupsilon }\IeC {\textsigma }\IeC {\texteta }\IeC {\textvarsigma } \IeC {\textgamma }\IeC {\textiota }\IeC {\textalpha } $\gamma = 10^{-5}$ \IeC {\textkappa }\IeC {\textalpha }\IeC {\textiota } $C = 10$.\relax }}{76}}
\newlabel{im:heatmap_conf}{{6.11}{76}}
\@writefile{lof}{\contentsline {figure}{\numberline {6.12}{\ignorespaces \IeC {\textAlpha }\IeC {\textrho }\IeC {\textiota }\IeC {\textsigma }\IeC {\texttau }\IeC {\textepsilon }\IeC {\textrho }\IeC {\ensuregreek {\acctonos \textalpha }}: \IeC {\texteta } \IeC {\textlambda }\IeC {\ensuregreek {\acctonos \texteta }}\IeC {\textpsi }\IeC {\texteta } \IeC {\textalpha }\IeC {\textxi }\IeC {\textiota }\IeC {\textomicron }\IeC {\textlambda }\IeC {\textomicron }\IeC {\textgamma }\IeC {\textepsilon }\IeC {\ensuregreek {\acctonos \textiota }}\IeC {\texttau }\IeC {\textalpha }\IeC {\textiota } \IeC {\textlambda }\IeC {\textalpha }\IeC {\textnu }\IeC {\texttheta }\IeC {\textalpha }\IeC {\textsigma }\IeC {\textmu }\IeC {\ensuregreek {\acctonos \textepsilon }}\IeC {\textnu }\IeC {\textalpha } \IeC {\textomega }\IeC {\textvarsigma } \IeC {\textkappa }\IeC {\textalpha }\IeC {\textkappa }\IeC {\ensuregreek {\acctonos \texteta }}, \IeC {\textepsilon }\IeC {\textnu }\IeC {\ensuregreek {\acctonos \textomega }} \IeC {\textsigma }\IeC {\texttau }\IeC {\texteta }\IeC {\textnu } \IeC {\textpi }\IeC {\textrho }\IeC {\textalpha }\IeC {\textgamma }\IeC {\textmu }\IeC {\textalpha }\IeC {\texttau }\IeC {\textiota }\IeC {\textkappa }\IeC {\ensuregreek {\acctonos \textomicron }}\IeC {\texttau }\IeC {\texteta }\IeC {\texttau }\IeC {\textalpha } \IeC {\textepsilon }\IeC {\ensuregreek {\acctonos \textiota }}\IeC {\textnu }\IeC {\textalpha }\IeC {\textiota } \IeC {\textmu }\IeC {\ensuregreek {\acctonos \textepsilon }}\IeC {\texttau }\IeC {\textrho }\IeC {\textiota }\IeC {\textalpha }. \IeC {\textDelta }\IeC {\textepsilon }\IeC {\textxi }\IeC {\textiota }\IeC {\ensuregreek {\acctonos \textalpha }}: \IeC {\texteta } \IeC {\textdelta }\IeC {\textupsilon }\IeC {\textalpha }\IeC {\textdelta }\IeC {\textiota }\IeC {\textkappa }\IeC {\ensuregreek {\acctonos \texteta }} \IeC {\textepsilon }\IeC {\textiota }\IeC {\textkappa }\IeC {\ensuregreek {\acctonos \textomicron }}\IeC {\textnu }\IeC {\textalpha } \IeC {\textalpha }\IeC {\textnu }\IeC {\ensuregreek {\acctonos \textiota }}\IeC {\textchi }\IeC {\textnu }\IeC {\textepsilon }\IeC {\textupsilon }\IeC {\textsigma }\IeC {\texteta }\IeC {\textvarsigma } \IeC {\texttau }\IeC {\textomicron }\IeC {\textupsilon } \IeC {\textalpha }\IeC {\textnu }\IeC {\texttau }\IeC {\textiota }\IeC {\textkappa }\IeC {\textepsilon }\IeC {\textiota }\IeC {\textmu }\IeC {\ensuregreek {\acctonos \textepsilon }}\IeC {\textnu }\IeC {\textomicron }\IeC {\textupsilon }.\relax }}{76}}
\newlabel{im:object_occlusion}{{6.12}{76}}
\@writefile{lof}{\contentsline {figure}{\numberline {6.13}{\ignorespaces \IeC {\textTau }\IeC {\textalpha }\IeC {\textxi }\IeC {\textiota }\IeC {\textnu }\IeC {\ensuregreek {\acctonos \textomicron }}\IeC {\textmu }\IeC {\texteta }\IeC {\textsigma }\IeC {\texteta } \IeC {\textrho }\IeC {\textomicron }\IeC {\textmu }\IeC {\textpi }\IeC {\textomicron }\IeC {\texttau }\IeC {\textiota }\IeC {\textkappa }\IeC {\ensuregreek {\acctonos \texteta }}\IeC {\textvarsigma } \IeC {\textlambda }\IeC {\ensuregreek {\acctonos \texteta }}\IeC {\textpsi }\IeC {\texteta }\IeC {\textvarsigma } \IeC {\textsigma }\IeC {\textepsilon } \IeC {\textpi }\IeC {\textrho }\IeC {\textalpha }\IeC {\textgamma }\IeC {\textmu }\IeC {\textalpha }\IeC {\texttau }\IeC {\textiota }\IeC {\textkappa }\IeC {\ensuregreek {\acctonos \textomicron }} \IeC {\textchi }\IeC {\textrho }\IeC {\ensuregreek {\acctonos \textomicron }}\IeC {\textnu }\IeC {\textomicron } \IeC {\textkappa }\IeC {\textalpha }\IeC {\texttau }\IeC {\ensuregreek {\acctonos \textalpha }} \IeC {\texttau }\IeC {\texteta }\IeC {\textvarsigma } \IeC {\textepsilon }\IeC {\textkappa }\IeC {\texttau }\IeC {\ensuregreek {\acctonos \textepsilon }}\IeC {\textlambda }\IeC {\textepsilon }\IeC {\textsigma }\IeC {\texteta } \IeC {\texttau }\IeC {\textomicron }\IeC {\textupsilon } \IeC {\textpi }\IeC {\textepsilon }\IeC {\textiota }\IeC {\textrho }\IeC {\ensuregreek {\acctonos \textalpha }}\IeC {\textmu }\IeC {\textalpha }\IeC {\texttau }\IeC {\textomicron }\IeC {\textvarsigma }.\relax }}{77}}
\newlabel{im:good_average_bad}{{6.13}{77}}
\@writefile{toc}{\contentsline {subsection}{\numberline {6.5.4}\IeC {\textPi }\IeC {\textlambda }\IeC {\ensuregreek {\acctonos \texteta }}\IeC {\texttheta }\IeC {\textomicron }\IeC {\textvarsigma } \IeC {\textdelta }\IeC {\textepsilon }\IeC {\textiota }\IeC {\textgamma }\IeC {\textmu }\IeC {\ensuregreek {\acctonos \textalpha }}\IeC {\texttau }\IeC {\textomega }\IeC {\textnu } \IeC {\textepsilon }\IeC {\textkappa }\IeC {\textpi }\IeC {\textalpha }\IeC {\ensuregreek {\acctonos \textiota }}\IeC {\textdelta }\IeC {\textepsilon }\IeC {\textupsilon }\IeC {\textsigma }\IeC {\texteta }\IeC {\textvarsigma }}{77}}
\newlabel{tab:num_of_samples}{{\caption@xref {tab:num_of_samples}{ on input line 858}}{77}}
\select@language{greek}
\@writefile{toc}{\select@language{greek}}
\@writefile{lof}{\select@language{greek}}
\@writefile{lot}{\select@language{greek}}
\select@language{greek}
\@writefile{toc}{\select@language{greek}}
\@writefile{lof}{\select@language{greek}}
\@writefile{lot}{\select@language{greek}}
\newlabel{tab:num_of_samples}{{\caption@xref {tab:num_of_samples}{ on input line 874}}{78}}
\@writefile{lof}{\contentsline {figure}{\numberline {6.14}{\ignorespaces \IeC {\textEpsilon }\IeC {\textpi }\IeC {\ensuregreek {\acctonos \textiota }}\IeC {\textdelta }\IeC {\textomicron }\IeC {\textsigma }\IeC {\texteta } \IeC {\texttau }\IeC {\textalpha }\IeC {\textxi }\IeC {\textiota }\IeC {\textnu }\IeC {\textomicron }\IeC {\textmu }\IeC {\texteta }\IeC {\texttau }\IeC {\ensuregreek {\acctonos \texteta }} \IeC {\textgamma }\IeC {\textiota }\IeC {\textalpha } \IeC {\textmu }\IeC {\textepsilon }\IeC {\texttau }\IeC {\textalpha }\IeC {\textbeta }\IeC {\textlambda }\IeC {\texteta }\IeC {\texttau }\IeC {\ensuregreek {\acctonos \textomicron }} \IeC {\textpi }\IeC {\textlambda }\IeC {\ensuregreek {\acctonos \texteta }}\IeC {\texttheta }\IeC {\textomicron }\IeC {\textvarsigma } \IeC {\textdelta }\IeC {\textepsilon }\IeC {\textiota }\IeC {\textgamma }\IeC {\textmu }\IeC {\ensuregreek {\acctonos \textalpha }}\IeC {\texttau }\IeC {\textomega }\IeC {\textnu } \IeC {\textepsilon }\IeC {\textkappa }\IeC {\textpi }\IeC {\textalpha }\IeC {\ensuregreek {\acctonos \textiota }}\IeC {\textdelta }\IeC {\textepsilon }\IeC {\textupsilon }\IeC {\textsigma }\IeC {\texteta }\IeC {\textvarsigma }.\relax }}{78}}
\newlabel{im:samples_green}{{6.14}{78}}
\@writefile{lot}{\contentsline {table}{\numberline {6.1}{\ignorespaces \IeC {\textAlpha }\IeC {\textkappa }\IeC {\textrho }\IeC {\ensuregreek {\acctonos \textiota }}\IeC {\textbeta }\IeC {\textepsilon }\IeC {\textiota }\IeC {\textalpha } \IeC {\texttau }\IeC {\textalpha }\IeC {\textxi }\IeC {\textiota }\IeC {\textnu }\IeC {\textomicron }\IeC {\textmu }\IeC {\texteta }\IeC {\texttau }\IeC {\ensuregreek {\acctonos \texteta }} \IeC {\textgamma }\IeC {\textiota }\IeC {\textalpha } \IeC {\textdelta }\IeC {\textiota }\IeC {\textalpha }\IeC {\textphi }\IeC {\textomicron }\IeC {\textrho }\IeC {\textepsilon }\IeC {\texttau }\IeC {\textiota }\IeC {\textkappa }\IeC {\ensuregreek {\acctonos \textomicron }} \IeC {\textpi }\IeC {\textlambda }\IeC {\ensuregreek {\acctonos \texteta }}\IeC {\texttheta }\IeC {\textomicron }\IeC {\textvarsigma } \IeC {\textdelta }\IeC {\textepsilon }\IeC {\textiota }\IeC {\textgamma }\IeC {\textmu }\IeC {\ensuregreek {\acctonos \textalpha }}\IeC {\texttau }\IeC {\textomega }\IeC {\textnu }.\relax }}{79}}
\newlabel{tab:samples_accuracy}{{6.1}{79}}
\select@language{greek}
\@writefile{toc}{\select@language{greek}}
\@writefile{lof}{\select@language{greek}}
\@writefile{lot}{\select@language{greek}}
\select@language{greek}
\@writefile{toc}{\select@language{greek}}
\@writefile{lof}{\select@language{greek}}
\@writefile{lot}{\select@language{greek}}
\@writefile{lot}{\contentsline {table}{\numberline {6.2}{\ignorespaces \IeC {\textAlpha }\IeC {\textkappa }\IeC {\textrho }\IeC {\ensuregreek {\acctonos \textiota }}\IeC {\textbeta }\IeC {\textepsilon }\IeC {\textiota }\IeC {\textalpha } \IeC {\textsigma }\IeC {\textupsilon }\IeC {\textsigma }\IeC {\texttau }\IeC {\ensuregreek {\acctonos \texteta }}\IeC {\textmu }\IeC {\textalpha }\IeC {\texttau }\IeC {\textomicron }\IeC {\textvarsigma } \IeC {\texttau }\IeC {\textalpha }\IeC {\textxi }\IeC {\textiota }\IeC {\textnu }\IeC {\ensuregreek {\acctonos \textomicron }}\IeC {\textmu }\IeC {\texteta }\IeC {\textsigma }\IeC {\texteta }\IeC {\textvarsigma } \IeC {\textgamma }\IeC {\textiota }\IeC {\textalpha } \IeC {\textdelta }\IeC {\textiota }\IeC {\textalpha }\IeC {\textphi }\IeC {\textomicron }\IeC {\textrho }\IeC {\textepsilon }\IeC {\texttau }\IeC {\textiota }\IeC {\textkappa }\IeC {\ensuregreek {\acctonos \textalpha }} \IeC {\textalpha }\IeC {\textnu }\IeC {\texttau }\IeC {\textiota }\IeC {\textkappa }\IeC {\textepsilon }\IeC {\ensuregreek {\acctonos \textiota }}\IeC {\textmu }\IeC {\textepsilon }\IeC {\textnu }\IeC {\textalpha } \IeC {\textkappa }\IeC {\textalpha }\IeC {\textiota } \IeC {\textmu }\IeC {\textepsilon }\IeC {\textiota }\IeC {\textomega }\IeC {\textmu }\IeC {\ensuregreek {\acctonos \textepsilon }}\IeC {\textnu }\IeC {\textomicron } \IeC {\textpi }\IeC {\textlambda }\IeC {\ensuregreek {\acctonos \texteta }}\IeC {\texttheta }\IeC {\textomicron }\IeC {\textvarsigma } \IeC {\textdelta }\IeC {\textepsilon }\IeC {\textiota }\IeC {\textgamma }\IeC {\textmu }\IeC {\ensuregreek {\acctonos \textalpha }}\IeC {\texttau }\IeC {\textomega }\IeC {\textnu } \IeC {\textepsilon }\IeC {\textkappa }\IeC {\textpi }\IeC {\textalpha }\IeC {\ensuregreek {\acctonos \textiota }}\IeC {\textdelta }\IeC {\textepsilon }\IeC {\textupsilon }\IeC {\textsigma }\IeC {\texteta }\IeC {\textvarsigma }.\relax }}{80}}
\newlabel{tab:objects_accuracy}{{6.2}{80}}
\@writefile{lof}{\contentsline {figure}{\numberline {6.15}{\ignorespaces \IeC {\textMu }\IeC {\ensuregreek {\acctonos \texteta }}\IeC {\texttau }\IeC {\textrho }\IeC {\textepsilon }\IeC {\textvarsigma } \IeC {\textsigma }\IeC {\ensuregreek {\acctonos \textupsilon }}\IeC {\textgamma }\IeC {\textchi }\IeC {\textupsilon }\IeC {\textsigma }\IeC {\texteta }\IeC {\textvarsigma } \IeC {\textgamma }\IeC {\textiota }\IeC {\textalpha } \IeC {\textdelta }\IeC {\textiota }\IeC {\textalpha }\IeC {\textphi }\IeC {\textomicron }\IeC {\textrho }\IeC {\textepsilon }\IeC {\texttau }\IeC {\textiota }\IeC {\textkappa }\IeC {\ensuregreek {\acctonos \textomicron }} \IeC {\textpi }\IeC {\textlambda }\IeC {\ensuregreek {\acctonos \texteta }}\IeC {\texttheta }\IeC {\textomicron }\IeC {\textvarsigma } \IeC {\textdelta }\IeC {\textepsilon }\IeC {\textiota }\IeC {\textgamma }\IeC {\textmu }\IeC {\ensuregreek {\acctonos \textalpha }}\IeC {\texttau }\IeC {\textomega }\IeC {\textnu } \IeC {\textepsilon }\IeC {\textkappa }\IeC {\textpi }\IeC {\textalpha }\IeC {\ensuregreek {\acctonos \textiota }}\IeC {\textdelta }\IeC {\textepsilon }\IeC {\textupsilon }\IeC {\textsigma }\IeC {\texteta }\IeC {\textvarsigma } \IeC {\textepsilon }\IeC {\textnu }\IeC {\ensuregreek {\acctonos \textomicron }}\IeC {\textvarsigma } \IeC {\textalpha }\IeC {\textnu }\IeC {\texttau }\IeC {\textiota }\IeC {\textkappa }\IeC {\textepsilon }\IeC {\textiota }\IeC {\textmu }\IeC {\ensuregreek {\acctonos \textepsilon }}\IeC {\textnu }\IeC {\textomicron }\IeC {\textupsilon }.\relax }}{80}}
\newlabel{im:conf_all}{{6.15}{80}}
\@writefile{lof}{\contentsline {figure}{\numberline {6.16}{\ignorespaces \IeC {\textEpsilon }\IeC {\textpi }\IeC {\ensuregreek {\acctonos \textiota }}\IeC {\textdelta }\IeC {\textomicron }\IeC {\textsigma }\IeC {\texteta } \IeC {\texttau }\IeC {\textalpha }\IeC {\textxi }\IeC {\textiota }\IeC {\textnu }\IeC {\textomicron }\IeC {\textmu }\IeC {\texteta }\IeC {\texttau }\IeC {\ensuregreek {\acctonos \texteta }} \IeC {\textgamma }\IeC {\textiota }\IeC {\textalpha } \IeC {\textdelta }\IeC {\textiota }\IeC {\textalpha }\IeC {\textphi }\IeC {\textomicron }\IeC {\textrho }\IeC {\textepsilon }\IeC {\texttau }\IeC {\textiota }\IeC {\textkappa }\IeC {\ensuregreek {\acctonos \textalpha }} \IeC {\textalpha }\IeC {\textnu }\IeC {\texttau }\IeC {\textiota }\IeC {\textkappa }\IeC {\textepsilon }\IeC {\ensuregreek {\acctonos \textiota }}\IeC {\textmu }\IeC {\textepsilon }\IeC {\textnu }\IeC {\textalpha } \IeC {\textkappa }\IeC {\textalpha }\IeC {\textiota } \IeC {\textmu }\IeC {\textepsilon }\IeC {\texttau }\IeC {\textalpha }\IeC {\textbeta }\IeC {\textlambda }\IeC {\texteta }\IeC {\texttau }\IeC {\ensuregreek {\acctonos \textomicron }} \IeC {\textpi }\IeC {\textlambda }\IeC {\ensuregreek {\acctonos \texteta }}\IeC {\texttheta }\IeC {\textomicron }\IeC {\textvarsigma } \IeC {\textdelta }\IeC {\textepsilon }\IeC {\textiota }\IeC {\textgamma }\IeC {\textmu }\IeC {\ensuregreek {\acctonos \textalpha }}\IeC {\texttau }\IeC {\textomega }\IeC {\textnu } \IeC {\textepsilon }\IeC {\textkappa }\IeC {\textpi }\IeC {\textalpha }\IeC {\ensuregreek {\acctonos \textiota }}\IeC {\textdelta }\IeC {\textepsilon }\IeC {\textupsilon }\IeC {\textsigma }\IeC {\texteta }\IeC {\textvarsigma }.\relax }}{81}}
\newlabel{im:samples_all_objects}{{6.16}{81}}
\select@language{greek}
\@writefile{toc}{\select@language{greek}}
\@writefile{lof}{\select@language{greek}}
\@writefile{lot}{\select@language{greek}}
\select@language{greek}
\@writefile{toc}{\select@language{greek}}
\@writefile{lof}{\select@language{greek}}
\@writefile{lot}{\select@language{greek}}
\@writefile{toc}{\contentsline {subsection}{\numberline {6.5.5}\IeC {\textAlpha }\IeC {\textxi }\IeC {\textiota }\IeC {\textomicron }\IeC {\textlambda }\IeC {\ensuregreek {\acctonos \textomicron }}\IeC {\textgamma }\IeC {\texteta }\IeC {\textsigma }\IeC {\texteta } \IeC {\textdelta }\IeC {\textiota }\IeC {\textalpha }\IeC {\textdelta }\IeC {\textrho }\IeC {\textalpha }\IeC {\textsigma }\IeC {\texttau }\IeC {\textiota }\IeC {\textkappa }\IeC {\ensuregreek {\acctonos \texteta }}\IeC {\textvarsigma } \IeC {\textrho }\IeC {\textomicron }\IeC {\textmu }\IeC {\textpi }\IeC {\textomicron }\IeC {\texttau }\IeC {\textiota }\IeC {\textkappa }\IeC {\ensuregreek {\acctonos \texteta }}\IeC {\textvarsigma } \IeC {\textlambda }\IeC {\ensuregreek {\acctonos \texteta }}\IeC {\textpsi }\IeC {\texteta }\IeC {\textvarsigma }}{82}}
\@writefile{lof}{\contentsline {figure}{\numberline {6.17}{\ignorespaces \IeC {\textTau }\IeC {\textomicron } \IeC {\textrho }\IeC {\textomicron }\IeC {\textmu }\IeC {\textpi }\IeC {\ensuregreek {\acctonos \textomicron }}\IeC {\texttau } \IeC {\textNu }\IeC {\textAlpha }\IeC {\textOmicron } \IeC {\textsigma }\IeC {\textepsilon } \IeC {\textdelta }\IeC {\textiota }\IeC {\ensuregreek {\acctonos \textalpha }}\IeC {\textphi }\IeC {\textomicron }\IeC {\textrho }\IeC {\textepsilon }\IeC {\textvarsigma } \IeC {\textdelta }\IeC {\textiota }\IeC {\textalpha }\IeC {\texttau }\IeC {\ensuregreek {\acctonos \textalpha }}\IeC {\textxi }\IeC {\textepsilon }\IeC {\textiota }\IeC {\textvarsigma }. \IeC {\textOmicron }\IeC {\textiota } \IeC {\textalpha }\IeC {\textnu }\IeC {\textalpha }\IeC {\textgamma }\IeC {\textrho }\IeC {\textalpha }\IeC {\textphi }\IeC {\ensuregreek {\acctonos \textomicron }}\IeC {\textmu }\IeC {\textepsilon }\IeC {\textnu }\IeC {\textepsilon }\IeC {\textvarsigma } \IeC {\textgamma }\IeC {\textomega }\IeC {\textnu }\IeC {\ensuregreek {\acctonos \textiota }}\IeC {\textepsilon }\IeC {\textvarsigma } \IeC {\textalpha }\IeC {\textnu }\IeC {\texttau }\IeC {\textiota }\IeC {\textsigma }\IeC {\texttau }\IeC {\textomicron }\IeC {\textiota }\IeC {\textchi }\IeC {\textomicron }\IeC {\ensuregreek {\acctonos \textupsilon }}\IeC {\textnu } \IeC {\textsigma }\IeC {\texttau }\IeC {\texteta }\IeC {\textnu } \IeC {\textpi }\IeC {\textepsilon }\IeC {\textrho }\IeC {\textiota }\IeC {\textsigma }\IeC {\texttau }\IeC {\textrho }\IeC {\textomicron }\IeC {\textphi }\IeC {\ensuregreek {\acctonos \texteta }} \IeC {\texttau }\IeC {\texteta }\IeC {\textvarsigma } \IeC {\textkappa }\IeC {\textepsilon }\IeC {\textphi }\IeC {\textalpha }\IeC {\textlambda }\IeC {\ensuregreek {\acctonos \texteta }}\IeC {\textvarsigma }.\relax }}{82}}
\newlabel{im:yp}{{6.17}{82}}
\@writefile{lot}{\contentsline {table}{\numberline {6.3}{\ignorespaces \IeC {\textAlpha }\IeC {\textkappa }\IeC {\textrho }\IeC {\ensuregreek {\acctonos \textiota }}\IeC {\textbeta }\IeC {\textepsilon }\IeC {\textiota }\IeC {\textalpha } \IeC {\textsigma }\IeC {\textupsilon }\IeC {\textsigma }\IeC {\texttau }\IeC {\ensuregreek {\acctonos \texteta }}\IeC {\textmu }\IeC {\textalpha }\IeC {\texttau }\IeC {\textomicron }\IeC {\textvarsigma } \IeC {\texttau }\IeC {\textalpha }\IeC {\textxi }\IeC {\textiota }\IeC {\textnu }\IeC {\ensuregreek {\acctonos \textomicron }}\IeC {\textmu }\IeC {\texteta }\IeC {\textsigma }\IeC {\texteta }\IeC {\textvarsigma } \IeC {\textgamma }\IeC {\textiota }\IeC {\textalpha } \IeC {\textdelta }\IeC {\textiota }\IeC {\textalpha }\IeC {\textphi }\IeC {\textomicron }\IeC {\textrho }\IeC {\textepsilon }\IeC {\texttau }\IeC {\textiota }\IeC {\textkappa }\IeC {\ensuregreek {\acctonos \textepsilon }}\IeC {\textvarsigma } \IeC {\textpi }\IeC {\ensuregreek {\acctonos \textomicron }}\IeC {\textzeta }\IeC {\textepsilon }\IeC {\textvarsigma } \IeC {\texttau }\IeC {\texteta }\IeC {\textvarsigma } \IeC {\textrho }\IeC {\textomicron }\IeC {\textmu }\IeC {\textpi }\IeC {\textomicron }\IeC {\texttau }\IeC {\textiota }\IeC {\textkappa }\IeC {\ensuregreek {\acctonos \texteta }}\IeC {\textvarsigma } \IeC {\textkappa }\IeC {\textepsilon }\IeC {\textphi }\IeC {\textalpha }\IeC {\textlambda }\IeC {\ensuregreek {\acctonos \texteta }}\IeC {\textvarsigma }.\relax }}{82}}
\newlabel{tab:yp_accuracy}{{6.3}{82}}
\@writefile{lof}{\contentsline {figure}{\numberline {6.18}{\ignorespaces \IeC {\textMu }\IeC {\ensuregreek {\acctonos \texteta }}\IeC {\texttau }\IeC {\textrho }\IeC {\textepsilon }\IeC {\textvarsigma } \IeC {\textsigma }\IeC {\ensuregreek {\acctonos \textupsilon }}\IeC {\textgamma }\IeC {\textchi }\IeC {\textupsilon }\IeC {\textsigma }\IeC {\texteta }\IeC {\textvarsigma } \IeC {\textgamma }\IeC {\textiota }\IeC {\textalpha } \IeC {\textdelta }\IeC {\textiota }\IeC {\textalpha }\IeC {\textphi }\IeC {\textomicron }\IeC {\textrho }\IeC {\textepsilon }\IeC {\texttau }\IeC {\textiota }\IeC {\textkappa }\IeC {\ensuregreek {\acctonos \textepsilon }}\IeC {\textvarsigma } \IeC {\textgamma }\IeC {\textomega }\IeC {\textnu }\IeC {\ensuregreek {\acctonos \textiota }}\IeC {\textepsilon }\IeC {\textvarsigma } \IeC {\textpi }\IeC {\textepsilon }\IeC {\textrho }\IeC {\textiota }\IeC {\textsigma }\IeC {\texttau }\IeC {\textrho }\IeC {\textomicron }\IeC {\textphi }\IeC {\ensuregreek {\acctonos \texteta }}\IeC {\textvarsigma } \IeC {\texttau }\IeC {\texteta }\IeC {\textvarsigma } \IeC {\textkappa }\IeC {\textepsilon }\IeC {\textphi }\IeC {\textalpha }\IeC {\textlambda }\IeC {\ensuregreek {\acctonos \texteta }}\IeC {\textvarsigma } \IeC {\texttau }\IeC {\textomicron }\IeC {\textupsilon } \IeC {\textNu }\IeC {\textAlpha }\IeC {\textOmicron }.\relax }}{83}}
\newlabel{im:conf_yp}{{6.18}{83}}
\@setckpt{chapter_handover_experiment}{
\setcounter{page}{84}
\setcounter{equation}{25}
\setcounter{enumi}{5}
\setcounter{enumii}{0}
\setcounter{enumiii}{0}
\setcounter{enumiv}{0}
\setcounter{footnote}{0}
\setcounter{mpfootnote}{0}
\setcounter{parentequation}{0}
\setcounter{part}{0}
\setcounter{chapter}{6}
\setcounter{section}{5}
\setcounter{subsection}{5}
\setcounter{subsubsection}{0}
\setcounter{paragraph}{0}
\setcounter{subparagraph}{0}
\setcounter{figure}{18}
\setcounter{table}{3}
\setcounter{ContinuedFloat}{0}
\setcounter{subfigure}{4}
\setcounter{subtable}{0}
\setcounter{float@type}{8}
\setcounter{algorithm}{2}
\setcounter{ALC@unique}{40}
\setcounter{ALC@line}{31}
\setcounter{ALC@rem}{0}
\setcounter{ALC@depth}{0}
\setcounter{definition}{0}
\setcounter{proposition}{0}
\setcounter{theorem}{0}
\setcounter{corollary}{0}
\setcounter{lemma}{0}
\setcounter{example}{0}
\setcounter{remark}{0}
\setcounter{notation}{0}
\setcounter{law}{0}
}
