\relax 
\citation{[anzalone]}
\@writefile{toc}{\contentsline {chapter}{\numberline {2}\IeC {\textEpsilon }\IeC {\textnu }\IeC {\textiota }\IeC {\textsigma }\IeC {\textchi }\IeC {\textupsilon }\IeC {\texttau }\IeC {\textiota }\IeC {\textkappa }\IeC {\ensuregreek {\acctonos \texteta }} \IeC {\textmu }\IeC {\ensuregreek {\acctonos \textalpha }}\IeC {\texttheta }\IeC {\texteta }\IeC {\textsigma }\IeC {\texteta }}{19}}
\@writefile{lof}{\addvspace {10\p@ }}
\@writefile{lot}{\addvspace {10\p@ }}
\newlabel{chapter_rl_theoretical}{{2}{19}}
\@writefile{toc}{\contentsline {section}{\numberline {2.1}\IeC {\textEpsilon }\IeC {\textiota }\IeC {\textsigma }\IeC {\textalpha }\IeC {\textgamma }\IeC {\textomega }\IeC {\textgamma }\IeC {\ensuregreek {\acctonos \texteta }}}{19}}
\citation{[sutton]}
\citation{[sutton]}
\select@language{greek}
\@writefile{toc}{\select@language{greek}}
\@writefile{lof}{\select@language{greek}}
\@writefile{lot}{\select@language{greek}}
\select@language{greek}
\@writefile{toc}{\select@language{greek}}
\@writefile{lof}{\select@language{greek}}
\@writefile{lot}{\select@language{greek}}
\@writefile{toc}{\contentsline {section}{\numberline {2.2}\IeC {\textAlpha }\IeC {\textlambda }\IeC {\textlambda }\IeC {\texteta }\IeC {\textlambda }\IeC {\textepsilon }\IeC {\textpi }\IeC {\ensuregreek {\acctonos \textiota }}\IeC {\textdelta }\IeC {\textrho }\IeC {\textalpha }\IeC {\textsigma }\IeC {\texteta } \IeC {\textpi }\IeC {\textrho }\IeC {\ensuregreek {\acctonos \textalpha }}\IeC {\textkappa }\IeC {\texttau }\IeC {\textomicron }\IeC {\textrho }\IeC {\textalpha }-\IeC {\textpi }\IeC {\textepsilon }\IeC {\textrho }\IeC {\textiota }\IeC {\textbeta }\IeC {\ensuregreek {\acctonos \textalpha }}\IeC {\textlambda }\IeC {\textlambda }\IeC {\textomicron }\IeC {\textnu }\IeC {\texttau }\IeC {\textomicron }\IeC {\textvarsigma }}{20}}
\@writefile{lof}{\contentsline {figure}{\numberline {2.1}{\ignorespaces \IeC {\textAlpha }\IeC {\textlambda }\IeC {\textlambda }\IeC {\texteta }\IeC {\textlambda }\IeC {\textepsilon }\IeC {\textpi }\IeC {\ensuregreek {\acctonos \textiota }}\IeC {\textdelta }\IeC {\textrho }\IeC {\textalpha }\IeC {\textsigma }\IeC {\texteta } \IeC {\textpi }\IeC {\textrho }\IeC {\ensuregreek {\acctonos \textalpha }}\IeC {\textkappa }\IeC {\texttau }\IeC {\textomicron }\IeC {\textrho }\IeC {\textalpha }-\IeC {\textpi }\IeC {\textepsilon }\IeC {\textrho }\IeC {\textiota }\IeC {\textbeta }\IeC {\ensuregreek {\acctonos \textalpha }}\IeC {\textlambda }\IeC {\textlambda }\IeC {\textomicron }\IeC {\textnu }\IeC {\texttau }\IeC {\textomicron }\IeC {\textvarsigma } \IeC {\textsigma }\IeC {\texttau }\IeC {\texteta }\IeC {\textnu } \IeC {\textEpsilon }\IeC {\textnu }\IeC {\textiota }\IeC {\textsigma }\IeC {\textchi }\IeC {\textupsilon }\IeC {\texttau }\IeC {\textiota }\IeC {\textkappa }\IeC {\ensuregreek {\acctonos \texteta }} \IeC {\textMu }\IeC {\ensuregreek {\acctonos \textalpha }}\IeC {\texttheta }\IeC {\texteta }\IeC {\textsigma }\IeC {\texteta } (\IeC {\textalpha }\IeC {\textpi }\IeC {\ensuregreek {\acctonos \textomicron }} \cite  {[sutton]}).\relax }}{20}}
\providecommand*\caption@xref[2]{\@setref\relax\@undefined{#1}}
\newlabel{im:rl}{{2.1}{20}}
\@writefile{toc}{\contentsline {section}{\numberline {2.3}\IeC {\textSigma }\IeC {\textupsilon }\IeC {\textnu }\IeC {\ensuregreek {\acctonos \textalpha }}\IeC {\textrho }\IeC {\texttau }\IeC {\texteta }\IeC {\textsigma }\IeC {\texteta } \IeC {\textalpha }\IeC {\textnu }\IeC {\texttau }\IeC {\textalpha }\IeC {\textmu }\IeC {\textomicron }\IeC {\textiota }\IeC {\textbeta }\IeC {\ensuregreek {\acctonos \texteta }}\IeC {\textvarsigma }}{20}}
\@writefile{toc}{\contentsline {section}{\numberline {2.4}\IeC {\textMu }\IeC {\textalpha }\IeC {\textrho }\IeC {\textkappa }\IeC {\textomicron }\IeC {\textbeta }\IeC {\textiota }\IeC {\textalpha }\IeC {\textnu }\IeC {\ensuregreek {\acctonos \texteta }} \IeC {\textiota }\IeC {\textdelta }\IeC {\textiota }\IeC {\ensuregreek {\acctonos \textomicron }}\IeC {\texttau }\IeC {\texteta }\IeC {\texttau }\IeC {\textalpha }}{21}}
\select@language{greek}
\@writefile{toc}{\select@language{greek}}
\@writefile{lof}{\select@language{greek}}
\@writefile{lot}{\select@language{greek}}
\select@language{greek}
\@writefile{toc}{\select@language{greek}}
\@writefile{lof}{\select@language{greek}}
\@writefile{lot}{\select@language{greek}}
\@writefile{toc}{\contentsline {section}{\numberline {2.5}\IeC {\textSigma }\IeC {\textupsilon }\IeC {\textnu }\IeC {\ensuregreek {\acctonos \textalpha }}\IeC {\textrho }\IeC {\texttau }\IeC {\texteta }\IeC {\textsigma }\IeC {\texteta } \IeC {\textalpha }\IeC {\textxi }\IeC {\ensuregreek {\acctonos \textiota }}\IeC {\textalpha }\IeC {\textvarsigma }}{22}}
\newlabel{eq:bellman}{{2.4}{22}}
\@writefile{toc}{\contentsline {section}{\numberline {2.6}\IeC {\textBeta }\IeC {\ensuregreek {\acctonos \textepsilon }}\IeC {\textlambda }\IeC {\texttau }\IeC {\textiota }\IeC {\textsigma }\IeC {\texttau }\IeC {\texteta } \IeC {\textsigma }\IeC {\textupsilon }\IeC {\textnu }\IeC {\ensuregreek {\acctonos \textalpha }}\IeC {\textrho }\IeC {\texttau }\IeC {\texteta }\IeC {\textsigma }\IeC {\texteta } \IeC {\textalpha }\IeC {\textxi }\IeC {\ensuregreek {\acctonos \textiota }}\IeC {\textalpha }\IeC {\textvarsigma }}{22}}
\@writefile{toc}{\contentsline {section}{\numberline {2.7}\IeC {\textDelta }\IeC {\textupsilon }\IeC {\textnu }\IeC {\textalpha }\IeC {\textmu }\IeC {\textiota }\IeC {\textkappa }\IeC {\ensuregreek {\acctonos \textomicron }}\IeC {\textvarsigma } \IeC {\textPi }\IeC {\textrho }\IeC {\textomicron }\IeC {\textgamma }\IeC {\textrho }\IeC {\textalpha }\IeC {\textmu }\IeC {\textmu }\IeC {\textalpha }\IeC {\texttau }\IeC {\textiota }\IeC {\textsigma }\IeC {\textmu }\IeC {\ensuregreek {\acctonos \textomicron }}\IeC {\textvarsigma }}{23}}
\@writefile{lof}{\contentsline {figure}{\numberline {2.2}{\ignorespaces \IeC {\textMu }\IeC {\ensuregreek {\acctonos \textepsilon }}\IeC {\texttheta }\IeC {\textomicron }\IeC {\textdelta }\IeC {\textomicron }\IeC {\textiota } \textlatin  {policy iteration} \IeC {\textkappa }\IeC {\textalpha }\IeC {\textiota } \textlatin  {value iteration}.\relax }}{23}}
\newlabel{im:policy_value_iteration}{{2.2}{23}}
\select@language{greek}
\@writefile{toc}{\select@language{greek}}
\@writefile{lof}{\select@language{greek}}
\@writefile{lot}{\select@language{greek}}
\select@language{greek}
\@writefile{toc}{\select@language{greek}}
\@writefile{lof}{\select@language{greek}}
\@writefile{lot}{\select@language{greek}}
\@writefile{toc}{\contentsline {section}{\numberline {2.8}\IeC {\textMu }\IeC {\ensuregreek {\acctonos \textepsilon }}\IeC {\texttheta }\IeC {\textomicron }\IeC {\textdelta }\IeC {\textomicron }\IeC {\textiota } \textlatin  {Monte-Carlo}}{24}}
\@writefile{toc}{\contentsline {subsubsection}{\IeC {\textTau }\IeC {\textomicron } \IeC {\textpi }\IeC {\textrho }\IeC {\ensuregreek {\acctonos \textomicron }}\IeC {\textbeta }\IeC {\textlambda }\IeC {\texteta }\IeC {\textmu }\IeC {\textalpha } \textlatin  {n-armed bandit}}{24}}
\@writefile{lof}{\contentsline {figure}{\numberline {2.3}{\ignorespaces \IeC {\textMu }\IeC {\ensuregreek {\acctonos \textepsilon }}\IeC {\textsigma }\IeC {\texteta } \IeC {\textepsilon }\IeC {\textpi }\IeC {\ensuregreek {\acctonos \textiota }}\IeC {\textdelta }\IeC {\textomicron }\IeC {\textsigma }\IeC {\texteta } \IeC {\texttau }\IeC {\texteta }\IeC {\textvarsigma } \IeC {\textmu }\IeC {\textepsilon }\IeC {\texttheta }\IeC {\ensuregreek {\acctonos \textomicron }}\IeC {\textdelta }\IeC {\textomicron }\IeC {\textupsilon } $\epsilon $\textlatin  {-greedy} \IeC {\textgamma }\IeC {\textiota }\IeC {\textalpha } \IeC {\textdelta }\IeC {\textiota }\IeC {\textalpha }\IeC {\textphi }\IeC {\textomicron }\IeC {\textrho }\IeC {\textepsilon }\IeC {\texttau }\IeC {\textiota }\IeC {\textkappa }\IeC {\ensuregreek {\acctonos \textepsilon }}\IeC {\textvarsigma } \IeC {\texttau }\IeC {\textiota }\IeC {\textmu }\IeC {\ensuregreek {\acctonos \textepsilon }}\IeC {\textvarsigma } \IeC {\texttau }\IeC {\textomicron }\IeC {\textupsilon } $\epsilon $.\relax }}{25}}
\newlabel{im:compare_bandits}{{2.3}{25}}
\select@language{greek}
\@writefile{toc}{\select@language{greek}}
\@writefile{lof}{\select@language{greek}}
\@writefile{lot}{\select@language{greek}}
\select@language{greek}
\@writefile{toc}{\select@language{greek}}
\@writefile{lof}{\select@language{greek}}
\@writefile{lot}{\select@language{greek}}
\@writefile{lof}{\contentsline {figure}{\numberline {2.4}{\ignorespaces \IeC {\textMu }\IeC {\ensuregreek {\acctonos \textepsilon }}\IeC {\textsigma }\IeC {\texteta } \IeC {\textepsilon }\IeC {\textpi }\IeC {\ensuregreek {\acctonos \textiota }}\IeC {\textdelta }\IeC {\textomicron }\IeC {\textsigma }\IeC {\texteta } \IeC {\texttau }\IeC {\texteta }\IeC {\textvarsigma } \IeC {\textmu }\IeC {\textepsilon }\IeC {\texttheta }\IeC {\ensuregreek {\acctonos \textomicron }}\IeC {\textdelta }\IeC {\textomicron }\IeC {\textupsilon } \textlatin  {softmax} \IeC {\textgamma }\IeC {\textiota }\IeC {\textalpha } \IeC {\textdelta }\IeC {\textiota }\IeC {\textalpha }\IeC {\textphi }\IeC {\textomicron }\IeC {\textrho }\IeC {\textepsilon }\IeC {\texttau }\IeC {\textiota }\IeC {\textkappa }\IeC {\ensuregreek {\acctonos \textepsilon }}\IeC {\textvarsigma } \IeC {\texttau }\IeC {\textiota }\IeC {\textmu }\IeC {\ensuregreek {\acctonos \textepsilon }}\IeC {\textvarsigma } \IeC {\texttau }\IeC {\texteta }\IeC {\textvarsigma } \IeC {\texttheta }\IeC {\textepsilon }\IeC {\textrho }\IeC {\textmu }\IeC {\textomicron }\IeC {\textkappa }\IeC {\textrho }\IeC {\textalpha }\IeC {\textsigma }\IeC {\ensuregreek {\acctonos \textiota }}\IeC {\textalpha }\IeC {\textvarsigma } $\tau $.\relax }}{26}}
\newlabel{im:compare_bandits_softmax}{{2.4}{26}}
\@writefile{toc}{\contentsline {section}{\numberline {2.9}\IeC {\textMu }\IeC {\ensuregreek {\acctonos \textalpha }}\IeC {\texttheta }\IeC {\texteta }\IeC {\textsigma }\IeC {\texteta } \IeC {\textchi }\IeC {\textrho }\IeC {\textomicron }\IeC {\textnu }\IeC {\textiota }\IeC {\textkappa }\IeC {\ensuregreek {\acctonos \textomega }}\IeC {\textnu } \IeC {\textdelta }\IeC {\textiota }\IeC {\textalpha }\IeC {\textphi }\IeC {\textomicron }\IeC {\textrho }\IeC {\ensuregreek {\acctonos \textomega }}\IeC {\textnu }}{26}}
\newlabel{eq:td_update}{{2.9}{26}}
\@writefile{toc}{\contentsline {subsubsection}{\textlatin  {Q-Learning}}{26}}
\@writefile{toc}{\contentsline {section}{\numberline {2.10}\IeC {\textMu }\IeC {\ensuregreek {\acctonos \textepsilon }}\IeC {\texttheta }\IeC {\textomicron }\IeC {\textdelta }\IeC {\textomicron }\IeC {\textvarsigma } \IeC {\textdelta }\IeC {\textrho }\IeC {\ensuregreek {\acctonos \textalpha }}\IeC {\textsigma }\IeC {\texttau }\IeC {\texteta }-\IeC {\textkappa }\IeC {\textrho }\IeC {\textiota }\IeC {\texttau }\IeC {\ensuregreek {\acctonos \texteta }}}{27}}
\@writefile{toc}{\contentsline {section}{\numberline {2.11}\IeC {\textPi }\IeC {\textalpha }\IeC {\textrho }\IeC {\textalpha }\IeC {\textmu }\IeC {\textepsilon }\IeC {\texttau }\IeC {\textrho }\IeC {\textomicron }\IeC {\textpi }\IeC {\textomicron }\IeC {\textiota }\IeC {\texteta }\IeC {\textmu }\IeC {\ensuregreek {\acctonos \textepsilon }}\IeC {\textnu }\IeC {\textepsilon }\IeC {\textvarsigma } \IeC {\textDelta }\IeC {\textiota }\IeC {\textalpha }\IeC {\textkappa }\IeC {\textrho }\IeC {\textiota }\IeC {\texttau }\IeC {\ensuregreek {\acctonos \textepsilon }}\IeC {\textvarsigma } \IeC {\textDelta }\IeC {\textrho }\IeC {\ensuregreek {\acctonos \textalpha }}\IeC {\textsigma }\IeC {\textepsilon }\IeC {\textiota }\IeC {\textvarsigma }}{27}}
\@writefile{toc}{\contentsline {subsection}{\numberline {2.11.1}\IeC {\textTau }\IeC {\textepsilon }\IeC {\textchi }\IeC {\textnu }\IeC {\texteta }\IeC {\texttau }\IeC {\ensuregreek {\acctonos \textalpha }} \IeC {\textNu }\IeC {\textepsilon }\IeC {\textupsilon }\IeC {\textrho }\IeC {\textomega }\IeC {\textnu }\IeC {\textiota }\IeC {\textkappa }\IeC {\ensuregreek {\acctonos \textalpha }} \IeC {\textDelta }\IeC {\ensuregreek {\acctonos \textiota }}\IeC {\textkappa }\IeC {\texttau }\IeC {\textupsilon }\IeC {\textalpha }}{27}}
\select@language{greek}
\@writefile{toc}{\select@language{greek}}
\@writefile{lof}{\select@language{greek}}
\@writefile{lot}{\select@language{greek}}
\select@language{greek}
\@writefile{toc}{\select@language{greek}}
\@writefile{lof}{\select@language{greek}}
\@writefile{lot}{\select@language{greek}}
\@writefile{lof}{\contentsline {figure}{\numberline {2.5}{\ignorespaces \IeC {\textMu }\IeC {\textomicron }\IeC {\textrho }\IeC {\textphi }\IeC {\ensuregreek {\acctonos \texteta }} \IeC {\textNu }\IeC {\textepsilon }\IeC {\textupsilon }\IeC {\textrho }\IeC {\textomega }\IeC {\textnu }\IeC {\textiota }\IeC {\textkappa }\IeC {\textomicron }\IeC {\ensuregreek {\acctonos \textupsilon }} \IeC {\textDelta }\IeC {\textiota }\IeC {\textkappa }\IeC {\texttau }\IeC {\ensuregreek {\acctonos \textupsilon }}\IeC {\textomicron }\IeC {\textupsilon }. \IeC {\textKappa }\IeC {\ensuregreek {\acctonos \textalpha }}\IeC {\texttheta }\IeC {\textepsilon } \IeC {\textkappa }\IeC {\ensuregreek {\acctonos \textupsilon }}\IeC {\textkappa }\IeC {\textlambda }\IeC {\textomicron }\IeC {\textvarsigma } \IeC {\textsigma }\IeC {\textupsilon }\IeC {\textmu }\IeC {\textbeta }\IeC {\textomicron }\IeC {\textlambda }\IeC {\ensuregreek {\acctonos \textiota }}\IeC {\textzeta }\IeC {\textepsilon }\IeC {\textiota } \IeC {\ensuregreek {\acctonos \textepsilon }}\IeC {\textnu }\IeC {\textalpha }\IeC {\textnu } \IeC {\textnu }\IeC {\textepsilon }\IeC {\textupsilon }\IeC {\textrho }\IeC {\ensuregreek {\acctonos \textomega }}\IeC {\textnu }\IeC {\textalpha } \IeC {\textkappa }\IeC {\textalpha }\IeC {\textiota } \IeC {\textkappa }\IeC {\ensuregreek {\acctonos \textalpha }}\IeC {\texttheta }\IeC {\textepsilon } \IeC {\textbeta }\IeC {\ensuregreek {\acctonos \textepsilon }}\IeC {\textlambda }\IeC {\textomicron }\IeC {\textvarsigma } \IeC {\texttau }\IeC {\texteta } \IeC {\textsigma }\IeC {\ensuregreek {\acctonos \textupsilon }}\IeC {\textnu }\IeC {\textdelta }\IeC {\textepsilon }\IeC {\textsigma }\IeC {\texteta } \IeC {\textmu }\IeC {\textepsilon }\IeC {\texttau }\IeC {\textalpha }\IeC {\textxi }\IeC {\ensuregreek {\acctonos \textupsilon }} \IeC {\texttau }\IeC {\textomicron }\IeC {\textupsilon }\IeC {\textvarsigma }.\relax }}{28}}
\newlabel{im:neural_network}{{2.5}{28}}
\@writefile{toc}{\contentsline {subsection}{\numberline {2.11.2}\IeC {\textAlpha }\IeC {\textnu }\IeC {\textalpha }\IeC {\textpi }\IeC {\textalpha }\IeC {\textrho }\IeC {\ensuregreek {\acctonos \textalpha }}\IeC {\textsigma }\IeC {\texttau }\IeC {\textalpha }\IeC {\textsigma }\IeC {\texteta } \IeC {\textsigma }\IeC {\textupsilon }\IeC {\textnu }\IeC {\textepsilon }\IeC {\textchi }\IeC {\textomicron }\IeC {\ensuregreek {\acctonos \textupsilon }}\IeC {\textvarsigma } \IeC {\textchi }\IeC {\ensuregreek {\acctonos \textomega }}\IeC {\textrho }\IeC {\textomicron }\IeC {\textupsilon } \IeC {\textdelta }\IeC {\textrho }\IeC {\ensuregreek {\acctonos \textalpha }}\IeC {\textsigma }\IeC {\textepsilon }\IeC {\textomega }\IeC {\textnu }}{28}}
\citation{[masson]}
\citation{[Hausknecht]}
\citation{[khamassi_irs]}
\@writefile{toc}{\contentsline {section}{\numberline {2.12}\IeC {\textEpsilon }\IeC {\textnu }\IeC {\textepsilon }\IeC {\textrho }\IeC {\textgamma }\IeC {\ensuregreek {\acctonos \texteta }} \IeC {\textalpha }\IeC {\textnu }\IeC {\textalpha }\IeC {\textzeta }\IeC {\ensuregreek {\acctonos \texteta }}\IeC {\texttau }\IeC {\texteta }\IeC {\textsigma }\IeC {\texteta }}{29}}
\newlabel{eq:delta}{{2.12}{29}}
\newlabel{eq:QL}{{2.13}{29}}
\citation{[hasselt]}
\citation{[hasselt]}
\citation{[schweighofer]}
\select@language{greek}
\@writefile{toc}{\select@language{greek}}
\@writefile{lof}{\select@language{greek}}
\@writefile{lot}{\select@language{greek}}
\select@language{greek}
\@writefile{toc}{\select@language{greek}}
\@writefile{lof}{\select@language{greek}}
\@writefile{lot}{\select@language{greek}}
\newlabel{eq:softmax}{{2.14}{30}}
\newlabel{eq:gauss}{{2.15}{30}}
\newlabel{eq:critic}{{2.16}{30}}
\newlabel{eq:actor}{{2.17}{30}}
\newlabel{eq:schweighofer}{{2.18}{30}}
\newlabel{eq:meta}{{2.19}{31}}
\@writefile{toc}{\contentsline {section}{\numberline {2.13}\IeC {\textSigma }\IeC {\ensuregreek {\acctonos \textupsilon }}\IeC {\textnu }\IeC {\textomicron }\IeC {\textpsi }\IeC {\texteta } \IeC {\textkappa }\IeC {\textepsilon }\IeC {\textphi }\IeC {\textalpha }\IeC {\textlambda }\IeC {\textalpha }\IeC {\ensuregreek {\acctonos \textiota }}\IeC {\textomicron }\IeC {\textupsilon }}{31}}
\@setckpt{chapter_rl_theoretical}{
\setcounter{page}{32}
\setcounter{equation}{19}
\setcounter{enumi}{5}
\setcounter{enumii}{0}
\setcounter{enumiii}{0}
\setcounter{enumiv}{0}
\setcounter{footnote}{0}
\setcounter{mpfootnote}{0}
\setcounter{parentequation}{0}
\setcounter{part}{0}
\setcounter{chapter}{2}
\setcounter{section}{13}
\setcounter{subsection}{0}
\setcounter{subsubsection}{0}
\setcounter{paragraph}{0}
\setcounter{subparagraph}{0}
\setcounter{figure}{5}
\setcounter{table}{0}
\setcounter{ContinuedFloat}{0}
\setcounter{subfigure}{0}
\setcounter{subtable}{0}
\setcounter{float@type}{8}
\setcounter{algorithm}{0}
\setcounter{ALC@unique}{0}
\setcounter{ALC@line}{0}
\setcounter{ALC@rem}{0}
\setcounter{ALC@depth}{0}
\setcounter{definition}{0}
\setcounter{proposition}{0}
\setcounter{theorem}{0}
\setcounter{corollary}{0}
\setcounter{lemma}{0}
\setcounter{example}{0}
\setcounter{remark}{0}
\setcounter{notation}{0}
\setcounter{law}{0}
}
