\relax 
\@writefile{toc}{\contentsline {chapter}{\numberline {7}\IeC {\textPi }\IeC {\textepsilon }\IeC {\textiota }\IeC {\textrho }\IeC {\textalpha }\IeC {\textmu }\IeC {\textalpha }\IeC {\texttau }\IeC {\textiota }\IeC {\textkappa }\IeC {\ensuregreek {\acctonos \textalpha }} \IeC {\textalpha }\IeC {\textpi }\IeC {\textomicron }\IeC {\texttau }\IeC {\textepsilon }\IeC {\textlambda }\IeC {\ensuregreek {\acctonos \textepsilon }}\IeC {\textsigma }\IeC {\textmu }\IeC {\textalpha }\IeC {\texttau }\IeC {\textalpha }}{81}}
\@writefile{lof}{\addvspace {10\p@ }}
\@writefile{lot}{\addvspace {10\p@ }}
\newlabel{chapter_results}{{7}{81}}
\@writefile{toc}{\contentsline {section}{\numberline {7.1}\IeC {\textPi }\IeC {\textepsilon }\IeC {\textiota }\IeC {\textrho }\IeC {\textalpha }\IeC {\textmu }\IeC {\textalpha }\IeC {\texttau }\IeC {\textiota }\IeC {\textkappa }\IeC {\ensuregreek {\acctonos \texteta }} \IeC {\textdelta }\IeC {\textiota }\IeC {\textalpha }\IeC {\textdelta }\IeC {\textiota }\IeC {\textkappa }\IeC {\textalpha }\IeC {\textsigma }\IeC {\ensuregreek {\acctonos \textiota }}\IeC {\textalpha }}{81}}
\select@language{greek}
\@writefile{toc}{\select@language{greek}}
\@writefile{lof}{\select@language{greek}}
\@writefile{lot}{\select@language{greek}}
\select@language{greek}
\@writefile{toc}{\select@language{greek}}
\@writefile{lof}{\select@language{greek}}
\@writefile{lot}{\select@language{greek}}
\@writefile{toc}{\contentsline {section}{\numberline {7.2}\IeC {\textAlpha }\IeC {\textpi }\IeC {\textomicron }\IeC {\texttau }\IeC {\textepsilon }\IeC {\textlambda }\IeC {\ensuregreek {\acctonos \textepsilon }}\IeC {\textsigma }\IeC {\textmu }\IeC {\textalpha }\IeC {\texttau }\IeC {\textalpha }}{82}}
\@writefile{toc}{\contentsline {subsection}{\numberline {7.2.1}\IeC {\textAlpha }\IeC {\textxi }\IeC {\textiota }\IeC {\textomicron }\IeC {\textlambda }\IeC {\ensuregreek {\acctonos \textomicron }}\IeC {\textgamma }\IeC {\texteta }\IeC {\textsigma }\IeC {\texteta } \IeC {\textchi }\IeC {\textrho }\IeC {\textomega }\IeC {\textmu }\IeC {\textalpha }\IeC {\texttau }\IeC {\textiota }\IeC {\textkappa }\IeC {\ensuregreek {\acctonos \texteta }}\IeC {\textvarsigma } \IeC {\textalpha }\IeC {\textnu }\IeC {\ensuregreek {\acctonos \textiota }}\IeC {\textchi }\IeC {\textnu }\IeC {\textepsilon }\IeC {\textupsilon }\IeC {\textsigma }\IeC {\texteta }\IeC {\textvarsigma }}{82}}
\@writefile{lof}{\contentsline {figure}{\numberline {7.1}{\ignorespaces \IeC {\textOmicron }\IeC {\textrho }\IeC {\textiota }\IeC {\textomicron }\IeC {\texttheta }\IeC {\ensuregreek {\acctonos \textepsilon }}\IeC {\texttau }\IeC {\texteta }\IeC {\textsigma }\IeC {\texteta } \IeC {\textalpha }\IeC {\textnu }\IeC {\texttau }\IeC {\textiota }\IeC {\textkappa }\IeC {\textepsilon }\IeC {\textiota }\IeC {\textmu }\IeC {\ensuregreek {\acctonos \textepsilon }}\IeC {\textnu }\IeC {\textomicron }\IeC {\textupsilon } \IeC {\textalpha }\IeC {\textpi }\IeC {\ensuregreek {\acctonos \textomicron }} \IeC {\textalpha }\IeC {\textlambda }\IeC {\textgamma }\IeC {\ensuregreek {\acctonos \textomicron }}\IeC {\textrho }\IeC {\textiota }\IeC {\texttheta }\IeC {\textmu }\IeC {\textomicron } \IeC {\textchi }\IeC {\textrho }\IeC {\textomega }\IeC {\textmu }\IeC {\textalpha }\IeC {\texttau }\IeC {\textiota }\IeC {\textkappa }\IeC {\ensuregreek {\acctonos \texteta }}\IeC {\textvarsigma } \IeC {\textalpha }\IeC {\textnu }\IeC {\ensuregreek {\acctonos \textiota }}\IeC {\textchi }\IeC {\textnu }\IeC {\textepsilon }\IeC {\textupsilon }\IeC {\textsigma }\IeC {\texteta }\IeC {\textvarsigma }.\relax }}{82}}
\newlabel{im:score}{{7.1}{82}}
\@writefile{lof}{\contentsline {figure}{\numberline {7.2}{\ignorespaces \IeC {\textBeta }\IeC {\textalpha }\IeC {\texttheta }\IeC {\textmu }\IeC {\textomicron }\IeC {\textlambda }\IeC {\ensuregreek {\acctonos \textomicron }}\IeC {\textgamma }\IeC {\texteta }\IeC {\textsigma }\IeC {\texteta } \IeC {\textalpha }\IeC {\textlambda }\IeC {\textgamma }\IeC {\textomicron }\IeC {\textrho }\IeC {\ensuregreek {\acctonos \textiota }}\IeC {\texttheta }\IeC {\textmu }\IeC {\textomicron }\IeC {\textupsilon } \IeC {\textalpha }\IeC {\textnu }\IeC {\ensuregreek {\acctonos \textiota }}\IeC {\textchi }\IeC {\textnu }\IeC {\textepsilon }\IeC {\textupsilon }\IeC {\textsigma }\IeC {\texteta }\IeC {\textvarsigma } \IeC {\textkappa }\IeC {\ensuregreek {\acctonos \textalpha }}\IeC {\texttau }\IeC {\textomega } \IeC {\textalpha }\IeC {\textpi }\IeC {\ensuregreek {\acctonos \textomicron }} \IeC {\textdelta }\IeC {\textiota }\IeC {\textalpha }\IeC {\textphi }\IeC {\textomicron }\IeC {\textrho }\IeC {\textepsilon }\IeC {\texttau }\IeC {\textiota }\IeC {\textkappa }\IeC {\ensuregreek {\acctonos \textepsilon }}\IeC {\textvarsigma } \IeC {\textsigma }\IeC {\textupsilon }\IeC {\textnu }\IeC {\texttheta }\IeC {\ensuregreek {\acctonos \texteta }}\IeC {\textkappa }\IeC {\textepsilon }\IeC {\textvarsigma } \IeC {\textphi }\IeC {\textomega }\IeC {\texttau }\IeC {\textiota }\IeC {\textsigma }\IeC {\textmu }\IeC {\textomicron }\IeC {\ensuregreek {\acctonos \textupsilon }}.\relax }}{83}}
\newlabel{im:score_hist}{{7.2}{83}}
\@writefile{toc}{\contentsline {subsection}{\numberline {7.2.2}\IeC {\textAlpha }\IeC {\textxi }\IeC {\textiota }\IeC {\textomicron }\IeC {\textlambda }\IeC {\ensuregreek {\acctonos \textomicron }}\IeC {\textgamma }\IeC {\texteta }\IeC {\textsigma }\IeC {\texteta } \IeC {\textrho }\IeC {\textomicron }\IeC {\textmu }\IeC {\textpi }\IeC {\textomicron }\IeC {\texttau }\IeC {\textiota }\IeC {\textkappa }\IeC {\ensuregreek {\acctonos \texteta }}\IeC {\textvarsigma } \IeC {\textlambda }\IeC {\ensuregreek {\acctonos \texteta }}\IeC {\textpsi }\IeC {\texteta }\IeC {\textvarsigma }}{83}}
\select@language{greek}
\@writefile{toc}{\select@language{greek}}
\@writefile{lof}{\select@language{greek}}
\@writefile{lot}{\select@language{greek}}
\select@language{greek}
\@writefile{toc}{\select@language{greek}}
\@writefile{lof}{\select@language{greek}}
\@writefile{lot}{\select@language{greek}}
\@writefile{lof}{\contentsline {figure}{\numberline {7.3}{\ignorespaces \IeC {\textEpsilon }\IeC {\textpi }\IeC {\ensuregreek {\acctonos \textiota }}\IeC {\textdelta }\IeC {\textomicron }\IeC {\textsigma }\IeC {\texteta } \textlatin  {SVM} \IeC {\textmu }\IeC {\textepsilon } \IeC {\textpi }\IeC {\textupsilon }\IeC {\textrho }\IeC {\ensuregreek {\acctonos \texteta }}\IeC {\textnu }\IeC {\textalpha } \IeC {\textalpha }\IeC {\textkappa }\IeC {\texttau }\IeC {\textiota }\IeC {\textnu }\IeC {\textiota }\IeC {\textkappa }\IeC {\ensuregreek {\acctonos \texteta }}\IeC {\textvarsigma } \IeC {\textbeta }\IeC {\ensuregreek {\acctonos \textalpha }}\IeC {\textsigma }\IeC {\texteta }\IeC {\textvarsigma } \IeC {\textgamma }\IeC {\textiota }\IeC {\textalpha } \IeC {\textdelta }\IeC {\textiota }\IeC {\textalpha }\IeC {\textphi }\IeC {\textomicron }\IeC {\textrho }\IeC {\textepsilon }\IeC {\texttau }\IeC {\textiota }\IeC {\textkappa }\IeC {\ensuregreek {\acctonos \textepsilon }}\IeC {\textvarsigma } \IeC {\texttau }\IeC {\textiota }\IeC {\textmu }\IeC {\ensuregreek {\acctonos \textepsilon }}\IeC {\textvarsigma } \IeC {\texttau }\IeC {\textomega }\IeC {\textnu } \IeC {\textpi }\IeC {\textalpha }\IeC {\textrho }\IeC {\textalpha }\IeC {\textmu }\IeC {\ensuregreek {\acctonos \textepsilon }}\IeC {\texttau }\IeC {\textrho }\IeC {\textomega }\IeC {\textnu } $C$ \IeC {\textkappa }\IeC {\textalpha }\IeC {\textiota } $\gamma $.\relax }}{84}}
\newlabel{im:svm_heatmap}{{7.3}{84}}
\@writefile{lof}{\contentsline {figure}{\numberline {7.4}{\ignorespaces \IeC {\textMu }\IeC {\ensuregreek {\acctonos \texteta }}\IeC {\texttau }\IeC {\textrho }\IeC {\textalpha } \IeC {\textsigma }\IeC {\ensuregreek {\acctonos \textupsilon }}\IeC {\textgamma }\IeC {\textchi }\IeC {\textupsilon }\IeC {\textsigma }\IeC {\texteta }\IeC {\textvarsigma } \IeC {\textgamma }\IeC {\textiota }\IeC {\textalpha } $\gamma = 10^{-5}$ \IeC {\textkappa }\IeC {\textalpha }\IeC {\textiota } $C = 10$.\relax }}{85}}
\newlabel{im:svm_confusion_matrix}{{7.4}{85}}
\@writefile{lof}{\contentsline {figure}{\numberline {7.5}{\ignorespaces \IeC {\textAlpha }\IeC {\textrho }\IeC {\textiota }\IeC {\textsigma }\IeC {\texttau }\IeC {\textepsilon }\IeC {\textrho }\IeC {\ensuregreek {\acctonos \textalpha }}: \IeC {\texteta } \IeC {\textlambda }\IeC {\ensuregreek {\acctonos \texteta }}\IeC {\textpsi }\IeC {\texteta } \IeC {\textalpha }\IeC {\textxi }\IeC {\textiota }\IeC {\textomicron }\IeC {\textlambda }\IeC {\textomicron }\IeC {\textgamma }\IeC {\textepsilon }\IeC {\ensuregreek {\acctonos \textiota }}\IeC {\texttau }\IeC {\textalpha }\IeC {\textiota } \IeC {\textlambda }\IeC {\textalpha }\IeC {\textnu }\IeC {\texttheta }\IeC {\textalpha }\IeC {\textsigma }\IeC {\textmu }\IeC {\ensuregreek {\acctonos \textepsilon }}\IeC {\textnu }\IeC {\textalpha } \IeC {\textomega }\IeC {\textvarsigma } \IeC {\textkappa }\IeC {\textalpha }\IeC {\textkappa }\IeC {\ensuregreek {\acctonos \texteta }}, \IeC {\textepsilon }\IeC {\textnu }\IeC {\ensuregreek {\acctonos \textomega }} \IeC {\textsigma }\IeC {\texttau }\IeC {\texteta }\IeC {\textnu } \IeC {\textpi }\IeC {\textrho }\IeC {\textalpha }\IeC {\textgamma }\IeC {\textmu }\IeC {\textalpha }\IeC {\texttau }\IeC {\textiota }\IeC {\textkappa }\IeC {\ensuregreek {\acctonos \textomicron }}\IeC {\texttau }\IeC {\texteta }\IeC {\texttau }\IeC {\textalpha } \IeC {\textepsilon }\IeC {\ensuregreek {\acctonos \textiota }}\IeC {\textnu }\IeC {\textalpha }\IeC {\textiota } \IeC {\textmu }\IeC {\ensuregreek {\acctonos \textepsilon }}\IeC {\texttau }\IeC {\textrho }\IeC {\textiota }\IeC {\textalpha }. \IeC {\textDelta }\IeC {\textepsilon }\IeC {\textxi }\IeC {\textiota }\IeC {\ensuregreek {\acctonos \textalpha }}: \IeC {\texteta } \IeC {\textdelta }\IeC {\textupsilon }\IeC {\textalpha }\IeC {\textdelta }\IeC {\textiota }\IeC {\textkappa }\IeC {\ensuregreek {\acctonos \texteta }} \IeC {\textepsilon }\IeC {\textiota }\IeC {\textkappa }\IeC {\ensuregreek {\acctonos \textomicron }}\IeC {\textnu }\IeC {\textalpha } \IeC {\textalpha }\IeC {\textnu }\IeC {\ensuregreek {\acctonos \textiota }}\IeC {\textchi }\IeC {\textnu }\IeC {\textepsilon }\IeC {\textupsilon }\IeC {\textsigma }\IeC {\texteta }\IeC {\textvarsigma } \IeC {\texttau }\IeC {\textomicron }\IeC {\textupsilon } \IeC {\textalpha }\IeC {\textnu }\IeC {\texttau }\IeC {\textiota }\IeC {\textkappa }\IeC {\textepsilon }\IeC {\textiota }\IeC {\textmu }\IeC {\ensuregreek {\acctonos \textepsilon }}\IeC {\textnu }\IeC {\textomicron }\IeC {\textupsilon }.\relax }}{85}}
\newlabel{im:object_occlusion}{{7.5}{85}}
\select@language{greek}
\@writefile{toc}{\select@language{greek}}
\@writefile{lof}{\select@language{greek}}
\@writefile{lot}{\select@language{greek}}
\select@language{greek}
\@writefile{toc}{\select@language{greek}}
\@writefile{lof}{\select@language{greek}}
\@writefile{lot}{\select@language{greek}}
\@writefile{lof}{\contentsline {figure}{\numberline {7.6}{\ignorespaces \IeC {\textTau }\IeC {\textalpha }\IeC {\textxi }\IeC {\textiota }\IeC {\textnu }\IeC {\ensuregreek {\acctonos \textomicron }}\IeC {\textmu }\IeC {\texteta }\IeC {\textsigma }\IeC {\texteta } \IeC {\textrho }\IeC {\textomicron }\IeC {\textmu }\IeC {\textpi }\IeC {\textomicron }\IeC {\texttau }\IeC {\textiota }\IeC {\textkappa }\IeC {\ensuregreek {\acctonos \texteta }}\IeC {\textvarsigma } \IeC {\textlambda }\IeC {\ensuregreek {\acctonos \texteta }}\IeC {\textpsi }\IeC {\texteta }\IeC {\textvarsigma }.\relax }}{86}}
\newlabel{im:good_average_bad}{{7.6}{86}}
\@setckpt{chapter_results}{
\setcounter{page}{87}
\setcounter{equation}{1}
\setcounter{enumi}{5}
\setcounter{enumii}{0}
\setcounter{enumiii}{0}
\setcounter{enumiv}{0}
\setcounter{footnote}{0}
\setcounter{mpfootnote}{0}
\setcounter{parentequation}{0}
\setcounter{part}{0}
\setcounter{chapter}{7}
\setcounter{section}{2}
\setcounter{subsection}{2}
\setcounter{subsubsection}{0}
\setcounter{paragraph}{0}
\setcounter{subparagraph}{0}
\setcounter{figure}{6}
\setcounter{table}{0}
\setcounter{ContinuedFloat}{0}
\setcounter{subfigure}{0}
\setcounter{subtable}{0}
\setcounter{float@type}{8}
\setcounter{algorithm}{2}
\setcounter{ALC@unique}{39}
\setcounter{ALC@line}{31}
\setcounter{ALC@rem}{0}
\setcounter{ALC@depth}{0}
\setcounter{definition}{0}
\setcounter{proposition}{0}
\setcounter{theorem}{0}
\setcounter{corollary}{0}
\setcounter{lemma}{0}
\setcounter{example}{0}
\setcounter{remark}{0}
\setcounter{notation}{0}
\setcounter{law}{0}
}
