\select@language {greek}
\select@language {greek}
\select@language {greek}
\contentsline {chapter}{\IeC {\textEpsilon }\IeC {\textupsilon }\IeC {\textchi }\IeC {\textalpha }\IeC {\textrho }\IeC {\textiota }\IeC {\textsigma }\IeC {\texttau }\IeC {\ensuregreek {\acctonos \textiota }}\IeC {\textepsilon }\IeC {\textvarsigma }}{1}
\contentsline {chapter}{\textPi \textepsilon \textrho \acctonos \textiota \textlambda \texteta \textpsi \texteta }{3}
\contentsline {chapter}{\foreignlanguage {english}{Abstract}}{5}
\addvspace {1em}
\select@language {greek}
\select@language {greek}
\contentsline {chapter}{\textPi \textepsilon \textrho \textiota \textepsilon \textchi \acctonos \textomicron \textmu \textepsilon \textnu \textalpha }{9}
\contentsline {chapter}{\selectlanguage {greek}\textKappa \textalpha \texttau \acctonos \textalpha \textlambda \textomicron \textgamma \textomicron \textfinalsigma {} \textSigma \textchi \texteta \textmu \acctonos \textalpha \texttau \textomega \textnu }{12}
\contentsline {chapter}{\textKappa \textalpha \texttau \acctonos \textalpha \textlambda \textomicron \textgamma \textomicron \textfinalsigma {} \textPi \textiota \textnu \acctonos \textalpha \textkappa \textomega \textnu }{13}
\contentsline {chapter}{\numberline {1}\IeC {\textEpsilon }\IeC {\textiota }\IeC {\textsigma }\IeC {\textalpha }\IeC {\textgamma }\IeC {\textomega }\IeC {\textgamma }\IeC {\ensuregreek {\acctonos \texteta }}}{15}
\contentsline {section}{\numberline {1.1}\IeC {\textRho }\IeC {\textomicron }\IeC {\textmu }\IeC {\textpi }\IeC {\textomicron }\IeC {\texttau }\IeC {\textiota }\IeC {\textkappa }\IeC {\ensuregreek {\acctonos \texteta }}}{15}
\contentsline {section}{\numberline {1.2}\IeC {\textAlpha }\IeC {\textlambda }\IeC {\textlambda }\IeC {\texteta }\IeC {\textlambda }\IeC {\textepsilon }\IeC {\textpi }\IeC {\ensuregreek {\acctonos \textiota }}\IeC {\textdelta }\IeC {\textrho }\IeC {\textalpha }\IeC {\textsigma }\IeC {\texteta } \IeC {\textalpha }\IeC {\textnu }\IeC {\texttheta }\IeC {\textrho }\IeC {\ensuregreek {\acctonos \textomega }}\IeC {\textpi }\IeC {\textomicron }\IeC {\textupsilon }-\IeC {\textrho }\IeC {\textomicron }\IeC {\textmu }\IeC {\textpi }\IeC {\ensuregreek {\acctonos \textomicron }}\IeC {\texttau }}{15}
\select@language {greek}
\select@language {greek}
\contentsline {section}{\numberline {1.3}\IeC {\textSigma }\IeC {\texttau }\IeC {\ensuregreek {\acctonos \textomicron }}\IeC {\textchi }\IeC {\textomicron }\IeC {\textiota } \IeC {\texttau }\IeC {\texteta }\IeC {\textvarsigma } \IeC {\textdelta }\IeC {\textiota }\IeC {\textpi }\IeC {\textlambda }\IeC {\textomega }\IeC {\textmu }\IeC {\textalpha }\IeC {\texttau }\IeC {\textiota }\IeC {\textkappa }\IeC {\ensuregreek {\acctonos \texteta }}\IeC {\textvarsigma }}{16}
\contentsline {subsection}{\numberline {1.3.1}\IeC {\textDelta }\IeC {\textiota }\IeC {\textalpha }\IeC {\textdelta }\IeC {\textrho }\IeC {\textalpha }\IeC {\textsigma }\IeC {\texttau }\IeC {\textiota }\IeC {\textkappa }\IeC {\ensuregreek {\acctonos \texteta }} \IeC {\textrho }\IeC {\textomicron }\IeC {\textmu }\IeC {\textpi }\IeC {\textomicron }\IeC {\texttau }\IeC {\textiota }\IeC {\textkappa }\IeC {\ensuregreek {\acctonos \texteta }} \IeC {\textlambda }\IeC {\ensuregreek {\acctonos \texteta }}\IeC {\textpsi }\IeC {\texteta }}{16}
\contentsline {subsection}{\numberline {1.3.2}\IeC {\textAlpha }\IeC {\textnu }\IeC {\ensuregreek {\acctonos \textalpha }}\IeC {\textpi }\IeC {\texttau }\IeC {\textupsilon }\IeC {\textxi }\IeC {\texteta } \IeC {\textdelta }\IeC {\textepsilon }\IeC {\textxi }\IeC {\textiota }\IeC {\textomicron }\IeC {\texttau }\IeC {\ensuregreek {\acctonos \texteta }}\IeC {\texttau }\IeC {\textomega }\IeC {\textnu } \IeC {\textpi }\IeC {\textrho }\IeC {\textomicron }\IeC {\textsigma }\IeC {\textalpha }\IeC {\textrho }\IeC {\textmu }\IeC {\textomicron }\IeC {\textsigma }\IeC {\texttau }\IeC {\textiota }\IeC {\textkappa }\IeC {\ensuregreek {\acctonos \textomicron }}\IeC {\texttau }\IeC {\texteta }\IeC {\texttau }\IeC {\textalpha }\IeC {\textvarsigma }}{17}
\contentsline {section}{\numberline {1.4}\IeC {\textOmicron }\IeC {\textrho }\IeC {\textgamma }\IeC {\ensuregreek {\acctonos \textalpha }}\IeC {\textnu }\IeC {\textomega }\IeC {\textsigma }\IeC {\texteta } \IeC {\texttau }\IeC {\textomicron }\IeC {\textupsilon } \IeC {\texttau }\IeC {\ensuregreek {\acctonos \textomicron }}\IeC {\textmu }\IeC {\textomicron }\IeC {\textupsilon }}{17}
\contentsline {chapter}{\numberline {2}\IeC {\textEpsilon }\IeC {\textnu }\IeC {\textiota }\IeC {\textsigma }\IeC {\textchi }\IeC {\textupsilon }\IeC {\texttau }\IeC {\textiota }\IeC {\textkappa }\IeC {\ensuregreek {\acctonos \texteta }} \IeC {\textmu }\IeC {\ensuregreek {\acctonos \textalpha }}\IeC {\texttheta }\IeC {\texteta }\IeC {\textsigma }\IeC {\texteta }}{19}
\contentsline {section}{\numberline {2.1}\IeC {\textEpsilon }\IeC {\textiota }\IeC {\textsigma }\IeC {\textalpha }\IeC {\textgamma }\IeC {\textomega }\IeC {\textgamma }\IeC {\ensuregreek {\acctonos \texteta }}}{19}
\select@language {greek}
\select@language {greek}
\contentsline {section}{\numberline {2.2}\IeC {\textAlpha }\IeC {\textlambda }\IeC {\textlambda }\IeC {\texteta }\IeC {\textlambda }\IeC {\textepsilon }\IeC {\textpi }\IeC {\ensuregreek {\acctonos \textiota }}\IeC {\textdelta }\IeC {\textrho }\IeC {\textalpha }\IeC {\textsigma }\IeC {\texteta } \IeC {\textpi }\IeC {\textrho }\IeC {\ensuregreek {\acctonos \textalpha }}\IeC {\textkappa }\IeC {\texttau }\IeC {\textomicron }\IeC {\textrho }\IeC {\textalpha }-\IeC {\textpi }\IeC {\textepsilon }\IeC {\textrho }\IeC {\textiota }\IeC {\textbeta }\IeC {\ensuregreek {\acctonos \textalpha }}\IeC {\textlambda }\IeC {\textlambda }\IeC {\textomicron }\IeC {\textnu }\IeC {\texttau }\IeC {\textomicron }\IeC {\textvarsigma }}{20}
\contentsline {section}{\numberline {2.3}\IeC {\textSigma }\IeC {\textupsilon }\IeC {\textnu }\IeC {\ensuregreek {\acctonos \textalpha }}\IeC {\textrho }\IeC {\texttau }\IeC {\texteta }\IeC {\textsigma }\IeC {\texteta } \IeC {\textalpha }\IeC {\textnu }\IeC {\texttau }\IeC {\textalpha }\IeC {\textmu }\IeC {\textomicron }\IeC {\textiota }\IeC {\textbeta }\IeC {\ensuregreek {\acctonos \texteta }}\IeC {\textvarsigma }}{20}
\contentsline {section}{\numberline {2.4}\IeC {\textMu }\IeC {\textalpha }\IeC {\textrho }\IeC {\textkappa }\IeC {\textomicron }\IeC {\textbeta }\IeC {\textiota }\IeC {\textalpha }\IeC {\textnu }\IeC {\ensuregreek {\acctonos \texteta }} \IeC {\textiota }\IeC {\textdelta }\IeC {\textiota }\IeC {\ensuregreek {\acctonos \textomicron }}\IeC {\texttau }\IeC {\texteta }\IeC {\texttau }\IeC {\textalpha }}{21}
\select@language {greek}
\select@language {greek}
\contentsline {section}{\numberline {2.5}\IeC {\textSigma }\IeC {\textupsilon }\IeC {\textnu }\IeC {\ensuregreek {\acctonos \textalpha }}\IeC {\textrho }\IeC {\texttau }\IeC {\texteta }\IeC {\textsigma }\IeC {\texteta } \IeC {\textalpha }\IeC {\textxi }\IeC {\ensuregreek {\acctonos \textiota }}\IeC {\textalpha }\IeC {\textvarsigma }}{22}
\contentsline {section}{\numberline {2.6}\IeC {\textBeta }\IeC {\ensuregreek {\acctonos \textepsilon }}\IeC {\textlambda }\IeC {\texttau }\IeC {\textiota }\IeC {\textsigma }\IeC {\texttau }\IeC {\texteta } \IeC {\textsigma }\IeC {\textupsilon }\IeC {\textnu }\IeC {\ensuregreek {\acctonos \textalpha }}\IeC {\textrho }\IeC {\texttau }\IeC {\texteta }\IeC {\textsigma }\IeC {\texteta } \IeC {\textalpha }\IeC {\textxi }\IeC {\ensuregreek {\acctonos \textiota }}\IeC {\textalpha }\IeC {\textvarsigma }}{22}
\contentsline {section}{\numberline {2.7}\IeC {\textDelta }\IeC {\textupsilon }\IeC {\textnu }\IeC {\textalpha }\IeC {\textmu }\IeC {\textiota }\IeC {\textkappa }\IeC {\ensuregreek {\acctonos \textomicron }}\IeC {\textvarsigma } \IeC {\textPi }\IeC {\textrho }\IeC {\textomicron }\IeC {\textgamma }\IeC {\textrho }\IeC {\textalpha }\IeC {\textmu }\IeC {\textmu }\IeC {\textalpha }\IeC {\texttau }\IeC {\textiota }\IeC {\textsigma }\IeC {\textmu }\IeC {\ensuregreek {\acctonos \textomicron }}\IeC {\textvarsigma }}{23}
\select@language {greek}
\select@language {greek}
\contentsline {section}{\numberline {2.8}\IeC {\textMu }\IeC {\ensuregreek {\acctonos \textepsilon }}\IeC {\texttheta }\IeC {\textomicron }\IeC {\textdelta }\IeC {\textomicron }\IeC {\textiota } \textlatin {Monte-Carlo}}{24}
\contentsline {subsubsection}{\IeC {\textTau }\IeC {\textomicron } \IeC {\textpi }\IeC {\textrho }\IeC {\ensuregreek {\acctonos \textomicron }}\IeC {\textbeta }\IeC {\textlambda }\IeC {\texteta }\IeC {\textmu }\IeC {\textalpha } \textlatin {n-armed bandit}}{24}
\select@language {greek}
\select@language {greek}
\contentsline {section}{\numberline {2.9}\IeC {\textMu }\IeC {\ensuregreek {\acctonos \textalpha }}\IeC {\texttheta }\IeC {\texteta }\IeC {\textsigma }\IeC {\texteta } \IeC {\textchi }\IeC {\textrho }\IeC {\textomicron }\IeC {\textnu }\IeC {\textiota }\IeC {\textkappa }\IeC {\ensuregreek {\acctonos \textomega }}\IeC {\textnu } \IeC {\textdelta }\IeC {\textiota }\IeC {\textalpha }\IeC {\textphi }\IeC {\textomicron }\IeC {\textrho }\IeC {\ensuregreek {\acctonos \textomega }}\IeC {\textnu }}{26}
\contentsline {subsubsection}{\textlatin {Q-Learning}}{26}
\contentsline {section}{\numberline {2.10}\IeC {\textMu }\IeC {\ensuregreek {\acctonos \textepsilon }}\IeC {\texttheta }\IeC {\textomicron }\IeC {\textdelta }\IeC {\textomicron }\IeC {\textvarsigma } \IeC {\textdelta }\IeC {\textrho }\IeC {\ensuregreek {\acctonos \textalpha }}\IeC {\textsigma }\IeC {\texttau }\IeC {\texteta }-\IeC {\textkappa }\IeC {\textrho }\IeC {\textiota }\IeC {\texttau }\IeC {\ensuregreek {\acctonos \texteta }}}{27}
\contentsline {section}{\numberline {2.11}\IeC {\textPi }\IeC {\textalpha }\IeC {\textrho }\IeC {\textalpha }\IeC {\textmu }\IeC {\textepsilon }\IeC {\texttau }\IeC {\textrho }\IeC {\textomicron }\IeC {\textpi }\IeC {\textomicron }\IeC {\textiota }\IeC {\texteta }\IeC {\textmu }\IeC {\ensuregreek {\acctonos \textepsilon }}\IeC {\textnu }\IeC {\textepsilon }\IeC {\textvarsigma } \IeC {\textDelta }\IeC {\textiota }\IeC {\textalpha }\IeC {\textkappa }\IeC {\textrho }\IeC {\textiota }\IeC {\texttau }\IeC {\ensuregreek {\acctonos \textepsilon }}\IeC {\textvarsigma } \IeC {\textDelta }\IeC {\textrho }\IeC {\ensuregreek {\acctonos \textalpha }}\IeC {\textsigma }\IeC {\textepsilon }\IeC {\textiota }\IeC {\textvarsigma }}{27}
\contentsline {subsection}{\numberline {2.11.1}\IeC {\textTau }\IeC {\textepsilon }\IeC {\textchi }\IeC {\textnu }\IeC {\texteta }\IeC {\texttau }\IeC {\ensuregreek {\acctonos \textalpha }} \IeC {\textNu }\IeC {\textepsilon }\IeC {\textupsilon }\IeC {\textrho }\IeC {\textomega }\IeC {\textnu }\IeC {\textiota }\IeC {\textkappa }\IeC {\ensuregreek {\acctonos \textalpha }} \IeC {\textDelta }\IeC {\ensuregreek {\acctonos \textiota }}\IeC {\textkappa }\IeC {\texttau }\IeC {\textupsilon }\IeC {\textalpha }}{27}
\select@language {greek}
\select@language {greek}
\contentsline {subsection}{\numberline {2.11.2}\IeC {\textAlpha }\IeC {\textnu }\IeC {\textalpha }\IeC {\textpi }\IeC {\textalpha }\IeC {\textrho }\IeC {\ensuregreek {\acctonos \textalpha }}\IeC {\textsigma }\IeC {\texttau }\IeC {\textalpha }\IeC {\textsigma }\IeC {\texteta } \IeC {\textsigma }\IeC {\textupsilon }\IeC {\textnu }\IeC {\textepsilon }\IeC {\textchi }\IeC {\textomicron }\IeC {\ensuregreek {\acctonos \textupsilon }}\IeC {\textvarsigma } \IeC {\textchi }\IeC {\ensuregreek {\acctonos \textomega }}\IeC {\textrho }\IeC {\textomicron }\IeC {\textupsilon } \IeC {\textdelta }\IeC {\textrho }\IeC {\ensuregreek {\acctonos \textalpha }}\IeC {\textsigma }\IeC {\textepsilon }\IeC {\textomega }\IeC {\textnu }}{28}
\contentsline {section}{\numberline {2.12}\IeC {\textEpsilon }\IeC {\textnu }\IeC {\textepsilon }\IeC {\textrho }\IeC {\textgamma }\IeC {\ensuregreek {\acctonos \texteta }} \IeC {\textalpha }\IeC {\textnu }\IeC {\textalpha }\IeC {\textzeta }\IeC {\ensuregreek {\acctonos \texteta }}\IeC {\texttau }\IeC {\texteta }\IeC {\textsigma }\IeC {\texteta }}{29}
\select@language {greek}
\select@language {greek}
\contentsline {section}{\numberline {2.13}\IeC {\textSigma }\IeC {\ensuregreek {\acctonos \textupsilon }}\IeC {\textnu }\IeC {\textomicron }\IeC {\textpsi }\IeC {\texteta } \IeC {\textkappa }\IeC {\textepsilon }\IeC {\textphi }\IeC {\textalpha }\IeC {\textlambda }\IeC {\textalpha }\IeC {\ensuregreek {\acctonos \textiota }}\IeC {\textomicron }\IeC {\textupsilon }}{31}
\contentsline {chapter}{\numberline {3}\IeC {\textAlpha }\IeC {\textnu }\IeC {\ensuregreek {\acctonos \textiota }}\IeC {\textchi }\IeC {\textnu }\IeC {\textepsilon }\IeC {\textupsilon }\IeC {\textsigma }\IeC {\texteta } \IeC {\textalpha }\IeC {\textnu }\IeC {\texttau }\IeC {\textiota }\IeC {\textkappa }\IeC {\textepsilon }\IeC {\textiota }\IeC {\textmu }\IeC {\ensuregreek {\acctonos \textepsilon }}\IeC {\textnu }\IeC {\textomicron }\IeC {\textupsilon } \IeC {\textsigma }\IeC {\textepsilon } \IeC {\textepsilon }\IeC {\textiota }\IeC {\textkappa }\IeC {\ensuregreek {\acctonos \textomicron }}\IeC {\textnu }\IeC {\textalpha } \IeC {\textchi }\IeC {\textrho }\IeC {\ensuregreek {\acctonos \textomega }}\IeC {\textmu }\IeC {\textalpha }\IeC {\texttau }\IeC {\textomicron }\IeC {\textvarsigma }}{33}
\contentsline {section}{\numberline {3.1}\IeC {\textChi }\IeC {\textrho }\IeC {\textomega }\IeC {\textmu }\IeC {\textalpha }\IeC {\texttau }\IeC {\textiota }\IeC {\textkappa }\IeC {\textomicron }\IeC {\ensuregreek {\acctonos \textiota }} \IeC {\textChi }\IeC {\ensuregreek {\acctonos \textomega }}\IeC {\textrho }\IeC {\textomicron }\IeC {\textiota }}{33}
\select@language {greek}
\select@language {greek}
\contentsline {subsection}{\numberline {3.1.1}\textlatin {RGB}}{34}
\contentsline {subsection}{\numberline {3.1.2}\textlatin {HSV}}{34}
\contentsline {section}{\numberline {3.2}\IeC {\textChi }\IeC {\textrho }\IeC {\textomega }\IeC {\textmu }\IeC {\textalpha }\IeC {\texttau }\IeC {\textiota }\IeC {\textkappa }\IeC {\ensuregreek {\acctonos \texteta }} \IeC {\textkappa }\IeC {\textalpha }\IeC {\texttau }\IeC {\textomega }\IeC {\textphi }\IeC {\textlambda }\IeC {\ensuregreek {\acctonos \textiota }}\IeC {\textomega }\IeC {\textsigma }\IeC {\texteta } \IeC {\textepsilon }\IeC {\textiota }\IeC {\textkappa }\IeC {\ensuregreek {\acctonos \textomicron }}\IeC {\textnu }\IeC {\textalpha }\IeC {\textvarsigma }}{35}
\select@language {greek}
\select@language {greek}
\contentsline {section}{\numberline {3.3}\IeC {\textKappa }\IeC {\textalpha }\IeC {\texttau }\IeC {\textomega }\IeC {\textphi }\IeC {\textlambda }\IeC {\ensuregreek {\acctonos \textiota }}\IeC {\textomega }\IeC {\textsigma }\IeC {\texteta } \IeC {\textepsilon }\IeC {\textiota }\IeC {\textkappa }\IeC {\ensuregreek {\acctonos \textomicron }}\IeC {\textnu }\IeC {\textalpha }\IeC {\textvarsigma } \IeC {\textpi }\IeC {\textiota }\IeC {\texttheta }\IeC {\textalpha }\IeC {\textnu }\IeC {\textomicron }\IeC {\texttau }\IeC {\ensuregreek {\acctonos \texteta }}\IeC {\texttau }\IeC {\textomega }\IeC {\textnu }}{36}
\contentsline {section}{\numberline {3.4}\IeC {\textMu }\IeC {\textomicron }\IeC {\textrho }\IeC {\textphi }\IeC {\textomicron }\IeC {\textlambda }\IeC {\textomicron }\IeC {\textgamma }\IeC {\textiota }\IeC {\textkappa }\IeC {\ensuregreek {\acctonos \textalpha }} \IeC {\textPhi }\IeC {\ensuregreek {\acctonos \textiota }}\IeC {\textlambda }\IeC {\texttau }\IeC {\textrho }\IeC {\textalpha } \IeC {\textkappa }\IeC {\textalpha }\IeC {\textiota } \IeC {\textOmicron }\IeC {\textrho }\IeC {\textiota }\IeC {\textomicron }\IeC {\texttheta }\IeC {\ensuregreek {\acctonos \textepsilon }}\IeC {\texttau }\IeC {\texteta }\IeC {\textsigma }\IeC {\texteta } \IeC {\textAlpha }\IeC {\textnu }\IeC {\texttau }\IeC {\textiota }\IeC {\textkappa }\IeC {\textepsilon }\IeC {\textiota }\IeC {\textmu }\IeC {\ensuregreek {\acctonos \textepsilon }}\IeC {\textnu }\IeC {\textomicron }\IeC {\textupsilon }}{37}
\select@language {greek}
\select@language {greek}
\select@language {english}
\select@language {greek}
\contentsline {section}{\numberline {3.5}\IeC {\textBeta }\IeC {\textalpha }\IeC {\texttheta }\IeC {\textmu }\IeC {\ensuregreek {\acctonos \textomicron }}\IeC {\textvarsigma } \IeC {\textalpha }\IeC {\textxi }\IeC {\textiota }\IeC {\textomicron }\IeC {\textpi }\IeC {\textiota }\IeC {\textsigma }\IeC {\texttau }\IeC {\ensuregreek {\acctonos \textiota }}\IeC {\textalpha }\IeC {\textvarsigma } \IeC {\textalpha }\IeC {\textnu }\IeC {\ensuregreek {\acctonos \textiota }}\IeC {\textchi }\IeC {\textnu }\IeC {\textepsilon }\IeC {\textupsilon }\IeC {\textsigma }\IeC {\texteta }\IeC {\textvarsigma }}{38}
\contentsline {section}{\numberline {3.6}\IeC {\textSigma }\IeC {\ensuregreek {\acctonos \textupsilon }}\IeC {\textnu }\IeC {\textomicron }\IeC {\textpsi }\IeC {\texteta } \IeC {\textkappa }\IeC {\textepsilon }\IeC {\textphi }\IeC {\textalpha }\IeC {\textlambda }\IeC {\textalpha }\IeC {\ensuregreek {\acctonos \textiota }}\IeC {\textomicron }\IeC {\textupsilon }}{39}
\contentsline {chapter}{\numberline {4}\IeC {\textOmicron } \IeC {\texttau }\IeC {\textalpha }\IeC {\textxi }\IeC {\textiota }\IeC {\textnu }\IeC {\textomicron }\IeC {\textmu }\IeC {\texteta }\IeC {\texttau }\IeC {\ensuregreek {\acctonos \texteta }}\IeC {\textvarsigma } \textlatin {SVM}}{41}
\contentsline {section}{\numberline {4.1}\IeC {\textEpsilon }\IeC {\textiota }\IeC {\textsigma }\IeC {\textalpha }\IeC {\textgamma }\IeC {\textomega }\IeC {\textgamma }\IeC {\ensuregreek {\acctonos \texteta }}}{41}
\contentsline {section}{\numberline {4.2}\IeC {\textBeta }\IeC {\ensuregreek {\acctonos \textepsilon }}\IeC {\textlambda }\IeC {\texttau }\IeC {\textiota }\IeC {\textsigma }\IeC {\texttau }\IeC {\textomicron } \IeC {\textupsilon }\IeC {\textpi }\IeC {\textepsilon }\IeC {\textrho }\IeC {\textepsilon }\IeC {\textpi }\IeC {\ensuregreek {\acctonos \textiota }}\IeC {\textpi }\IeC {\textepsilon }\IeC {\textdelta }\IeC {\textomicron } \IeC {\textkappa }\IeC {\textalpha }\IeC {\textiota } \IeC {\textdelta }\IeC {\textiota }\IeC {\textalpha }\IeC {\textnu }\IeC {\ensuregreek {\acctonos \textupsilon }}\IeC {\textsigma }\IeC {\textmu }\IeC {\textalpha }\IeC {\texttau }\IeC {\textalpha } \IeC {\textupsilon }\IeC {\textpi }\IeC {\textomicron }\IeC {\textsigma }\IeC {\texttau }\IeC {\ensuregreek {\acctonos \texteta }}\IeC {\textrho }\IeC {\textiota }\IeC {\textxi }\IeC {\texteta }\IeC {\textvarsigma }}{41}
\select@language {greek}
\select@language {greek}
\contentsline {section}{\numberline {4.3}\textlatin {Soft-margin}}{43}
\select@language {greek}
\select@language {greek}
\contentsline {section}{\numberline {4.4}\IeC {\textMu }\IeC {\texteta }-\IeC {\textgamma }\IeC {\textrho }\IeC {\textalpha }\IeC {\textmu }\IeC {\textmu }\IeC {\textiota }\IeC {\textkappa }\IeC {\ensuregreek {\acctonos \textomega }}\IeC {\textvarsigma } \IeC {\textdelta }\IeC {\textiota }\IeC {\textalpha }\IeC {\textchi }\IeC {\textomega }\IeC {\textrho }\IeC {\ensuregreek {\acctonos \textiota }}\IeC {\textsigma }\IeC {\textiota }\IeC {\textmu }\IeC {\textepsilon }\IeC {\textvarsigma } \IeC {\textkappa }\IeC {\textlambda }\IeC {\ensuregreek {\acctonos \textalpha }}\IeC {\textsigma }\IeC {\textepsilon }\IeC {\textiota }\IeC {\textvarsigma }}{45}
\select@language {greek}
\select@language {greek}
\contentsline {section}{\numberline {4.5}\IeC {\textSigma }\IeC {\ensuregreek {\acctonos \textupsilon }}\IeC {\textnu }\IeC {\textomicron }\IeC {\textpsi }\IeC {\texteta } \IeC {\textkappa }\IeC {\textepsilon }\IeC {\textphi }\IeC {\textalpha }\IeC {\textlambda }\IeC {\textalpha }\IeC {\ensuregreek {\acctonos \textiota }}\IeC {\textomicron }\IeC {\textupsilon }}{46}
\contentsline {chapter}{\numberline {5}\IeC {\textEpsilon }\IeC {\textnu }\IeC {\textiota }\IeC {\textsigma }\IeC {\textchi }\IeC {\textupsilon }\IeC {\texttau }\IeC {\textiota }\IeC {\textkappa }\IeC {\ensuregreek {\acctonos \texteta }} \IeC {\textmu }\IeC {\ensuregreek {\acctonos \textalpha }}\IeC {\texttheta }\IeC {\texteta }\IeC {\textsigma }\IeC {\texteta } \IeC {\textrho }\IeC {\textomicron }\IeC {\textmu }\IeC {\textpi }\IeC {\ensuregreek {\acctonos \textomicron }}\IeC {\texttau } \IeC {\textsigma }\IeC {\textepsilon } \IeC {\textsigma }\IeC {\textepsilon }\IeC {\textnu }\IeC {\ensuregreek {\acctonos \textalpha }}\IeC {\textrho }\IeC {\textiota }\IeC {\textomicron } \IeC {\textalpha }\IeC {\textlambda }\IeC {\textlambda }\IeC {\texteta }\IeC {\textlambda }\IeC {\textepsilon }\IeC {\textpi }\IeC {\ensuregreek {\acctonos \textiota }}\IeC {\textdelta }\IeC {\textrho }\IeC {\textalpha }\IeC {\textsigma }\IeC {\texteta }\IeC {\textvarsigma } \IeC {\textmu }\IeC {\textepsilon } \IeC {\ensuregreek {\acctonos \textalpha }}\IeC {\textnu }\IeC {\texttheta }\IeC {\textrho }\IeC {\textomega }\IeC {\textpi }\IeC {\textomicron }}{47}
\contentsline {section}{\numberline {5.1}\IeC {\textSigma }\IeC {\textepsilon }\IeC {\textnu }\IeC {\ensuregreek {\acctonos \textalpha }}\IeC {\textrho }\IeC {\textiota }\IeC {\textomicron } \IeC {\textalpha }\IeC {\textlambda }\IeC {\textlambda }\IeC {\texteta }\IeC {\textlambda }\IeC {\textepsilon }\IeC {\textpi }\IeC {\ensuregreek {\acctonos \textiota }}\IeC {\textdelta }\IeC {\textrho }\IeC {\textalpha }\IeC {\textsigma }\IeC {\texteta }\IeC {\textvarsigma } \IeC {\textalpha }\IeC {\textnu }\IeC {\texttheta }\IeC {\textrho }\IeC {\ensuregreek {\acctonos \textomega }}\IeC {\textpi }\IeC {\textomicron }\IeC {\textupsilon }-\IeC {\textrho }\IeC {\textomicron }\IeC {\textmu }\IeC {\textpi }\IeC {\ensuregreek {\acctonos \textomicron }}\IeC {\texttau }}{47}
\select@language {greek}
\select@language {greek}
\contentsline {section}{\numberline {5.2}\IeC {\textMu }\IeC {\texteta }-\IeC {\textlambda }\IeC {\textepsilon }\IeC {\textkappa }\IeC {\texttau }\IeC {\textiota }\IeC {\textkappa }\IeC {\ensuregreek {\acctonos \textalpha }} \IeC {\textchi }\IeC {\textalpha }\IeC {\textrho }\IeC {\textalpha }\IeC {\textkappa }\IeC {\texttau }\IeC {\texteta }\IeC {\textrho }\IeC {\textiota }\IeC {\textsigma }\IeC {\texttau }\IeC {\textiota }\IeC {\textkappa }\IeC {\ensuregreek {\acctonos \textalpha }} \IeC {\textalpha }\IeC {\textnu }\IeC {\texttheta }\IeC {\textrho }\IeC {\ensuregreek {\acctonos \textomega }}\IeC {\textpi }\IeC {\textiota }\IeC {\textnu }\IeC {\texteta }\IeC {\textvarsigma } \IeC {\textsigma }\IeC {\textupsilon }\IeC {\textmu }\IeC {\textmu }\IeC {\textepsilon }\IeC {\texttau }\IeC {\textomicron }\IeC {\textchi }\IeC {\ensuregreek {\acctonos \texteta }}\IeC {\textvarsigma }}{49}
\select@language {greek}
\select@language {greek}
\contentsline {section}{\numberline {5.3}\IeC {\textRho }\IeC {\textepsilon }\IeC {\textalpha }\IeC {\textlambda }\IeC {\textiota }\IeC {\textsigma }\IeC {\texttau }\IeC {\textiota }\IeC {\textkappa }\IeC {\ensuregreek {\acctonos \texteta }} \IeC {\textpi }\IeC {\textrho }\IeC {\textomicron }\IeC {\textsigma }\IeC {\textomicron }\IeC {\textmu }\IeC {\textomicron }\IeC {\ensuregreek {\acctonos \textiota }}\IeC {\textomega }\IeC {\textsigma }\IeC {\texteta }}{50}
\contentsline {section}{\numberline {5.4}\IeC {\textEpsilon }\IeC {\textkappa }\IeC {\texttau }\IeC {\ensuregreek {\acctonos \textiota }}\IeC {\textmu }\IeC {\texteta }\IeC {\textsigma }\IeC {\texteta } \IeC {\textalpha }\IeC {\textnu }\IeC {\texttheta }\IeC {\textrho }\IeC {\ensuregreek {\acctonos \textomega }}\IeC {\textpi }\IeC {\textiota }\IeC {\textnu }\IeC {\texteta }\IeC {\textvarsigma } \IeC {\textsigma }\IeC {\textupsilon }\IeC {\textmu }\IeC {\textmu }\IeC {\textepsilon }\IeC {\texttau }\IeC {\textomicron }\IeC {\textchi }\IeC {\ensuregreek {\acctonos \texteta }}\IeC {\textvarsigma }}{51}
\select@language {greek}
\select@language {greek}
\contentsline {subsection}{\numberline {5.4.1}\IeC {\textPhi }\IeC {\ensuregreek {\acctonos \textiota }}\IeC {\textlambda }\IeC {\texttau }\IeC {\textrho }\IeC {\textomicron } \textlatin {Kalman}}{52}
\contentsline {subsection}{\numberline {5.4.2}\IeC {\textDelta }\IeC {\textiota }\IeC {\textalpha }\IeC {\textdelta }\IeC {\textiota }\IeC {\textkappa }\IeC {\textalpha }\IeC {\textsigma }\IeC {\ensuregreek {\acctonos \textiota }}\IeC {\textalpha } \IeC {\textepsilon }\IeC {\textkappa }\IeC {\texttau }\IeC {\ensuregreek {\acctonos \textiota }}\IeC {\textmu }\IeC {\texteta }\IeC {\textsigma }\IeC {\texteta }\IeC {\textvarsigma } \IeC {\textsigma }\IeC {\textupsilon }\IeC {\textmu }\IeC {\textmu }\IeC {\textepsilon }\IeC {\texttau }\IeC {\textomicron }\IeC {\textchi }\IeC {\ensuregreek {\acctonos \texteta }}\IeC {\textvarsigma }}{53}
\select@language {greek}
\select@language {greek}
\contentsline {section}{\numberline {5.5}\IeC {\textAlpha }\IeC {\textpi }\IeC {\ensuregreek {\acctonos \textomicron }}\IeC {\texttau }\IeC {\textomicron }\IeC {\textmu }\IeC {\textepsilon }\IeC {\textvarsigma } \IeC {\textmu }\IeC {\textepsilon }\IeC {\texttau }\IeC {\textalpha }\IeC {\textbeta }\IeC {\textomicron }\IeC {\textlambda }\IeC {\ensuregreek {\acctonos \textepsilon }}\IeC {\textvarsigma } \IeC {\textkappa }\IeC {\textalpha }\IeC {\textiota } \IeC {\textdelta }\IeC {\textiota }\IeC {\textalpha }\IeC {\texttau }\IeC {\textalpha }\IeC {\textrho }\IeC {\textalpha }\IeC {\textchi }\IeC {\ensuregreek {\acctonos \textepsilon }}\IeC {\textvarsigma } \IeC {\textalpha }\IeC {\textnu }\IeC {\texttheta }\IeC {\textrho }\IeC {\ensuregreek {\acctonos \textomega }}\IeC {\textpi }\IeC {\textiota }\IeC {\textnu }\IeC {\texteta }\IeC {\textvarsigma } \IeC {\textsigma }\IeC {\textupsilon }\IeC {\textmu }\IeC {\textmu }\IeC {\textepsilon }\IeC {\texttau }\IeC {\textomicron }\IeC {\textchi }\IeC {\ensuregreek {\acctonos \texteta }}\IeC {\textvarsigma }}{55}
\select@language {greek}
\select@language {greek}
\contentsline {section}{\numberline {5.6}\IeC {\textEpsilon }\IeC {\textpi }\IeC {\ensuregreek {\acctonos \textiota }}\IeC {\textdelta }\IeC {\textrho }\IeC {\textalpha }\IeC {\textsigma }\IeC {\texteta } \IeC {\texttheta }\IeC {\textomicron }\IeC {\textrho }\IeC {\ensuregreek {\acctonos \textupsilon }}\IeC {\textbeta }\IeC {\textomicron }\IeC {\textupsilon } \IeC {\textmu }\IeC {\ensuregreek {\acctonos \textepsilon }}\IeC {\texttau }\IeC {\textrho }\IeC {\texteta }\IeC {\textsigma }\IeC {\texteta }\IeC {\textvarsigma }}{56}
\select@language {greek}
\select@language {greek}
\contentsline {section}{\numberline {5.7}\IeC {\textSigma }\IeC {\ensuregreek {\acctonos \textupsilon }}\IeC {\textnu }\IeC {\textomicron }\IeC {\textpsi }\IeC {\texteta } \IeC {\textkappa }\IeC {\textepsilon }\IeC {\textphi }\IeC {\textalpha }\IeC {\textlambda }\IeC {\textalpha }\IeC {\ensuregreek {\acctonos \textiota }}\IeC {\textomicron }\IeC {\textupsilon }}{58}
\contentsline {chapter}{\numberline {6}\IeC {\textDelta }\IeC {\textiota }\IeC {\textalpha }\IeC {\textdelta }\IeC {\textrho }\IeC {\textalpha }\IeC {\textsigma }\IeC {\texttau }\IeC {\textiota }\IeC {\textkappa }\IeC {\ensuregreek {\acctonos \texteta }} \IeC {\textrho }\IeC {\textomicron }\IeC {\textmu }\IeC {\textpi }\IeC {\textomicron }\IeC {\texttau }\IeC {\textiota }\IeC {\textkappa }\IeC {\ensuregreek {\acctonos \texteta }} \IeC {\textlambda }\IeC {\ensuregreek {\acctonos \texteta }}\IeC {\textpsi }\IeC {\texteta } \IeC {\textalpha }\IeC {\textnu }\IeC {\texttau }\IeC {\textiota }\IeC {\textkappa }\IeC {\textepsilon }\IeC {\textiota }\IeC {\textmu }\IeC {\ensuregreek {\acctonos \textepsilon }}\IeC {\textnu }\IeC {\textomicron }\IeC {\textupsilon }}{59}
\contentsline {section}{\numberline {6.1}\IeC {\textAlpha }\IeC {\textnu }\IeC {\texttheta }\IeC {\textrho }\IeC {\textomega }\IeC {\textpi }\IeC {\ensuregreek {\acctonos \textomicron }}\IeC {\textmu }\IeC {\textomicron }\IeC {\textrho }\IeC {\textphi }\IeC {\textomicron } \IeC {\textrho }\IeC {\textomicron }\IeC {\textmu }\IeC {\textpi }\IeC {\ensuregreek {\acctonos \textomicron }}\IeC {\texttau } \IeC {\textNu }\IeC {\textAlpha }\IeC {\textOmicron }}{59}
\select@language {greek}
\select@language {greek}
\contentsline {section}{\numberline {6.2}\IeC {\textPi }\IeC {\textrho }\IeC {\textomicron }\IeC {\textsigma }\IeC {\ensuregreek {\acctonos \textepsilon }}\IeC {\textgamma }\IeC {\textgamma }\IeC {\textiota }\IeC {\textsigma }\IeC {\texteta } \IeC {\texttau }\IeC {\textomicron }\IeC {\textupsilon } \IeC {\textpi }\IeC {\textrho }\IeC {\textomicron }\IeC {\textbeta }\IeC {\textlambda }\IeC {\ensuregreek {\acctonos \texteta }}\IeC {\textmu }\IeC {\textalpha }\IeC {\texttau }\IeC {\textomicron }\IeC {\textvarsigma }}{60}
\contentsline {section}{\numberline {6.3}\IeC {\textEpsilon }\IeC {\textpi }\IeC {\textiota }\IeC {\textlambda }\IeC {\textomicron }\IeC {\textgamma }\IeC {\ensuregreek {\acctonos \texteta }} \IeC {\textchi }\IeC {\textalpha }\IeC {\textrho }\IeC {\textalpha }\IeC {\textkappa }\IeC {\texttau }\IeC {\texteta }\IeC {\textrho }\IeC {\textiota }\IeC {\textsigma }\IeC {\texttau }\IeC {\textiota }\IeC {\textkappa }\IeC {\ensuregreek {\acctonos \textomega }}\IeC {\textnu }}{61}
\select@language {greek}
\select@language {greek}
\contentsline {subsection}{\numberline {6.3.1}\IeC {\textMu }\IeC {\textomicron }\IeC {\textnu }\IeC {\texttau }\IeC {\ensuregreek {\acctonos \textepsilon }}\IeC {\textlambda }\IeC {\textomicron } \IeC {\textkappa }\IeC {\ensuregreek {\acctonos \textalpha }}\IeC {\textmu }\IeC {\textepsilon }\IeC {\textrho }\IeC {\textalpha }\IeC {\textvarsigma } \IeC {\textomicron }\IeC {\textpi }\IeC {\ensuregreek {\acctonos \texteta }}\IeC {\textvarsigma }}{62}
\contentsline {subsection}{\numberline {6.3.2}\IeC {\textChi }\IeC {\textalpha }\IeC {\textrho }\IeC {\textalpha }\IeC {\textkappa }\IeC {\texttau }\IeC {\texteta }\IeC {\textrho }\IeC {\textiota }\IeC {\textsigma }\IeC {\texttau }\IeC {\textiota }\IeC {\textkappa }\IeC {\ensuregreek {\acctonos \textalpha }}}{63}
\contentsline {subsubsection}{\IeC {\textKappa }\IeC {\textepsilon }\IeC {\textnu }\IeC {\texttau }\IeC {\textrho }\IeC {\textomicron }\IeC {\textepsilon }\IeC {\textiota }\IeC {\textdelta }\IeC {\ensuregreek {\acctonos \textepsilon }}\IeC {\textvarsigma }}{63}
\select@language {greek}
\select@language {greek}
\contentsline {subsubsection}{\IeC {\textMu }\IeC {\ensuregreek {\acctonos \texteta }}\IeC {\textkappa }\IeC {\textomicron }\IeC {\textvarsigma } \IeC {\textkappa }\IeC {\textalpha }\IeC {\textiota } \IeC {\textpi }\IeC {\textlambda }\IeC {\ensuregreek {\acctonos \textalpha }}\IeC {\texttau }\IeC {\textomicron }\IeC {\textvarsigma }}{64}
\contentsline {subsubsection}{\IeC {\textPi }\IeC {\textrho }\IeC {\textomicron }\IeC {\textsigma }\IeC {\textalpha }\IeC {\textnu }\IeC {\textalpha }\IeC {\texttau }\IeC {\textomicron }\IeC {\textlambda }\IeC {\textiota }\IeC {\textsigma }\IeC {\textmu }\IeC {\ensuregreek {\acctonos \textomicron }}\IeC {\textvarsigma }}{64}
\contentsline {section}{\numberline {6.4}\IeC {\textPi }\IeC {\textepsilon }\IeC {\textiota }\IeC {\textrho }\IeC {\ensuregreek {\acctonos \textalpha }}\IeC {\textmu }\IeC {\textalpha }\IeC {\texttau }\IeC {\textalpha }}{64}
\contentsline {subsection}{\numberline {6.4.1}\IeC {\textPi }\IeC {\textepsilon }\IeC {\ensuregreek {\acctonos \textiota }}\IeC {\textrho }\IeC {\textalpha }\IeC {\textmu }\IeC {\textalpha } 1\textsuperscript {\IeC {\textomicron }}: \IeC {\textSigma }\IeC {\texttau }\IeC {\textalpha }\IeC {\texttau }\IeC {\textiota }\IeC {\textkappa }\IeC {\ensuregreek {\acctonos \texteta }} \IeC {\textrho }\IeC {\textomicron }\IeC {\textmu }\IeC {\textpi }\IeC {\textomicron }\IeC {\texttau }\IeC {\textiota }\IeC {\textkappa }\IeC {\ensuregreek {\acctonos \texteta }} \IeC {\textlambda }\IeC {\ensuregreek {\acctonos \texteta }}\IeC {\textpsi }\IeC {\texteta }}{65}
\select@language {greek}
\select@language {greek}
\select@language {english}
\select@language {greek}
\contentsline {subsection}{\numberline {6.4.2}\IeC {\textPi }\IeC {\textepsilon }\IeC {\ensuregreek {\acctonos \textiota }}\IeC {\textrho }\IeC {\textalpha }\IeC {\textmu }\IeC {\textalpha } 2\textsuperscript {\IeC {\textomicron }}: \IeC {\textDelta }\IeC {\textiota }\IeC {\textalpha }\IeC {\textdelta }\IeC {\textrho }\IeC {\textalpha }\IeC {\textsigma }\IeC {\texttau }\IeC {\textiota }\IeC {\textkappa }\IeC {\ensuregreek {\acctonos \texteta }} \IeC {\textrho }\IeC {\textomicron }\IeC {\textmu }\IeC {\textpi }\IeC {\textomicron }\IeC {\texttau }\IeC {\textiota }\IeC {\textkappa }\IeC {\ensuregreek {\acctonos \texteta }} \IeC {\textlambda }\IeC {\ensuregreek {\acctonos \texteta }}\IeC {\textpsi }\IeC {\texteta }}{66}
\contentsline {subsubsection}{\IeC {\ensuregreek {\acctonos \textEpsilon }}\IeC {\textlambda }\IeC {\textepsilon }\IeC {\textgamma }\IeC {\textchi }\IeC {\textomicron }\IeC {\textvarsigma } \IeC {\textomicron }\IeC {\textpi }\IeC {\texttau }\IeC {\textiota }\IeC {\textkappa }\IeC {\ensuregreek {\acctonos \texteta }}\IeC {\textvarsigma } \IeC {\textomicron }\IeC {\textdelta }\IeC {\ensuregreek {\acctonos \texteta }}\IeC {\textgamma }\IeC {\texteta }\IeC {\textsigma }\IeC {\texteta }\IeC {\textvarsigma }}{67}
\select@language {greek}
\select@language {greek}
\contentsline {subsubsection}{\IeC {\textMu }\IeC {\ensuregreek {\acctonos \texteta }}\IeC {\texttau }\IeC {\textrho }\IeC {\textalpha } \IeC {\textalpha }\IeC {\textlambda }\IeC {\textlambda }\IeC {\texteta }\IeC {\textlambda }\IeC {\textepsilon }\IeC {\textpi }\IeC {\ensuregreek {\acctonos \textiota }}\IeC {\textdelta }\IeC {\textrho }\IeC {\textalpha }\IeC {\textsigma }\IeC {\texteta }\IeC {\textvarsigma }}{68}
\select@language {greek}
\select@language {greek}
\contentsline {subsubsection}{\IeC {\textNu }\IeC {\ensuregreek {\acctonos \textomicron }}\IeC {\textmu }\IeC {\textomicron }\IeC {\textvarsigma } \IeC {\textepsilon }\IeC {\textlambda }\IeC {\ensuregreek {\acctonos \textepsilon }}\IeC {\textgamma }\IeC {\textchi }\IeC {\textomicron }\IeC {\textupsilon }}{70}
\contentsline {subsubsection}{\IeC {\textMu }\IeC {\textepsilon }\IeC {\texttau }\IeC {\textalpha }\IeC {\textsigma }\IeC {\textchi }\IeC {\texteta }\IeC {\textmu }\IeC {\textalpha }\IeC {\texttau }\IeC {\textiota }\IeC {\textsigma }\IeC {\textmu }\IeC {\ensuregreek {\acctonos \textomicron }}\IeC {\textvarsigma } \IeC {\texttau }\IeC {\textepsilon }\IeC {\textlambda }\IeC {\textiota }\IeC {\textkappa }\IeC {\textomicron }\IeC {\ensuregreek {\acctonos \textupsilon }} \IeC {\textsigma }\IeC {\texttau }\IeC {\textomicron }\IeC {\textiota }\IeC {\textchi }\IeC {\textepsilon }\IeC {\ensuregreek {\acctonos \textiota }}\IeC {\textomicron }\IeC {\textupsilon } \IeC {\textdelta }\IeC {\textrho }\IeC {\ensuregreek {\acctonos \textalpha }}\IeC {\textsigma }\IeC {\texteta }\IeC {\textvarsigma }}{70}
\select@language {greek}
\select@language {greek}
\contentsline {section}{\numberline {6.5}\IeC {\textAlpha }\IeC {\textpi }\IeC {\textomicron }\IeC {\texttau }\IeC {\textepsilon }\IeC {\textlambda }\IeC {\ensuregreek {\acctonos \textepsilon }}\IeC {\textsigma }\IeC {\textmu }\IeC {\textalpha }\IeC {\texttau }\IeC {\textalpha } \IeC {\textpi }\IeC {\textepsilon }\IeC {\textiota }\IeC {\textrho }\IeC {\textalpha }\IeC {\textmu }\IeC {\ensuregreek {\acctonos \textalpha }}\IeC {\texttau }\IeC {\textomega }\IeC {\textnu }}{72}
\contentsline {subsection}{\numberline {6.5.1}\IeC {\textSigma }\IeC {\textupsilon }\IeC {\textlambda }\IeC {\textlambda }\IeC {\textomicron }\IeC {\textgamma }\IeC {\ensuregreek {\acctonos \texteta }} \IeC {\textdelta }\IeC {\textepsilon }\IeC {\textdelta }\IeC {\textomicron }\IeC {\textmu }\IeC {\ensuregreek {\acctonos \textepsilon }}\IeC {\textnu }\IeC {\textomega }\IeC {\textnu }}{73}
\contentsline {subsection}{\numberline {6.5.2}\IeC {\textAlpha }\IeC {\textxi }\IeC {\textiota }\IeC {\textomicron }\IeC {\textlambda }\IeC {\ensuregreek {\acctonos \textomicron }}\IeC {\textgamma }\IeC {\texteta }\IeC {\textsigma }\IeC {\texteta } \IeC {\textchi }\IeC {\textrho }\IeC {\textomega }\IeC {\textmu }\IeC {\textalpha }\IeC {\texttau }\IeC {\textiota }\IeC {\textkappa }\IeC {\ensuregreek {\acctonos \texteta }}\IeC {\textvarsigma } \IeC {\textalpha }\IeC {\textnu }\IeC {\ensuregreek {\acctonos \textiota }}\IeC {\textchi }\IeC {\textnu }\IeC {\textepsilon }\IeC {\textupsilon }\IeC {\textsigma }\IeC {\texteta }\IeC {\textvarsigma }}{73}
\select@language {greek}
\select@language {greek}
\contentsline {subsection}{\numberline {6.5.3}\IeC {\textAlpha }\IeC {\textxi }\IeC {\textiota }\IeC {\textomicron }\IeC {\textlambda }\IeC {\ensuregreek {\acctonos \textomicron }}\IeC {\textgamma }\IeC {\texteta }\IeC {\textsigma }\IeC {\texteta } \IeC {\textrho }\IeC {\textomicron }\IeC {\textmu }\IeC {\textpi }\IeC {\textomicron }\IeC {\texttau }\IeC {\textiota }\IeC {\textkappa }\IeC {\ensuregreek {\acctonos \texteta }}\IeC {\textvarsigma } \IeC {\textlambda }\IeC {\ensuregreek {\acctonos \texteta }}\IeC {\textpsi }\IeC {\texteta }\IeC {\textvarsigma }}{74}
\select@language {greek}
\select@language {greek}
\contentsline {subsection}{\numberline {6.5.4}\IeC {\textPi }\IeC {\textlambda }\IeC {\ensuregreek {\acctonos \texteta }}\IeC {\texttheta }\IeC {\textomicron }\IeC {\textvarsigma } \IeC {\textdelta }\IeC {\textepsilon }\IeC {\textiota }\IeC {\textgamma }\IeC {\textmu }\IeC {\ensuregreek {\acctonos \textalpha }}\IeC {\texttau }\IeC {\textomega }\IeC {\textnu } \IeC {\textepsilon }\IeC {\textkappa }\IeC {\textpi }\IeC {\textalpha }\IeC {\ensuregreek {\acctonos \textiota }}\IeC {\textdelta }\IeC {\textepsilon }\IeC {\textupsilon }\IeC {\textsigma }\IeC {\texteta }\IeC {\textvarsigma }}{77}
\select@language {greek}
\select@language {greek}
\select@language {greek}
\select@language {greek}
\select@language {greek}
\select@language {greek}
\contentsline {subsection}{\numberline {6.5.5}\IeC {\textAlpha }\IeC {\textxi }\IeC {\textiota }\IeC {\textomicron }\IeC {\textlambda }\IeC {\ensuregreek {\acctonos \textomicron }}\IeC {\textgamma }\IeC {\texteta }\IeC {\textsigma }\IeC {\texteta } \IeC {\textdelta }\IeC {\textiota }\IeC {\textalpha }\IeC {\textdelta }\IeC {\textrho }\IeC {\textalpha }\IeC {\textsigma }\IeC {\texttau }\IeC {\textiota }\IeC {\textkappa }\IeC {\ensuregreek {\acctonos \texteta }}\IeC {\textvarsigma } \IeC {\textrho }\IeC {\textomicron }\IeC {\textmu }\IeC {\textpi }\IeC {\textomicron }\IeC {\texttau }\IeC {\textiota }\IeC {\textkappa }\IeC {\ensuregreek {\acctonos \texteta }}\IeC {\textvarsigma } \IeC {\textlambda }\IeC {\ensuregreek {\acctonos \texteta }}\IeC {\textpsi }\IeC {\texteta }\IeC {\textvarsigma }}{82}
\contentsline {chapter}{\numberline {7}\IeC {\textSigma }\IeC {\textupsilon }\IeC {\textmu }\IeC {\textpi }\IeC {\textepsilon }\IeC {\textrho }\IeC {\ensuregreek {\acctonos \textalpha }}\IeC {\textsigma }\IeC {\textmu }\IeC {\textalpha }\IeC {\texttau }\IeC {\textalpha } \IeC {\textkappa }\IeC {\textalpha }\IeC {\textiota } \IeC {\textmu }\IeC {\textepsilon }\IeC {\textlambda }\IeC {\textlambda }\IeC {\textomicron }\IeC {\textnu }\IeC {\texttau }\IeC {\textiota }\IeC {\textkappa }\IeC {\ensuregreek {\acctonos \texteta }} \IeC {\textepsilon }\IeC {\textrho }\IeC {\textgamma }\IeC {\textalpha }\IeC {\textsigma }\IeC {\ensuregreek {\acctonos \textiota }}\IeC {\textalpha }}{85}
\contentsline {section}{\numberline {7.1}\IeC {\textAlpha }\IeC {\textnu }\IeC {\ensuregreek {\acctonos \textalpha }}\IeC {\textpi }\IeC {\texttau }\IeC {\textupsilon }\IeC {\textxi }\IeC {\texteta } \IeC {\textdelta }\IeC {\textepsilon }\IeC {\textxi }\IeC {\textiota }\IeC {\textomicron }\IeC {\texttau }\IeC {\ensuregreek {\acctonos \texteta }}\IeC {\texttau }\IeC {\textomega }\IeC {\textnu } \IeC {\textpi }\IeC {\textrho }\IeC {\textomicron }\IeC {\textsigma }\IeC {\textalpha }\IeC {\textrho }\IeC {\textmu }\IeC {\textomicron }\IeC {\textsigma }\IeC {\texttau }\IeC {\textiota }\IeC {\textkappa }\IeC {\ensuregreek {\acctonos \textomicron }}\IeC {\texttau }\IeC {\texteta }\IeC {\texttau }\IeC {\textalpha }\IeC {\textvarsigma } \IeC {\textsigma }\IeC {\textepsilon } \IeC {\textsigma }\IeC {\textepsilon }\IeC {\textnu }\IeC {\ensuregreek {\acctonos \textalpha }}\IeC {\textrho }\IeC {\textiota }\IeC {\textomicron } \IeC {\textalpha }\IeC {\textlambda }\IeC {\textlambda }\IeC {\texteta }\IeC {\textlambda }\IeC {\textepsilon }\IeC {\textpi }\IeC {\ensuregreek {\acctonos \textiota }}\IeC {\textdelta }\IeC {\textrho }\IeC {\textalpha }\IeC {\textsigma }\IeC {\texteta }\IeC {\textvarsigma } \IeC {\textalpha }\IeC {\textnu }\IeC {\texttheta }\IeC {\textrho }\IeC {\ensuregreek {\acctonos \textomega }}\IeC {\textpi }\IeC {\textomicron }\IeC {\textupsilon }-\IeC {\textrho }\IeC {\textomicron }\IeC {\textmu }\IeC {\textpi }\IeC {\ensuregreek {\acctonos \textomicron }}\IeC {\texttau }}{85}
\select@language {greek}
\select@language {greek}
\contentsline {section}{\numberline {7.2}\IeC {\textDelta }\IeC {\textiota }\IeC {\textalpha }\IeC {\textdelta }\IeC {\textrho }\IeC {\textalpha }\IeC {\textsigma }\IeC {\texttau }\IeC {\textiota }\IeC {\textkappa }\IeC {\ensuregreek {\acctonos \texteta }} \IeC {\textrho }\IeC {\textomicron }\IeC {\textmu }\IeC {\textpi }\IeC {\textomicron }\IeC {\texttau }\IeC {\textiota }\IeC {\textkappa }\IeC {\ensuregreek {\acctonos \texteta }} \IeC {\textlambda }\IeC {\ensuregreek {\acctonos \texteta }}\IeC {\textpsi }\IeC {\texteta } \IeC {\textalpha }\IeC {\textnu }\IeC {\texttau }\IeC {\textiota }\IeC {\textkappa }\IeC {\textepsilon }\IeC {\textiota }\IeC {\textmu }\IeC {\ensuregreek {\acctonos \textepsilon }}\IeC {\textnu }\IeC {\textomicron }\IeC {\textupsilon }}{86}
\contentsline {chapter}{\IeC {\textBeta }\IeC {\textiota }\IeC {\textbeta }\IeC {\textlambda }\IeC {\textiota }\IeC {\textomicron }\IeC {\textgamma }\IeC {\textrho }\IeC {\textalpha }\IeC {\textphi }\IeC {\ensuregreek {\acctonos \textiota }}\IeC {\textalpha }}{89}
\contentsline {subparagraph}{}{91}
