This is BibTeX, Version 0.99d (TeX Live 2016)
Capacity: max_strings=100000, hash_size=100000, hash_prime=85009
The top-level auxiliary file: main.aux
The style file: abbrv.bst
A level-1 auxiliary file: abstract.aux
A level-1 auxiliary file: chapter_intro.aux
A level-1 auxiliary file: chapter_rl_theoretical.aux
A level-1 auxiliary file: chapter_detection_theoretical.aux
A level-1 auxiliary file: chapter_classification_theoretical.aux
A level-1 auxiliary file: chapter_rl_experiment.aux
A level-1 auxiliary file: chapter_handover_experiment.aux
A level-1 auxiliary file: chapter_pilot_experiment.aux
A level-1 auxiliary file: chapter_conclusion.aux
Database file #1: references.bib
You've used 1 entry,
            2118 wiz_defined-function locations,
            512 strings with 4068 characters,
and the built_in function-call counts, 302 in all, are:
= -- 24
> -- 18
< -- 0
+ -- 7
- -- 6
* -- 19
:= -- 59
add.period$ -- 3
call.type$ -- 1
change.case$ -- 5
chr.to.int$ -- 0
cite$ -- 1
duplicate$ -- 12
empty$ -- 23
format.name$ -- 6
if$ -- 59
int.to.chr$ -- 0
int.to.str$ -- 1
missing$ -- 2
newline$ -- 8
num.names$ -- 2
pop$ -- 10
preamble$ -- 1
purify$ -- 5
quote$ -- 0
skip$ -- 6
stack$ -- 0
substring$ -- 5
swap$ -- 1
text.length$ -- 0
text.prefix$ -- 0
top$ -- 0
type$ -- 2
warning$ -- 0
while$ -- 2
width$ -- 2
write$ -- 12
