\relax 
\bibstyle{abbrv}
\select@language{greek}
\@writefile{toc}{\select@language{greek}}
\@writefile{lof}{\select@language{greek}}
\@writefile{lot}{\select@language{greek}}
\select@language{greek}
\@writefile{toc}{\select@language{greek}}
\@writefile{lof}{\select@language{greek}}
\@writefile{lot}{\select@language{greek}}
\select@language{greek}
\@writefile{toc}{\select@language{greek}}
\@writefile{lof}{\select@language{greek}}
\@writefile{lot}{\select@language{greek}}
\@input{abstract.aux}
\newlabel{lastfront}{{}{1}}
\@writefile{toc}{\addvspace {1em}}
\select@language{greek}
\@writefile{toc}{\select@language{greek}}
\@writefile{lof}{\select@language{greek}}
\@writefile{lot}{\select@language{greek}}
\select@language{greek}
\@writefile{toc}{\select@language{greek}}
\@writefile{lof}{\select@language{greek}}
\@writefile{lot}{\select@language{greek}}
\@writefile{toc}{\contentsline {chapter}{\textPi \textepsilon \textrho \textiota \textepsilon \textchi \acctonos \textomicron \textmu \textepsilon \textnu \textalpha }{9}}
\citation{[sutton]}
\@writefile{toc}{\contentsline {chapter}{\selectlanguage  {greek}\textKappa \textalpha \texttau \acctonos \textalpha \textlambda \textomicron \textgamma \textomicron \textfinalsigma {} \textSigma \textchi \texteta \textmu \acctonos \textalpha \texttau \textomega \textnu }{12}}
\@writefile{toc}{\contentsline {chapter}{\textKappa \textalpha \texttau \acctonos \textalpha \textlambda \textomicron \textgamma \textomicron \textfinalsigma {} \textPi \textiota \textnu \acctonos \textalpha \textkappa \textomega \textnu }{13}}
\@input{chapter_intro.aux}
\@input{chapter_rl_theoretical.aux}
\@input{chapter_detection_theoretical.aux}
\@input{chapter_classification_theoretical.aux}
\@input{chapter_rl_experiment.aux}
\@input{chapter_handover_experiment.aux}
\@input{chapter_conclusion.aux}
\@input{references.aux}
\@writefile{toc}{\contentsline {subparagraph}{}{91}}
\newlabel{lastback}{{7.2}{91}}
