\begin{thebibliography}{1}

\bibitem{Duda2000}
R.~O. Duda, P.~E. Hart, and D.~G. Stork.
\newblock {\em Pattern Classification (2Nd Edition)}.
\newblock Wiley-Interscience, 2000.

\end{thebibliography}
