\relax 
\bibcite{[sutton]}{1}
\bibcite{[duda_hart]}{2}
\bibcite{[maragos]}{3}
\bibcite{[siciliano]}{4}
\bibcite{[khamassi_irs]}{5}
\bibcite{[tsitsimis]}{6}
\bibcite{[handbook]}{7}
\bibcite{[anzalone]}{8}
\bibcite{[hanan_salam]}{9}
\bibcite{[hanan_salam2]}{10}
\bibcite{[ooko]}{11}
\@writefile{toc}{\contentsline {chapter}{\IeC {\textBeta }\IeC {\textiota }\IeC {\textbeta }\IeC {\textlambda }\IeC {\textiota }\IeC {\textomicron }\IeC {\textgamma }\IeC {\textrho }\IeC {\textalpha }\IeC {\textphi }\IeC {\ensuregreek {\acctonos \textiota }}\IeC {\textalpha }}{89}}
\bibcite{[towards]}{12}
\bibcite{[schweighofer]}{13}
\bibcite{[masson]}{14}
\bibcite{[Hausknecht]}{15}
\bibcite{[hasselt]}{16}
\@setckpt{references}{
\setcounter{page}{91}
\setcounter{equation}{0}
\setcounter{enumi}{2}
\setcounter{enumii}{0}
\setcounter{enumiii}{0}
\setcounter{enumiv}{16}
\setcounter{footnote}{0}
\setcounter{mpfootnote}{0}
\setcounter{parentequation}{0}
\setcounter{part}{0}
\setcounter{chapter}{7}
\setcounter{section}{2}
\setcounter{subsection}{0}
\setcounter{subsubsection}{0}
\setcounter{paragraph}{0}
\setcounter{subparagraph}{0}
\setcounter{figure}{0}
\setcounter{table}{0}
\setcounter{ContinuedFloat}{0}
\setcounter{subfigure}{0}
\setcounter{subtable}{0}
\setcounter{float@type}{8}
\setcounter{algorithm}{2}
\setcounter{ALC@unique}{40}
\setcounter{ALC@line}{31}
\setcounter{ALC@rem}{0}
\setcounter{ALC@depth}{0}
\setcounter{definition}{0}
\setcounter{proposition}{0}
\setcounter{theorem}{0}
\setcounter{corollary}{0}
\setcounter{lemma}{0}
\setcounter{example}{0}
\setcounter{remark}{0}
\setcounter{notation}{0}
\setcounter{law}{0}
}
